Label,Agreement,Tree,BoundBegin,BoundEnd,!,",",.,BinPosition0,BinPosition1,BinPosition3,BinPosition5,BinPosition7,BinPosition9,CC,DEP-Conditional,DEP-Connective,DEP-Copula,DEP-FirstPerson,DEP-Imperative,DEP-IndefArticle,DEP-LIWC_Affect,DEP-LIWC_Cogmech,DEP-LIWC_Motion,DEP-Modal,DEP-Negate,DEP-Question,DEP-Quote,DEP-SecondPerson,DEP-StativeVerb,DEP-ThirdPersonProg,DEP-ThirdPersonStat,DEP-Time,DT,FirstClause,IN,INDEP-Conditional,INDEP-Connective,INDEP-Copula,INDEP-FirstPerson,INDEP-Imperative,INDEP-IndefArticle,INDEP-LIWC_Affect,INDEP-LIWC_Cogmech,INDEP-LIWC_Motion,INDEP-Modal,INDEP-Negate,INDEP-Question,INDEP-Quote,INDEP-SecondPerson,INDEP-StativeVerb,INDEP-ThirdPersonProg,INDEP-ThirdPersonStat,INDEP-Time,JJ,LastClause,NN,NNP,NNS,PRP,PRP$,RB,RBS,RP,TO,VB,VBD,VBG,VBN,`,``,a,actual,again,along,and,back,be,bottl,bring,cook,david,decent,dent,dinner,feel,final,for,frequent,get,giant,good,hang,have,into,it,last,m.,make,michel,most,neighbor,nice,not,of,out,over,see,share,she,sinc,sunday,that,the,they,time,to,too,veri,via,we,while,wine,with,work
Orientation,3,"(ROOT (S (NP (JJ Last-0)) (VP (S (NP (NP (NNP Sunday-1)) (PRN (, ,-2) (S (NP (PRP we-3)) (ADVP (RB finally-4)) (VP (VBD had-5) (NP (NP (DT a-6) (NN dinner-7)) (PP (IN for-8) (NP (NNP David-9) (NNP M.-10)))) (, ,-11) (ADVP (IN along-12) (PP (IN with-13) (NP (PRP$ our-14) (NNS neighbors-15)))) (SBAR (IN since-16) (S (NP (PRP we-17)) (VP (VBD had-18) (RB n't-19) (VP (VBN seen-20) (NP (PRP them-21)) (PP (IN for-22) (NP (DT a-23) (NN while-24)))))))))) (`` `-25)))) (. .-26)))",0,0,0,1,1,1,0,0,0,0,0,0,0,1,0,1,0,1,0,1,0,0,1,0,0,0,0,0,0,1,1,1,1,0,0,0,0,0,0,0,0,0,0,0,0,0,0,0,0,0,1,1,0,1,1,1,1,1,1,0,0,0,0,1,0,1,1,1,1,0,0,1,0,0,0,0,0,0,1,0,0,1,0,1,1,0,0,0,0,0,1,0,0,1,1,0,0,0,1,0,1,0,0,0,1,0,0,1,1,0,0,1,0,0,0,0,0,1,1,0,1,0
Evaluation,3,(ADJP (JJ Good-0) (S (VP (TO to-1) (VP (VB be-2) (UCP (ADVP (RB back-3) (PP (TO to-4) (NP (PRP$ our-5) (JJ frequent-6) (NN dinner-7) (NN sharing-8)))) (CC and-9) (VP (VBG hanging-10) (PRT (RP out-11)))))))),0,1,0,1,0,0,1,0,0,0,0,1,0,0,0,0,0,0,0,0,0,0,0,0,0,0,0,0,0,0,0,0,0,0,1,0,1,0,0,0,0,1,0,0,0,0,0,0,0,0,0,1,0,1,0,0,0,1,1,0,1,1,1,0,1,0,0,0,0,0,0,0,1,1,1,0,0,0,0,0,0,1,0,0,0,1,0,0,1,1,0,0,0,0,0,0,0,0,0,0,0,0,1,0,0,1,0,0,0,0,0,0,0,1,0,0,0,1,0,0,0,0
Evaluation,3,(ADJP (RB very-1) (JJ nice-2) (S (VP (TO to-3) (VP (VB have-4) (NP (NP (NN time-5)) (PP (IN with-6) (NP (NNP David-7) (NNP M.-8)))) (ADVP (RB too-9)))))),1,0,0,0,1,0,0,1,0,0,0,1,0,0,0,0,0,0,0,0,0,0,0,0,0,0,0,0,0,0,0,0,1,0,1,0,0,0,0,0,0,0,0,0,0,0,0,0,0,0,0,1,0,1,1,0,0,0,1,0,0,1,1,0,0,0,0,0,0,0,0,0,1,0,0,0,0,0,1,0,0,0,0,0,0,0,0,0,0,0,1,0,0,0,1,0,0,0,0,1,0,0,0,0,0,0,0,0,0,0,0,0,1,1,1,1,0,0,0,0,1,0
Evaluation,3,(ROOT (S (NP (PRP It-0)) (VP (VBD felt-1) (ADJP (JJ good-2) (S (VP (TO to-3) (VP (VB be-4) (ADJP (JJ cooking-5)) (ADVP (RB again-6))))))) (. .-7))),0,0,0,0,1,0,0,0,1,0,0,0,0,0,1,0,0,0,0,0,0,0,0,0,0,0,0,0,0,0,0,0,0,0,0,0,0,0,0,0,1,0,0,0,0,0,0,1,0,0,0,1,0,0,0,0,1,0,1,0,0,1,1,1,0,0,0,0,0,0,1,0,0,0,1,0,0,1,0,0,0,0,1,0,0,0,0,0,1,0,0,0,1,0,0,0,0,0,0,0,0,0,0,0,0,0,0,0,0,0,0,0,0,1,0,0,0,0,0,0,0,0
Action,3,(ROOT (S (NP (NNP Michelle-0)) (VP (VBD brought-1) (PRT (RP over-2)) (NP (NP (DT the-3) (RBS most-4) (JJ giant-5) (NN bottle-6)) (PP (IN of-7) (NP (NN wine-8)))) (SBAR (IN that-9) (S (NP (PRP she-10)) (VP (VBD got-11) (PP (IN via-12) (NP (NN work-13))))))) (. .-14))),0,0,0,0,1,0,0,0,0,1,0,0,0,0,0,0,0,0,0,0,0,0,0,0,0,0,0,0,0,0,1,0,1,0,0,0,0,0,0,0,0,1,0,0,0,0,0,0,0,0,0,1,0,1,1,0,1,0,0,1,1,0,0,1,0,0,0,0,0,0,0,0,0,0,0,1,1,0,0,0,0,0,0,0,0,0,1,1,0,0,0,0,0,0,0,0,1,1,0,0,0,1,0,1,0,0,1,0,0,1,1,0,0,0,0,0,1,0,0,1,0,1
Action,2,(ROOT (S (NP (PRP We-0)) (ADVP (RB actually-1)) (VP (VBD made-2) (NP (DT a-3) (ADJP (RB very-4) (JJ decent-5)) (NN dent-6)) (PP (IN into-7) (NP (DT the-8) (NN wine-9)))) (. !-10))),0,0,1,0,1,0,0,0,0,0,1,0,0,0,0,0,0,0,0,0,0,0,0,0,0,0,0,0,0,0,1,0,1,0,0,0,1,0,1,0,1,0,0,0,0,0,0,0,0,0,0,1,1,1,0,0,1,0,1,0,0,0,0,1,0,0,0,0,1,1,0,0,0,0,0,0,0,0,0,1,1,0,0,0,0,0,0,0,0,0,0,1,0,0,0,1,0,0,0,0,0,0,0,0,0,0,0,0,0,0,1,0,0,0,0,1,0,1,0,1,0,0
