Label,Agreement,Tree,BoundBegin,BoundEnd,'ll,'s,",",-LRB-,-RRB-,-lrb-,-rrb-,.,...,50,:,BinPosition0,BinPosition1,BinPosition2,BinPosition3,BinPosition4,BinPosition5,BinPosition6,BinPosition7,BinPosition8,BinPosition9,CC,CD,DEP-Conditional,DEP-Connective,DEP-Copula,DEP-FirstPerson,DEP-Imperative,DEP-IndefArticle,DEP-LIWC_Affect,DEP-LIWC_Cogmech,DEP-LIWC_Motion,DEP-Modal,DEP-Negate,DEP-Question,DEP-Quote,DEP-SecondPerson,DEP-StativeVerb,DEP-ThirdPersonProg,DEP-ThirdPersonStat,DEP-Time,DT,FirstClause,IN,INDEP-Conditional,INDEP-Connective,INDEP-Copula,INDEP-FirstPerson,INDEP-Imperative,INDEP-IndefArticle,INDEP-LIWC_Affect,INDEP-LIWC_Cogmech,INDEP-LIWC_Motion,INDEP-Modal,INDEP-Negate,INDEP-Question,INDEP-Quote,INDEP-SecondPerson,INDEP-StativeVerb,INDEP-ThirdPersonProg,INDEP-ThirdPersonStat,INDEP-Time,JJ,JJR,LastClause,MD,NN,NNP,NNS,PDT,POS,PRP,PRP$,RB,RP,TO,VB,VBD,VBG,VBN,VBZ,WRB,a,after,all,and,annot,arthur,at,back,be,book,camp,car,cent,cheap,color,comment,cours,day,do,each,easter,even,find,flutter,four,french,get,go,have,he,home,hour,i,in,jonah,journal,keep,later,lot,lyric,mention,mind,more,nice,not,of,on,one,or,pad,page,pen,pick,proceed,read,room,seal,second,see,so,song,staffer,stop,text,that,the,theme,they,thi,to,truck,up,veri,want,we,when,where,wick,with,word,would,write
Orientation,3,(S (NP (PRP We-0)) (VP (MD 'd-1) (RB not-2) (S (VP (VBN mentioned-3) (PP (TO to-4) (NP (DT the-5) (NNP Easter-6) (NNP Seals-7) (NNS staffers-8))) (SBAR (WHADVP (WRB where-9)) (S (NP (NNP Jonah-10)) (VP (VBZ is-11) (VP (VBG doing-12) (NP (NN day-13) (NN camp-14)) (SBAR (IN that-15) (S (NP (PRP he-16)) (VP (VP (VBZ reads-17)) (CC and-18) (VP (VBZ writes-19))))))))))))),0,1,0,0,1,0,0,0,0,0,0,0,0,1,0,0,0,0,0,0,0,0,0,1,0,0,1,0,0,1,0,0,1,0,0,0,0,0,0,0,1,0,1,1,1,1,0,0,0,1,0,0,0,0,0,1,1,0,0,0,0,0,0,0,0,0,0,1,1,1,1,0,0,1,0,1,0,1,0,0,1,1,1,1,0,0,0,1,0,0,0,0,1,0,1,0,0,0,0,0,0,1,1,0,1,0,0,0,0,0,0,0,0,1,0,0,0,0,1,0,0,0,0,0,1,0,0,0,1,0,0,0,0,0,0,0,0,0,1,0,1,0,0,0,0,1,0,0,1,1,0,0,0,1,0,0,0,0,1,0,1,0,0,0,1,1
Orientation,1,(VP (VBD picked-7) (PRT (RP up-8)) (NP (NP (DT a-9) (NN pen-10)) (CC and-11) (NP (NP (DT a-12) (NN pad-13)) (PP (IN of-14) (NP (NN paper-15)))))),1,1,0,0,0,0,0,0,0,0,0,0,0,0,1,0,0,0,0,0,0,0,0,1,0,0,0,0,0,0,0,0,0,0,0,0,0,0,0,0,0,0,0,1,0,1,0,1,0,0,0,1,0,1,0,0,0,0,0,0,0,1,0,0,0,0,0,0,1,1,0,0,0,1,0,1,1,0,0,1,0,1,0,1,1,0,0,1,0,0,0,0,1,0,0,0,0,0,0,0,0,0,0,0,0,0,0,1,0,0,0,0,0,0,0,0,0,0,1,0,0,0,0,0,0,0,0,0,0,1,0,0,0,1,0,1,1,0,0,0,0,0,0,1,0,0,0,0,0,0,0,1,0,0,0,1,1,0,0,1,0,0,0,0,0,0
Action,2,"(VP (VBD proceeded-1) (S (VP (TO to-2) (VP (VB write-3) (, ,-4) (CC and-5) (VB write-6) (, ,-7) (CC and-8) (VB write-9)))))",1,0,0,0,1,0,0,0,0,1,0,0,0,0,0,1,0,0,0,0,0,0,0,1,0,0,0,0,0,0,0,0,0,0,0,0,0,0,0,0,0,0,0,0,0,0,0,1,0,0,0,0,0,1,0,0,0,0,0,0,0,0,0,0,0,0,0,0,0,0,0,0,0,0,0,0,0,1,1,1,0,0,0,0,0,0,0,1,0,0,0,0,0,0,0,0,0,0,0,0,0,0,0,0,0,0,0,0,0,0,0,0,0,0,0,0,0,0,0,0,0,0,0,0,0,0,0,0,0,0,0,0,0,0,0,0,0,1,0,0,0,0,0,0,0,0,0,0,0,0,0,0,0,1,0,0,0,0,0,0,0,0,0,0,0,1
Orientation,1,(ROOT (NP (NP (PDT All-0) (DT the-1) (NNS lyrics-2)) (PP (IN of-3) (NP (DT the-4) (NNP Arthur-5) (NN theme-6) (NN song-7))) (. .-8))),0,0,0,0,0,0,0,0,0,1,0,0,0,0,0,0,1,0,0,0,0,0,0,0,0,0,0,0,0,0,0,0,0,0,0,0,0,0,0,0,0,0,0,1,0,1,0,0,0,0,0,0,0,0,0,0,0,0,0,0,0,0,0,0,0,0,0,0,1,1,1,1,0,0,0,0,0,0,0,0,0,0,0,0,0,0,1,0,0,1,0,0,0,0,0,0,0,0,0,0,0,0,0,0,0,0,0,0,0,0,0,0,0,0,0,0,0,0,0,0,0,0,0,1,0,0,0,0,0,1,0,0,0,0,0,0,0,0,0,0,0,0,0,0,1,0,0,0,0,1,1,0,0,0,0,0,0,0,0,0,0,0,0,0,0,0
Stative - Consequence,1,(ROOT (NP (NP (NP (NNS Comments-0)) (PP (IN on-1) (NP (PRP$ his-2))) (VP (VBG wanting-3) (S (VP (TO to-4) (VP (VP (VB go-5) (PP (TO to-6) (NP (NP (CD one-7) (NN room-8)) (CC or-9) (NP (NN home-10))))) (CC or-11) (VP (VB get-12) (PP (IN in-13) (NP (DT the-14) (NN truck-15))) (ADVP (CC or-16)))))))) (: ...-17))),0,0,0,0,0,0,0,0,0,0,1,0,1,0,0,0,0,1,0,0,0,0,0,1,1,0,0,0,0,0,0,0,0,1,0,0,0,0,0,0,0,0,0,1,0,1,0,0,0,0,0,0,0,1,0,0,0,0,0,0,1,0,0,0,0,0,0,0,1,0,1,0,0,0,1,0,0,1,1,0,1,0,0,0,0,0,0,0,0,0,0,0,0,0,0,0,0,0,0,1,0,0,0,0,0,0,0,0,0,0,1,1,0,1,1,0,0,1,0,0,0,0,0,0,0,0,0,0,0,0,1,1,1,0,0,0,0,0,0,1,0,0,0,0,0,0,0,0,0,1,0,0,0,1,1,0,0,1,0,0,0,0,0,0,0,0
Action,3,(ROOT (S (PP (IN At-0) (NP (NN home-1))) (NP (NNP Jonah-2)) (VP (VBD kept-3) (S (VP (VBG writing-4)))) (. .-5))),0,0,0,0,0,0,0,0,0,1,0,0,0,0,0,0,0,0,1,0,0,0,0,0,0,0,0,0,0,1,0,0,1,0,0,0,0,0,0,0,0,0,0,0,0,1,0,0,0,0,0,0,0,1,0,0,0,0,0,0,0,0,0,0,0,0,0,0,1,1,0,0,0,0,0,0,0,0,0,1,1,0,0,0,0,0,0,0,0,0,1,0,0,0,0,0,0,0,0,0,0,0,0,0,0,0,0,0,0,0,0,0,0,0,1,0,0,0,1,0,1,0,0,0,0,0,0,0,0,0,0,0,0,0,0,0,0,0,0,0,0,0,0,0,0,0,0,0,0,0,0,0,0,0,0,0,0,0,0,0,0,0,0,0,0,1
Action,3,(ROOT (S (NP (PRP I-0)) (VP (VP (VBD stopped-1)) (CC and-2) (VP (VBD picked-3) (NP (PRP him-4)) (PRT (RP up-5)) (NP (NP (CD four-6) (NNS journals-7)) (PP (IN at-8) (NP (NP (NP (NP (CD 50-9) (NNS cents-10)) (NP (DT each-11))) (PRN (-LRB- -LRB--12) (ADJP (JJ wicked-13) (JJ cheap-14)) (-RRB- -RRB--15))) (CC and-16) (NP (DT a-17) (JJ nice-18) (NN pen-19))))))) (. .-20))),0,0,0,0,0,1,1,1,1,1,0,1,0,0,0,0,0,0,0,1,0,0,0,1,1,0,0,0,0,0,0,0,0,0,0,0,0,0,0,0,0,0,0,1,0,1,0,1,0,1,0,1,0,1,0,0,0,0,0,0,0,0,0,0,1,0,0,0,1,0,1,0,0,1,0,0,1,0,0,1,0,0,0,0,1,0,0,1,0,0,1,0,0,0,0,0,1,1,0,0,0,0,0,1,0,0,0,0,1,0,0,0,0,1,0,0,1,0,0,1,0,0,0,0,0,0,0,1,0,0,0,0,0,0,0,1,1,0,0,0,0,0,0,0,0,0,1,0,0,0,0,0,0,0,0,1,0,0,0,0,0,1,0,0,0,0
Action,3,(VP (VBG reading-4) (NP (DT a-5) (JJ second-6) (NN course-7))),0,1,0,0,1,0,0,0,0,0,0,0,0,0,0,0,0,0,0,0,1,0,0,0,0,0,0,0,0,0,0,0,0,0,0,0,0,0,0,0,0,0,0,1,0,1,0,1,0,1,0,1,0,1,0,0,0,0,0,0,0,0,0,1,1,0,0,0,1,0,0,0,0,1,0,1,0,0,0,1,1,0,0,0,1,1,0,0,0,0,0,0,0,0,0,0,0,0,0,0,1,0,0,0,0,0,1,0,0,1,0,0,0,1,0,0,1,0,0,0,0,1,0,0,0,0,0,0,0,0,0,0,0,0,1,0,0,0,1,0,0,1,0,0,0,0,0,1,0,0,0,0,0,0,0,0,0,0,0,0,0,0,0,0,0,0
Action,3,"(PP (IN after-1) (NP (NP (DT an-2) (NN hour-3)) (PP (IN of-4) (SBAR (IN that-5) (S (NP (PRP he-6)) (VP (VBD was-7) (VP (ADVP (RB back-8)) (VP (VBG writing-9)) (, ,-10) (VP (VBG annotating-11) (NP (PRP$ his-12) (NNS Cars-13)) (S (VP (VBG coloring-14) (NP (NN book-15)) (PP (IN with-16) (NP (JJR more-17) (NNS words-18)))))))))))))",1,0,0,0,1,0,0,0,0,1,0,0,0,0,0,0,0,0,0,0,0,1,0,1,0,0,0,0,0,0,0,0,1,0,0,0,0,0,0,0,1,0,0,1,0,1,0,1,0,0,0,1,0,0,0,0,0,0,0,0,0,0,0,1,0,1,0,0,1,0,1,0,0,1,1,1,0,0,0,1,1,0,0,0,1,1,0,1,1,0,0,1,1,1,0,1,0,0,1,0,0,0,0,0,0,0,0,0,0,0,0,0,0,1,0,1,0,0,0,0,0,0,0,0,0,0,1,0,0,1,0,0,0,0,0,0,0,0,0,0,0,0,0,0,0,0,0,0,1,0,0,0,0,0,0,0,0,0,0,0,0,0,1,1,0,1
Evaluation,3,(ROOT (S (NP (PRP I-0)) (VP (MD 'll-1) (VP (VB have-2) (NP (NP (DT a-3) (NN lot-4)) (PP (IN of-5) (S (VP (VBG reading-6) (S (VP (TO to-7) (VP (VB do-8) (NP (DT this-9) (NN evening-10) (S (VP (TO to-11) (VP (VB see-12) (SBAR (WHADVP (WRB where-13)) (S (NP (NP (PRP$ his-14) (NN mind-15)) (POS 's-16)) (VP (VBN been-17))))))))))))))))) (. .-18))),0,0,1,1,0,0,0,0,0,1,0,0,0,0,0,0,0,0,0,0,0,0,1,0,0,0,0,0,0,1,0,0,0,0,0,0,0,0,0,1,1,0,1,1,0,1,0,0,0,1,0,1,0,1,0,1,0,0,0,0,0,0,0,0,0,0,1,1,1,0,0,0,1,1,1,0,0,1,1,0,1,1,0,1,1,0,0,0,0,0,0,0,1,0,0,0,0,0,0,0,0,0,1,0,0,1,0,0,0,0,0,0,1,1,0,0,1,0,0,0,0,0,1,0,0,1,0,0,0,1,0,0,0,0,0,0,0,0,1,0,0,0,1,0,0,0,0,0,0,0,0,0,1,1,0,0,0,0,0,0,1,0,0,0,0,0
