Label,Agreement,Tree,BoundBegin,BoundEnd,','','s,",",-,-LRB-,-RRB-,-lrb-,-rrb-,.,:,;,BinPosition0,BinPosition1,BinPosition2,BinPosition3,BinPosition4,BinPosition5,BinPosition6,BinPosition7,BinPosition8,BinPosition9,CC,DEP-Conditional,DEP-Connective,DEP-Copula,DEP-FirstPerson,DEP-Imperative,DEP-IndefArticle,DEP-LIWC_Affect,DEP-LIWC_Cogmech,DEP-LIWC_Motion,DEP-Modal,DEP-Negate,DEP-Question,DEP-Quote,DEP-SecondPerson,DEP-StativeVerb,DEP-ThirdPersonProg,DEP-ThirdPersonStat,DEP-Time,DT,FirstClause,IN,INDEP-Conditional,INDEP-Connective,INDEP-Copula,INDEP-FirstPerson,INDEP-Imperative,INDEP-IndefArticle,INDEP-LIWC_Affect,INDEP-LIWC_Cogmech,INDEP-LIWC_Motion,INDEP-Modal,INDEP-Negate,INDEP-Question,INDEP-Quote,INDEP-SecondPerson,INDEP-StativeVerb,INDEP-ThirdPersonProg,INDEP-ThirdPersonStat,INDEP-Time,JJ,LS,LastClause,MD,NN,NNP,NNS,POS,PRP,PRP$,RB,RP,TO,VB,VBD,VBG,VBN,VBP,VBZ,WRB,`,``,a,all,alreadi,and,anyth,at,b,be,bore,but,campu,cart,cheati,class,colleg,coolidg,corvett,cough,danger,down,drive,dude,dynamite-esqu,enough,except,for,frosh,gear,get,golf,guy,have,he,head,hell,hill,home,i,in,it,jack,know,leap,legend,light,littl,make,man,mcguff,mcguffi,mcsweatervest,mean,michigan,moe,my,napoleon,nice,no,normal,not,note,of,ok,on,on-com,out,pimp,pipe,plu,probabl,pull,ramp,roll,sam,scooter,see,serious,some,south,st.,state,stop,store,style,sure,sweet,that,the,thi,thing,think,to,today,total,traffic,u,up,van,version,way,we,wheeli,when,where,while,wilder,with,would,wrong,you
Orientation,3,(VP (VBD was-1) (ADVP (RB down-2) (PP (IN on-3) (NP (NP (NN campus-4) (NN today-5)) (VP (VBG gearing-6) (PRT (RP up-7)) (PP (IN at-8) (NP (NNP Moe-9) (POS 's-10)))))))),0,1,0,0,1,1,0,0,0,0,0,0,0,0,1,0,0,0,0,0,0,0,0,0,0,0,0,0,0,0,0,0,0,0,0,0,0,0,0,0,0,0,0,0,1,1,0,0,0,1,0,0,0,0,0,0,0,0,0,0,0,0,0,1,0,0,0,0,1,1,0,1,1,0,1,1,0,0,1,1,0,0,0,0,0,0,0,0,0,0,0,1,0,1,0,0,1,0,0,0,0,0,0,0,0,1,0,0,0,0,0,0,0,1,0,0,0,0,0,0,0,0,0,1,0,0,0,0,0,0,0,0,0,0,0,0,0,0,0,1,0,0,0,0,0,0,0,0,0,1,0,0,0,0,0,0,0,0,0,0,0,0,0,0,0,0,0,0,0,0,0,0,0,0,0,0,0,0,1,0,0,0,1,0,0,0,0,0,0,0,0,0,0,0,0,0
Action,3,(VP (VBD drove-1) (PRT (RP down-2)) (NP (NP (NN State-3) (NNP St.-4)) (PP (IN on-5) (NP (PRP$ my-6) (NN way-7) (NN home-8))))),1,0,0,0,0,0,0,0,0,0,0,1,0,0,1,0,0,0,0,0,0,0,0,0,1,0,0,0,0,0,0,0,0,0,0,0,0,0,0,0,0,0,0,0,0,1,0,1,0,1,0,0,0,0,1,0,0,0,0,0,0,0,0,0,0,0,0,0,1,1,0,0,0,1,0,1,0,0,1,0,0,0,0,0,0,0,0,0,0,1,0,0,0,0,0,0,0,0,0,0,0,0,0,0,0,1,1,0,0,0,0,0,0,0,0,0,0,0,0,0,0,0,1,0,0,0,0,0,0,0,0,0,0,0,0,0,0,0,0,0,1,0,0,0,0,0,0,0,0,1,0,0,0,0,0,0,0,0,0,0,0,0,0,0,0,1,1,0,0,0,0,0,0,0,0,0,0,0,0,0,0,0,0,0,0,1,0,0,0,0,0,0,0,0,0,0
Action,3,"(ROOT (S (SBAR (IN While-0) (S (VP (VBN stopped-1) (PP (IN at-2) (NP (NP (DT the-3) (NN light-4)) (PP (IN on-5) (NP (NNP Hill-6) (CC and-7) (NNP State-8)))))))) (, ,-9) (NP (PRP I-10)) (VP (VBD saw-11) (NP (NNP Sam-12) (NNP McGuffie-13))) (. .-14)))",0,0,0,0,0,1,0,0,0,0,0,1,0,0,0,1,0,0,0,0,0,0,0,0,1,0,1,0,0,1,0,0,1,0,0,0,0,0,0,0,0,0,0,1,0,1,0,1,0,1,0,0,0,0,0,0,0,0,0,0,0,0,0,0,0,0,0,0,1,1,0,0,1,0,0,0,0,0,1,0,1,0,0,0,0,0,0,0,0,1,0,1,0,0,0,0,0,0,0,0,0,0,0,0,0,0,0,0,0,0,0,0,0,0,0,0,0,0,0,0,0,1,0,1,0,0,0,0,0,0,1,0,0,0,0,1,0,0,0,0,0,0,0,0,0,0,0,0,0,1,0,0,0,0,0,0,0,0,0,1,0,1,0,0,0,0,1,1,0,0,0,0,0,1,0,0,0,0,0,0,0,0,0,0,0,0,0,0,0,0,1,0,0,0,0,0
Evaluation,1,"(ROOT (S (NP (DT This-0)) (ADVP (RB normally-1)) (VP (MD would-2) (RB n't-3) (VP (VB be-4) (NP (NP (NN anything-5)) (PP (IN of-6) (NP (NN note-7)))) (, ,-8) (SBAR (IN except-9) (S (S (LST (-LRB- -LRB--10) (DT a-11) (-RRB- -RRB--12)) (NP (NN dude-13)) (VP (VBZ is-14) (VP (VBN jacked-15)))) (: --16) (S (PP (IN for-17) (NP (DT a-18) (`` `-19) (JJ little-20) ('' '-21) (NN guy-22))) (, ,-23) (NP (PRP he-24)) (VP (VBZ 's-25) (VP (VBD got-26) (NP (NP (DT some-27) (NNS pipes-28)) (: ;-29) (CC and-30) (NP (LST (-LRB- -LRB--31) (LS b-32) (-RRB- -RRB--33)) (NP (NN dude-34) (NNS rolls-35)) (PP (IN in-36) (NP (NP (DT a-37)) (VP (VBN pimped-38) (PRT (RP out-39)) (NP (NP (NN version-40)) (PP (IN of-41) (NP (DT the-42) (NNP Scooter-43) (NNP Store-44)))))))))))))))) (. .-45)))",0,0,1,1,0,1,1,1,1,1,1,1,1,1,0,0,1,0,0,0,0,0,0,0,1,0,1,0,0,0,1,0,0,0,0,0,0,0,0,0,1,0,0,1,0,1,0,0,1,0,0,0,0,0,0,1,1,0,0,0,0,0,0,0,1,1,0,1,1,1,1,0,1,0,1,1,0,1,1,0,1,0,1,0,1,1,1,0,0,1,1,0,1,1,0,0,0,0,0,0,0,0,0,0,0,0,0,1,0,0,1,1,0,0,1,0,1,0,1,0,0,0,0,0,1,0,1,0,0,0,0,1,0,0,0,0,0,0,0,0,0,0,0,0,1,1,1,1,0,0,0,1,1,1,0,0,0,0,1,0,1,0,0,1,0,0,0,0,1,0,0,0,0,1,1,0,0,0,0,0,0,0,0,0,1,0,0,0,0,0,0,0,0,1,0,0
Evaluation,3,"(ROOT (S (ADVP (RB Seriously-0)) (, ,-1) (NP (PRP I-2)) (VP (VBP think-3) (SBAR (S (NP (DT that-4)) (VP (VBZ 's-5) (ADJP (JJ enough-6) (S (VP (TO to-7) (VP (VB make-8) (S (NP (PRP him-9)) (NP (DT a-10) (NNP Michigan-11) (NN legend-12))) (ADVP (RB already-13)))))))))) (. .-14)))",0,0,0,0,0,1,0,0,0,0,0,1,0,0,0,0,1,0,0,0,0,0,0,0,0,0,0,1,0,0,1,0,1,0,0,0,0,0,0,0,0,0,0,1,0,0,0,0,0,1,0,0,0,1,0,0,0,0,0,0,0,0,0,0,1,0,0,0,1,1,0,0,1,0,1,0,1,1,0,0,0,1,1,0,0,0,1,0,1,0,0,0,0,1,0,0,0,0,0,0,0,0,0,0,0,0,0,0,0,1,0,0,0,0,0,0,0,0,1,0,0,0,0,1,0,0,0,0,0,1,0,0,1,0,0,0,0,0,1,0,0,0,0,0,0,0,0,0,0,0,0,0,0,0,0,0,0,0,0,0,0,0,1,0,0,0,0,0,0,0,0,0,1,0,0,0,1,1,0,0,0,0,0,0,0,0,0,0,0,0,0,0,0,0,0,0
Evaluation,3,"(ROOT (S (S (NP (PRP I-0)) (VP (VBP mean-1))) (, ,-2) (NP (PRP we-3)) (VP (VBP 've-4) (ADVP (DT all-5)) (VP (VBN seen-6) (NP (NNP Van-7) (NNP Wilder-8)))) (. .-9)))",0,0,0,0,0,1,0,0,0,0,0,1,0,0,0,0,0,1,0,0,0,0,0,0,0,0,0,0,0,0,0,0,0,0,0,0,0,0,0,0,0,0,0,1,0,0,0,0,0,1,0,0,0,1,0,0,0,0,0,0,0,0,0,0,0,0,0,0,0,1,0,0,1,0,0,0,0,0,0,0,1,1,0,0,0,0,0,1,0,0,0,0,0,0,0,0,0,0,0,0,0,0,0,0,0,0,0,0,0,0,0,0,0,0,0,0,0,1,0,0,0,0,0,1,0,0,0,0,0,0,0,0,0,0,0,0,0,1,0,0,0,0,0,0,0,0,0,0,0,0,0,0,0,0,0,0,0,0,0,0,0,1,0,0,0,0,0,0,0,0,0,0,0,0,0,0,0,0,0,0,0,0,0,1,0,0,1,0,0,0,0,1,0,0,0,0
Evaluation,3,(VP (VBD was-1) (NP (DT the-2) (NN man-3)) (PP (IN at-4) (NP (NNP Coolidge-5) (NNP College-6)))),0,1,0,0,0,1,0,0,0,0,0,0,0,0,0,0,0,0,1,0,0,0,0,0,0,0,0,0,0,0,0,0,0,0,0,0,0,0,0,0,0,0,0,1,0,1,0,0,1,0,0,0,0,0,0,0,0,0,0,0,0,0,0,0,0,0,0,0,1,1,0,0,0,0,0,0,0,0,1,0,0,0,0,0,0,0,0,0,0,0,0,1,0,1,0,0,0,0,0,0,1,1,0,0,0,0,0,1,0,0,0,0,0,0,0,0,0,0,0,0,0,0,0,0,0,0,0,0,0,0,0,0,0,1,0,0,0,0,0,0,0,0,0,0,0,0,0,0,0,0,0,0,0,0,0,0,0,0,0,0,0,0,0,0,0,0,0,0,0,0,0,0,0,1,0,0,0,0,0,0,0,0,0,0,0,0,0,0,0,0,0,0,0,0,0,0
Evaluation,1,(VP (VBD rolled-1) (PP (TO to-2) (NP (NN class-3))) (PP (IN in-4) (NP (DT a-5) (NN golf-6) (NN cart-7)))),1,0,0,0,0,0,0,0,0,0,0,1,0,0,0,0,0,0,1,0,0,0,0,0,1,0,0,0,0,0,0,0,0,0,0,0,0,0,0,0,0,0,0,1,0,1,0,1,0,0,0,1,0,0,0,0,0,0,0,0,0,0,0,0,0,0,0,0,1,0,0,0,0,0,0,0,1,0,1,0,0,0,0,0,0,0,1,0,0,1,0,0,0,0,0,0,0,1,0,1,0,0,0,0,0,0,0,0,0,0,0,0,0,0,0,1,0,0,0,0,0,0,0,0,1,0,0,0,0,0,0,0,0,0,0,0,0,0,0,0,0,0,0,0,0,0,0,0,0,0,0,0,0,0,0,0,0,0,1,0,0,0,0,0,0,0,0,0,0,0,0,0,0,0,0,0,0,1,0,0,0,0,0,0,0,0,0,0,0,0,0,0,0,0,0,0
Evaluation,2,(S (NP (NNP Golf-0) (NNS carts-1)) (VP (VBP are-2) (ADJP (JJ OK-3)))),0,1,0,0,0,1,0,0,0,0,0,0,0,0,0,0,0,0,0,1,0,0,0,0,0,0,0,0,0,0,0,0,0,0,0,0,0,0,0,0,0,0,0,0,0,0,0,0,1,0,0,0,0,0,0,0,0,0,0,0,0,0,0,0,1,0,0,0,0,1,1,0,0,0,0,0,0,0,0,0,0,1,0,0,0,0,0,0,0,0,0,0,0,1,0,0,0,1,0,0,0,0,0,0,0,0,0,0,0,0,0,0,0,0,0,1,0,0,0,0,0,0,0,0,0,0,0,0,0,0,0,0,0,0,0,0,0,0,0,0,0,0,0,0,0,0,0,0,1,0,0,0,0,0,0,0,0,0,0,0,0,0,0,0,0,0,0,0,0,0,0,0,0,0,0,0,0,0,0,0,0,0,0,0,0,0,0,0,0,0,0,0,0,0,0,0
Evaluation,2,(S (NP (NNP McGuff-1)) (VP (VBZ is-2) (ADJP (JJ dangerous-3)))),1,0,0,0,0,0,0,0,0,0,0,1,0,0,0,0,0,0,0,0,1,0,0,0,1,0,0,0,0,0,0,0,0,0,0,0,0,0,0,0,0,0,0,0,0,0,0,1,0,0,0,0,0,0,0,0,0,0,0,0,0,1,0,0,1,0,0,0,0,1,0,0,0,0,0,0,0,0,0,0,0,0,1,0,0,0,0,0,0,0,0,0,0,1,0,1,0,0,0,0,0,0,0,0,1,0,0,0,0,0,0,0,0,0,0,0,0,0,0,0,0,0,0,0,0,0,0,0,0,0,0,0,0,0,1,0,0,0,0,0,0,0,0,0,0,0,0,0,0,0,0,0,0,0,0,0,0,0,0,0,0,0,0,0,0,0,0,0,0,0,0,0,0,0,0,0,0,0,0,0,0,0,0,0,0,0,0,0,0,0,0,0,0,0,0,0
Orientation,3,"(ROOT (FRAG (NP (DT No-0)) (, ,-1) (PP (NP (NP (NNP Michigan-2) (POS 's-3)) (NNP Van-4) (NNP Wilder-5) (NNS rolls-6)) (IN on-7) (NP (DT a-8) (NN scooter-9))) (. .-10)))",0,0,0,0,1,1,0,0,0,0,0,1,0,0,0,0,0,0,0,0,0,1,0,0,0,0,0,0,0,0,0,0,0,0,0,0,0,0,0,0,0,0,0,1,0,1,0,0,0,0,0,1,0,0,0,0,1,0,0,0,0,0,0,0,0,0,0,0,1,1,1,1,0,0,0,0,0,0,0,0,0,0,0,0,0,0,1,0,0,0,0,0,0,0,0,0,0,0,0,0,0,0,0,0,0,0,0,0,0,0,0,0,0,0,0,0,0,0,0,0,0,0,0,0,0,0,0,0,0,0,0,0,0,0,0,0,0,0,1,0,0,0,0,1,0,0,0,0,0,1,0,0,0,0,0,0,0,0,1,0,1,0,0,0,0,0,0,0,0,0,0,0,0,0,0,0,0,0,0,0,0,0,0,1,0,0,0,0,0,0,0,1,0,0,0,0
Evaluation,2,"(ROOT (S (NP-TMP (NN Plus-0)) (, ,-1) (NP (PRP you-2)) (ADVP (RB totally-3)) (VP (VBP know-4) (SBAR (IN that-5) (S (NP (NNP McGuff-6)) (VP (VBZ has-7) (NP (NP (DT a-8) (NNP Napoleon-9) (NN Dynamite-esque-10) (NN ramp-11)) (SBAR (WHADVP (WRB where-12)) (S (NP (PRP he-13)) (VP (VBZ 's-14) (VP (VBG pulling-15) (NP (JJ sweet-16) (NNS wheelies-17)) (PP (IN with-18) (NP (DT that-19) (NN thing-20)))))))))))) (. .-21)))",0,0,0,0,0,1,0,0,0,0,0,1,0,0,0,0,0,0,0,0,0,1,0,0,0,0,0,0,0,0,1,0,0,1,0,0,0,0,0,0,1,0,0,1,0,1,0,0,0,0,0,0,0,1,0,0,0,0,0,1,1,0,0,0,1,0,0,0,1,1,1,0,1,0,1,0,0,0,0,1,0,1,1,1,0,0,1,0,0,0,0,0,0,1,0,0,0,0,0,0,0,0,0,0,0,0,0,0,1,0,0,0,0,0,0,0,0,1,1,0,0,0,0,0,0,0,0,1,0,0,0,0,0,0,1,0,0,0,0,0,0,1,0,0,0,0,0,0,0,0,0,0,0,0,1,0,1,1,0,0,0,0,0,0,0,0,0,0,0,0,0,1,1,0,0,1,0,0,0,1,0,0,0,0,0,0,0,1,0,1,0,0,1,0,0,1
Evaluation,3,"(ROOT (S (NP (NN Hell-0)) (, ,-1) (SBAR (WHADVP (WRB when-2)) (S (NP (PRP he-3)) (VP (VBZ 's-4) (ADJP (VBN bored-5))))) (NP (PRP he-6)) (ADVP (RB probably-7)) (VP (VP (VBZ heads-8) (NP (DT the-9) (JJ wrong-10) (NN way-11)) (PP (IN down-12) (NP (NNP South-13) (NNP U-14)))) (CC and-15) (VP (VBZ leaps-16) (NP (JJ on-coming-17) (NN traffic-18)))) (. .-19)))",0,0,0,0,0,1,0,0,0,0,0,1,0,0,0,0,0,0,0,0,0,0,1,0,1,0,0,0,0,0,0,1,0,0,0,0,0,0,0,0,1,0,0,1,0,1,0,1,0,0,0,0,0,0,0,0,0,0,0,0,0,0,0,0,1,0,0,0,1,1,0,0,1,0,1,0,0,0,0,0,1,0,1,1,0,0,0,0,0,1,0,0,0,1,1,0,0,0,0,0,0,0,0,0,0,1,0,0,0,0,0,0,0,0,0,0,0,0,1,1,1,0,0,0,0,0,0,0,1,0,0,0,0,0,0,0,0,0,0,0,0,0,0,0,0,0,0,0,0,0,1,0,0,0,0,1,0,0,0,0,0,0,0,0,1,0,0,0,0,0,0,0,0,1,0,0,0,0,0,0,1,1,0,0,0,1,0,0,1,0,0,0,0,0,1,0
Evaluation,3,"(S (INTJ (JJ Sure-0)) (, ,-1) (NP (PRP it-2)) (VP (VBZ 's-3) (NP (NP (DT no-4) (NNP Corvette-5)) (PRN (-LRB- -LRB--6) (NP (NN cough-7)) (, ,-8) (NP (NNP Cheaty-9) (NNP McSweatervest-10)) (, ,-11) (NP (NN cough-12)) (-RRB- -RRB--13)))))",0,1,0,0,0,1,0,1,1,1,1,0,0,0,0,0,0,0,0,0,0,0,0,1,0,0,0,0,0,0,0,0,0,0,0,0,0,0,0,0,0,0,0,1,0,0,0,0,1,0,0,0,0,0,0,0,1,0,0,0,0,0,0,0,1,0,0,0,1,1,0,0,1,0,0,0,0,0,0,0,0,0,1,0,0,0,0,0,0,0,0,0,0,1,0,0,0,0,1,0,0,0,1,1,0,0,0,0,0,0,0,0,0,0,0,0,0,0,0,0,0,0,0,0,0,1,0,0,0,0,0,0,0,0,0,0,1,0,0,0,0,0,0,1,0,0,0,0,0,0,0,0,0,0,0,0,0,0,0,0,0,0,0,0,0,0,0,0,0,0,1,0,0,0,0,0,0,0,0,0,0,0,0,0,0,0,0,0,0,0,0,0,0,0,0,0
Evaluation,3,(S (NP (PRP it-1)) (VP (VBZ 's-2) (ADJP (JJ nice-3) (S (VP (TO to-4) (VP (VB see-5) (NP (DT a-6) (NN frosh-7) (NN rolling-8)) (PP (IN in-9) (NP (NN style-10))))))))),1,0,0,0,0,0,0,0,0,0,0,1,0,0,0,0,0,0,0,0,0,0,0,1,1,0,0,0,0,0,1,0,0,0,0,0,0,0,0,0,0,0,0,1,0,1,0,1,0,0,0,0,0,0,0,0,0,0,0,0,0,1,0,0,1,0,1,0,1,0,0,0,1,0,0,0,1,1,0,0,0,0,1,0,0,0,1,0,0,0,0,0,0,1,0,1,0,0,0,0,0,0,0,0,0,0,0,0,0,0,0,0,1,0,0,0,0,0,0,0,0,0,0,0,1,1,0,0,0,0,0,0,0,0,0,0,0,0,0,0,0,0,1,0,0,0,0,0,0,0,0,0,0,0,0,0,0,0,1,0,0,1,0,0,0,0,0,0,0,1,0,0,0,0,0,0,0,1,0,0,0,0,0,0,0,0,0,0,0,0,0,0,0,0,0,0
