Label,Agreement,Tree,BoundBegin,BoundEnd,'s,",",-,-LRB-,-RRB-,-lrb-,-rrb-,.,...,:,BinPosition0,BinPosition1,BinPosition2,BinPosition3,BinPosition4,BinPosition5,BinPosition6,BinPosition7,BinPosition8,BinPosition9,CC,DEP-Conditional,DEP-Connective,DEP-Copula,DEP-FirstPerson,DEP-Imperative,DEP-IndefArticle,DEP-LIWC_Affect,DEP-LIWC_Cogmech,DEP-LIWC_Motion,DEP-Modal,DEP-Negate,DEP-Question,DEP-Quote,DEP-SecondPerson,DEP-StativeVerb,DEP-ThirdPersonProg,DEP-ThirdPersonStat,DEP-Time,DT,FirstClause,IN,INDEP-Conditional,INDEP-Connective,INDEP-Copula,INDEP-FirstPerson,INDEP-Imperative,INDEP-IndefArticle,INDEP-LIWC_Affect,INDEP-LIWC_Cogmech,INDEP-LIWC_Motion,INDEP-Modal,INDEP-Negate,INDEP-Question,INDEP-Quote,INDEP-SecondPerson,INDEP-StativeVerb,INDEP-ThirdPersonProg,INDEP-ThirdPersonStat,INDEP-Time,JJ,JJR,LS,LastClause,MD,NN,NNS,POS,PRP,PRP$,RB,RP,TO,VB,VBD,VBG,VBN,VBP,VBZ,WDT,WRB,a,about,abus,against,and,as,ass,away,b,bag,bang,be,beat,becaus,break,bruise\/abras,but,camera,certainli,cloth,come,cooker,coupl,crock,day,decid,door,drive,dude,earlier,enorm,fill,final,for,freight,frighten,from,front,full,garbag,get,go,guess,hallway,hanger,have,he,head,hear,help,hope,i,idea,in,issu,item,know,laptop,leav,must,my,neighbor,next,no,nosi,not,of,on,out,outsid,over,own,pack,person,pot,rage,realli,sad,see,she,slow,so,sundri,sure,take,that,the,thi,to,tonight,type,up,vehicl,wall,whatev,where,with
Orientation,3,"(S (SBAR (IN As-0) (S (NP (PRP I-1)) (ADJP (NN type-2)))) (, ,-3) (NP (DT the-4) (JJ frightening-5) (NN couple-6)) (ADVP (JJ next-7) (NN door-8)) (VP (VBZ is-9) (VP (VBG breaking-10) (PRT (RP up-11)))))",0,1,0,1,1,0,0,0,0,0,0,1,1,0,0,0,0,0,0,0,0,0,0,0,0,0,1,0,0,0,0,0,0,0,0,0,0,0,0,0,0,1,1,1,0,1,0,0,0,0,0,0,0,0,0,0,0,0,0,1,0,0,1,0,0,0,0,1,0,0,1,0,0,1,0,0,0,1,0,0,1,0,0,0,0,0,0,0,1,0,0,0,0,0,1,0,0,1,0,0,0,0,0,0,0,1,0,0,0,1,0,0,0,0,0,0,0,0,1,0,0,0,0,0,0,0,0,0,0,0,0,0,0,0,1,0,0,0,0,0,0,0,0,0,0,1,0,0,0,0,0,0,0,0,0,0,0,0,0,0,0,0,0,0,0,0,0,0,0,1,0,0,0,1,1,0,0,0,0,0
Orientation,3,"(S (NP (PRP I-0)) (VP (VBP know-1) (NP (DT this-2)) (SBAR (IN because-3) (S (NP (NP (DT the-4) (NN hallway-5)) (PP (IN outside-6) (NP (PRP$ my-7) (JJ front-8) (NN door-9)))) (VP (VBZ is-10) (VP (VBN filled-11) (PP (IN with-12) (NP (NN clothing-13))) (PP (IN on-14) (NP (NP (NNS hangers-15)) (, ,-16) (NP (NP (NN garbage-17) (NNS bags-18)) (PP (JJ full-19) (IN of-20) (NP (NP (JJ personal-21) (JJ sundry-22) (NNS items-23)) (, ,-24) (NP (DT a-25) (NN laptop-26) (NN bag-27)) (, ,-28) (NP (DT a-29) (NN camera-30) (NN bag-31)) (, ,-32) (CC and-33) (NP (DT a-34) (NN crock-35) (NN pot-36)))))))))))))",1,0,0,1,0,0,0,0,0,1,0,0,0,1,0,0,0,0,0,0,0,0,1,0,1,0,1,0,1,0,0,1,0,0,0,0,0,0,0,0,0,1,0,1,0,0,0,1,0,0,0,1,0,0,0,0,0,0,1,0,0,0,1,0,0,0,0,1,1,0,1,1,0,0,0,0,0,0,1,1,1,0,0,1,0,0,0,1,0,0,0,0,1,0,1,0,1,0,0,0,1,0,1,0,0,0,1,0,0,1,0,0,0,0,1,0,0,0,0,0,1,1,1,0,0,0,1,1,0,0,0,0,0,0,1,0,0,0,1,1,1,0,0,1,0,0,0,0,0,1,1,0,1,0,0,0,1,1,0,0,0,0,0,0,0,1,0,0,0,1,1,0,0,0,0,0,0,0,0,1
Evaluation,2,(ROOT (S (NP (PRP She-0)) (VP (MD must-1) (VP (VB have-2) (ADVP (RB finally-3)) (VP (VBN decided-4) (S (VP (TO to-5) (VP (VP (VB leave-6) (NP (PRP$ his-7) (JJ abusive-8) (NN ass-9))) (: --10) (CC and-11) (VP (VB take-12) (NP (DT the-13) (JJ slow-14) (NN cooker-15)) (PP (IN with-16) (NP (PRP her-17)))))))))) (. .-18))),0,0,0,0,1,0,0,0,0,1,0,1,0,0,1,0,0,0,0,0,0,0,1,0,1,0,0,0,0,0,0,1,0,0,0,0,0,0,0,0,0,1,0,1,0,0,0,0,0,0,0,1,0,1,0,0,0,0,0,0,0,0,1,0,0,0,1,1,0,0,1,1,1,0,1,1,0,0,1,0,0,0,0,0,0,1,0,1,0,1,0,0,0,0,0,0,0,0,0,0,0,0,0,0,1,0,0,0,1,0,0,0,0,0,0,1,0,0,0,0,0,0,0,0,0,0,0,0,1,1,0,0,0,0,0,0,0,0,0,0,0,1,1,0,0,0,0,0,0,0,0,0,0,0,0,0,0,0,0,0,0,0,1,1,0,0,0,1,0,1,0,1,0,0,0,0,0,0,0,1
Evaluation,2,(S (NP (PRP I-0)) (VP (VBP have-1) (NP (NP (DT no-2) (NN idea-3)) (SBAR (WHADVP (WRB where-4)) (S (NP (PRP she-5)) (VP (VBD went-6))))))),0,1,0,1,0,0,0,0,0,0,0,0,0,0,0,1,0,0,0,0,0,0,0,0,0,0,0,0,0,0,0,1,0,0,0,0,0,0,0,0,0,1,0,0,0,0,0,1,0,0,0,1,0,0,1,0,0,0,0,0,0,0,0,0,0,0,0,1,0,0,1,0,0,0,0,0,1,0,0,1,0,0,1,0,0,0,0,0,0,0,0,0,0,0,0,0,0,0,0,0,0,0,0,0,0,0,0,0,0,0,0,0,0,0,0,0,0,0,0,0,0,0,0,0,1,0,0,0,1,0,0,0,0,0,1,1,0,0,0,0,0,0,0,0,0,0,1,0,0,0,0,0,0,0,0,0,0,0,0,0,0,0,1,0,0,0,0,0,0,0,0,0,0,0,0,0,0,0,1,0
Action,3,(S (NP (PRP I-1)) (VP (VBD saw-2) (S (NP (PRP him-3)) (VP (VBG coming-4) (PRT (RB out-5)) (PP (IN of-6) (NP (DT the-7) (NN freight-8) (NN elevator-9))))))),1,1,0,0,0,0,0,0,0,0,0,0,0,0,0,0,1,0,0,0,0,0,1,0,0,0,0,0,0,0,1,1,0,0,0,0,0,0,0,0,0,1,0,1,0,1,0,1,0,0,0,0,0,0,0,0,0,0,0,0,0,0,0,0,0,0,0,1,0,0,1,0,1,0,0,0,1,1,0,0,0,0,0,0,0,0,0,0,0,0,0,0,0,0,0,0,0,0,0,1,0,0,0,1,0,0,0,0,0,0,0,0,0,0,0,0,0,1,0,0,0,0,0,0,0,0,0,0,0,1,0,0,0,0,1,0,0,0,0,0,0,0,0,0,0,0,0,0,0,1,0,1,0,0,0,0,0,0,0,0,0,1,0,0,0,0,0,0,0,1,0,0,0,0,0,0,0,0,0,0
Evaluation,3,"(S (NP (PRP I-1)) (ADVP (RB certainly-2)) (VP (VBP hope-3) (SBAR (SBAR (IN that-4) (S (S (LST (-LRB- -LRB--5) (DT a-6) (-RRB- -RRB--7)) (NP (PRP he-8)) (VP (VBD helped-9) (NP (NP (PRP$ her-10) (NN pack-11)) (SBAR (WHNP (WDT whatever-12)) (S (ADJP (NN vehicle-13))))))) (PRN (S (NP (PRP she-14)) (VP (VBD drove-15) (ADVP (RB away-16)) (PP (IN in-17)))) (, ,-18)))) (CC and-19) (SBAR (LST (-LRB- -LRB--20) (LS b-21) (-RRB- -RRB--22)) (IN that-23) (S (NP (NP (DT the-24) (JJ enormous-25) (NN bruise\/abrasion-26)) (PP (IN on-27) (NP (PRP$ his-28) (NN head-29)))) (VP (VBD was-30) (PP (IN from-31) (S (NP (DT that-32)) (VP (VBG banging-33) (SBAR (S (NP (PRP I-34)) (VP (VBD heard-35) (NP (JJR earlier-36) (NN tonight-37)))))))))) (. .-38)))))",1,0,0,1,0,1,1,1,1,1,0,0,0,0,0,0,0,1,0,0,0,0,1,0,1,0,1,0,1,1,1,1,0,0,0,0,0,1,0,0,1,1,0,1,0,1,0,1,0,0,1,1,0,0,0,0,0,0,0,0,0,0,1,1,1,0,0,1,0,0,1,1,1,0,0,0,1,1,0,1,0,1,0,1,0,0,0,1,0,0,1,1,0,1,1,0,0,0,1,0,0,1,0,0,0,0,0,0,0,0,1,0,1,1,0,0,0,0,0,1,0,0,0,0,0,0,0,0,0,1,1,1,1,1,1,0,1,0,0,0,0,0,0,0,0,0,0,0,0,0,1,0,0,0,0,1,0,0,0,0,0,0,1,0,0,0,0,0,1,1,0,0,1,0,0,1,0,1,0,0
Evaluation,3,"(ROOT (S (PP (IN As-0) (PP (IN in-1))) (, ,-2) (S (NP (PRP him-3)) (VP (VBG beating-4) (NP (PRP$ his-5) (JJ own-6) (NN head-7)) (PP (IN against-8) (NP (DT the-9) (NN wall-10))))) (. .-11)))",0,0,0,1,0,0,0,0,0,1,0,0,0,0,0,0,0,0,1,0,0,0,0,0,0,0,0,0,0,0,0,0,0,0,0,0,0,0,0,0,0,1,0,1,0,1,0,0,0,0,0,0,0,0,0,0,0,0,1,0,0,0,1,0,0,0,0,1,0,0,1,1,0,0,0,0,0,1,0,0,0,0,0,0,0,0,1,0,1,0,0,0,0,0,0,1,0,0,0,0,0,0,0,0,0,0,0,0,0,0,0,0,0,0,0,0,0,0,0,0,0,0,0,0,0,0,0,0,0,1,1,0,0,0,0,0,1,0,0,0,0,0,0,0,0,0,0,0,0,0,0,0,0,0,1,0,0,0,0,0,0,0,0,0,0,0,0,0,0,1,0,0,0,0,0,0,1,0,0,0
Evaluation,2,(ROOT (S (NP (DT The-0) (NN dude-1) (POS 's-2)) (VP (VBD got-3) (NP (NN rage-4) (NNS issues-5)) (PP (IN for-6) (ADJP (JJ sure-7)))) (. .-8))),0,0,1,0,0,0,0,0,0,1,0,0,0,0,0,0,0,0,0,1,0,0,0,0,0,0,0,0,0,0,0,0,0,0,0,0,0,0,0,0,0,1,0,1,0,0,0,0,0,0,0,0,0,0,0,0,0,0,0,0,0,0,1,0,0,0,0,1,1,1,0,0,0,0,0,0,1,0,0,0,0,0,0,0,0,0,0,0,0,0,0,0,0,0,0,0,0,0,0,0,0,0,0,0,0,0,0,0,0,0,0,1,0,0,0,0,1,0,0,0,0,0,0,1,0,0,0,0,0,0,0,0,0,0,0,0,0,1,0,0,0,0,0,0,0,0,0,0,0,0,0,0,0,0,0,0,0,0,1,0,0,0,0,0,0,0,1,0,0,1,0,0,0,0,0,0,0,0,0,0
Evaluation,2,(S (NP (PRP$ my-3) (JJ nosy-4) (NN neighbor-5) (NNS days-6)) (VP (VBP are-7) (ADJP (IN over-8)))),0,1,0,0,0,0,0,0,0,0,1,1,0,0,0,0,0,0,0,0,1,0,0,0,0,0,0,0,0,0,0,0,0,0,0,0,0,0,0,0,0,0,0,1,0,1,1,1,0,0,0,1,0,0,0,0,0,0,0,0,0,1,1,0,0,0,0,1,1,0,1,1,0,0,0,0,0,0,0,1,0,0,0,0,0,0,0,0,0,0,0,0,0,0,1,0,0,0,0,0,0,0,0,0,0,0,0,1,0,0,0,0,0,0,0,0,0,0,0,0,0,0,0,0,0,1,0,0,0,0,0,0,0,0,1,0,0,0,0,0,0,0,0,1,1,0,0,1,0,0,0,0,0,1,0,0,0,0,0,0,0,0,0,0,1,0,0,0,0,0,0,0,0,0,0,0,0,0,0,0
Evaluation,3,(S (NP (PRP I-1)) (VP (VBP 'm-2) (RB not-3) (ADJP (RB really-4) (JJ sad-5) (PP (IN about-6) (NP (DT that-7)))))),1,0,0,0,0,0,0,0,0,1,0,0,0,0,0,0,0,0,0,0,0,1,1,0,0,0,0,0,0,0,0,0,0,0,0,0,0,0,0,0,0,1,0,1,0,1,0,1,0,0,0,0,0,0,1,0,0,0,0,0,0,0,1,0,0,1,0,0,0,0,1,0,1,0,0,0,0,0,0,1,0,0,0,0,1,0,0,1,0,0,0,0,0,0,1,0,0,0,0,0,0,0,0,0,0,0,0,0,0,0,0,0,0,0,0,0,0,0,0,0,0,0,0,0,0,0,0,0,0,0,0,0,0,0,1,0,0,0,0,0,0,0,0,0,0,0,0,0,1,0,0,0,0,0,0,0,0,0,0,1,1,0,0,0,0,0,0,0,1,0,0,0,0,0,0,0,0,0,0,0
