Label,Agreement,Tree,BoundBegin,BoundEnd,BinPosition0,BinPosition1,BinPosition2,BinPosition3,BinPosition4,BinPosition5,BinPosition6,BinPosition7,BinPosition8,BinPosition9,DEP-Conditional,DEP-Connective,DEP-Copula,DEP-FirstPerson,DEP-Imperative,DEP-IndefArticle,DEP-LIWC_Affect,DEP-LIWC_Cogmech,DEP-LIWC_Motion,DEP-Modal,DEP-Negate,DEP-PossHave,DEP-SecondPerson,DEP-StativeVerb,DEP-ThirdPersonProg,DEP-ThirdPersonStat,DEP-Time,FirstClause,INDEP-Conditional,INDEP-Connective,INDEP-Copula,INDEP-FirstPerson,INDEP-Imperative,INDEP-IndefArticle,INDEP-LIWC_Affect,INDEP-LIWC_Cogmech,INDEP-LIWC_Motion,INDEP-Modal,INDEP-Negate,INDEP-PossHave,INDEP-SecondPerson,INDEP-StativeVerb,INDEP-ThirdPersonProg,INDEP-ThirdPersonStat,INDEP-Time,LastClause,POS:DEP-#,POS:DEP-:,POS:DEP-CD,POS:DEP-DT,POS:DEP-IN,POS:DEP-JJ,POS:DEP-JJS,POS:DEP-NN,POS:DEP-NNS,POS:DEP-PRP,POS:DEP-RP,POS:DEP-VBD,POS:DEP-VBG,POS:DEP-VBP,POS:DEP-VBZ,POS:DEP-WRB,"POS:INDEP-,",POS:INDEP-.,POS:INDEP-CC,POS:INDEP-CD,POS:INDEP-DT,POS:INDEP-IN,POS:INDEP-JJ,POS:INDEP-MD,POS:INDEP-NN,POS:INDEP-NNP,POS:INDEP-NNS,POS:INDEP-PRP,POS:INDEP-RB,POS:INDEP-RP,POS:INDEP-VB,POS:INDEP-VBD,POS:INDEP-VBG,POS:INDEP-VBN,POS:INDEP-VBP,POS:INDEP-VBZ,Question,Quote,STEM:DEP-#,STEM:DEP-0,STEM:DEP-:,STEM:DEP-a,STEM:DEP-basement,STEM:DEP-be,STEM:DEP-big,STEM:DEP-clean,STEM:DEP-clear,STEM:DEP-come,STEM:DEP-coupl,STEM:DEP-dead,STEM:DEP-fan,STEM:DEP-for,STEM:DEP-from,STEM:DEP-get,STEM:DEP-in,STEM:DEP-it,STEM:DEP-mess,STEM:DEP-month,STEM:DEP-most,STEM:DEP-mous,STEM:DEP-of,STEM:DEP-on,STEM:DEP-out,STEM:DEP-stink,STEM:DEP-that,STEM:DEP-the,STEM:DEP-three,STEM:DEP-where,STEM:DEP-with,"STEM:INDEP-,",STEM:INDEP-.,STEM:INDEP-a,STEM:INDEP-and,STEM:INDEP-apart,STEM:INDEP-area,STEM:INDEP-be,STEM:INDEP-by,STEM:INDEP-catch,STEM:INDEP-check,STEM:INDEP-clean,STEM:INDEP-die,STEM:INDEP-do,STEM:INDEP-fall,STEM:INDEP-find,STEM:INDEP-get,STEM:INDEP-go,STEM:INDEP-gross,STEM:INDEP-hope,STEM:INDEP-i,STEM:INDEP-in,STEM:INDEP-it,STEM:INDEP-just,STEM:INDEP-morn,STEM:INDEP-mous,STEM:INDEP-never,STEM:INDEP-next,STEM:INDEP-non-loc,STEM:INDEP-not,STEM:INDEP-one,STEM:INDEP-onli,STEM:INDEP-pretti,STEM:INDEP-put,STEM:INDEP-rot,STEM:INDEP-sinc,STEM:INDEP-smell,STEM:INDEP-some,STEM:INDEP-stick,STEM:INDEP-stink,STEM:INDEP-storag,STEM:INDEP-success,STEM:INDEP-the,STEM:INDEP-they,STEM:INDEP-think,STEM:INDEP-time,STEM:INDEP-too,STEM:INDEP-trap,STEM:INDEP-up,STEM:INDEP-update,STEM:INDEP-well,STEM:INDEP-will,STEM:INDEP-without,STEM:INDEP-wonder,STEM:INDEP-would,STEM:INDEP-ye
Orientation,3,(S (NP (PRP I)) (VP (VBP do) (RB n't) (VP (VB check) (NP (DT the) (NN mouse) (NNS traps)) (PP (IN in) (NP (NP (DT the) (NN basement)) (PP (IN for) (NP (DT a) (NN couple) (NNS months)))))))),0,1,1,0,0,0,0,0,0,0,0,0,0,0,0,0,0,1,0,0,0,0,0,0,0,0,0,0,1,1,0,0,0,1,0,0,0,0,0,0,1,0,0,0,0,0,0,0,0,0,0,1,1,0,0,1,1,0,0,0,0,0,0,0,1,0,0,0,1,0,0,0,1,0,1,1,1,0,1,0,0,0,1,0,0,0,0,0,0,1,1,0,0,0,0,0,1,0,0,1,0,0,1,0,0,1,0,0,0,0,0,0,0,1,0,0,0,1,0,0,0,0,0,0,0,0,1,0,0,1,0,0,0,0,0,0,1,0,0,0,0,1,0,0,0,1,0,0,0,0,0,0,0,0,0,0,0,0,1,0,0,0,0,1,0,0,1,0,0,0,0,0
Orientation,3,(S (NP (PRP I)) (VP (VBP 'm) (VP (VBN stuck) (PP (IN with) (NP (CD three) (VBG stinking) (JJ dead) (NNS mice)))))),1,0,1,0,0,0,0,0,0,0,0,0,0,0,0,0,0,0,1,0,0,0,0,0,0,0,0,0,0,0,0,1,0,1,0,0,0,0,0,0,0,0,0,0,0,0,0,0,0,0,1,0,1,1,0,0,1,0,0,0,1,0,0,0,0,1,1,0,0,0,0,0,0,0,0,1,0,0,0,0,0,1,1,0,0,0,0,0,0,0,0,0,0,0,0,0,0,1,0,0,0,0,0,0,0,0,0,1,0,0,0,1,0,0,1,0,1,0,1,0,1,0,0,1,0,0,0,0,0,0,0,0,0,0,0,0,1,0,0,0,0,0,0,0,0,0,0,0,0,0,0,0,0,0,1,0,0,0,0,0,0,0,0,0,0,0,0,0,0,0,0,0
Evaluation,3,"(ROOT (S (CC And) (NP-TMP (RB yes)) (, ,) (NP (PRP I)) (VP (VBD was) (VP (VBG wondering) (SBAR (WHADVP (WRB where)) (S (NP (DT that)) (VP (VBP stink) (SBAR (S (VP (VBD was) (VP (VBG coming) (PP (IN from))))))))))) (. .)))",0,0,0,1,0,0,0,0,0,0,0,0,0,0,0,0,0,0,1,1,1,0,0,0,0,0,1,0,0,0,0,1,0,1,0,0,0,1,0,0,0,0,0,0,0,0,0,0,0,0,0,1,1,0,0,0,0,0,0,1,1,1,0,1,1,1,1,0,0,0,0,0,0,0,0,1,1,0,0,1,1,0,0,0,0,0,0,0,0,0,0,1,0,0,0,1,0,0,0,0,1,0,0,0,0,0,0,0,0,0,0,1,1,0,0,1,0,1,1,0,1,0,0,1,0,0,0,0,0,0,0,0,0,0,0,0,1,0,0,0,0,0,0,0,0,0,0,0,0,0,0,0,0,0,0,0,0,0,0,0,0,0,0,0,0,0,0,0,0,1,0,1
Action,3,(NP (NNP Pretty) (JJ gross)),0,1,0,0,1,0,0,0,0,0,0,0,0,0,0,0,0,0,0,0,0,0,0,0,0,0,0,0,0,0,0,0,0,0,0,0,0,0,0,0,0,0,0,0,0,0,0,0,0,0,0,0,0,0,0,0,0,0,0,0,0,0,0,0,1,0,0,0,0,0,1,0,0,1,0,1,0,1,0,0,1,0,0,0,0,0,0,0,0,0,0,0,0,0,0,0,0,0,0,0,0,0,0,0,0,0,0,0,0,0,0,0,0,0,0,0,0,1,0,0,0,0,0,0,0,0,0,1,0,0,0,0,0,0,1,0,0,0,0,0,0,0,0,0,0,0,0,0,1,0,0,0,0,0,0,0,0,0,0,1,0,0,0,0,1,0,0,0,0,0,0,0
Action,1,(PP (IN since) (NP (NP (CD one) (NN mouse)) (VP (VP (VBN rotted)) (CC and) (VP (VBD fell) (ADVP (RB apart)))))),1,0,0,0,0,1,0,0,0,0,0,0,0,0,0,0,0,0,0,0,0,0,0,0,0,0,0,0,0,0,0,0,0,0,0,0,0,0,1,0,0,0,0,0,0,0,0,0,0,0,0,0,0,0,0,0,0,0,0,0,0,0,0,0,0,1,1,1,0,1,0,0,1,0,0,0,1,0,0,1,0,1,0,0,0,0,0,0,0,0,0,0,0,0,0,0,0,0,0,0,0,0,0,0,0,0,0,0,0,0,0,0,0,0,0,0,0,0,1,0,1,1,0,0,0,0,0,0,0,0,1,0,0,0,0,0,0,0,0,0,0,1,0,0,0,0,1,0,0,0,1,1,0,0,0,0,0,0,0,0,0,0,0,0,0,0,0,0,0,0,0,0
Evaluation,2,(NP (NP (DT some)) (PP (IN of) (NP (DT the) (NN cleaning)))),0,1,0,0,0,1,0,0,0,0,0,0,0,0,0,0,0,0,0,0,0,0,0,0,0,0,0,0,0,0,0,0,0,1,0,1,0,1,0,1,0,0,0,0,0,0,0,0,0,0,0,1,1,0,0,1,0,0,0,0,0,0,0,0,1,0,0,0,1,1,0,1,1,0,0,1,1,0,1,0,0,1,1,0,0,0,0,0,0,0,0,0,0,1,0,0,0,0,0,0,0,0,0,0,0,0,0,0,1,0,0,0,0,1,0,0,0,1,0,0,0,0,0,1,1,0,0,0,0,1,0,0,0,0,0,0,1,0,0,1,0,0,0,0,0,0,0,0,0,0,0,0,0,1,0,0,0,0,0,0,1,1,0,0,0,0,0,1,0,0,0,0
Orientation,3,(SBAR (IN since) (S (NP (PRP it)) (VP (VBZ is) (NP (DT a) (NN storage) (NN area)) (ADVP (RB only))))),1,0,0,0,0,0,1,0,0,0,0,0,0,0,0,0,0,0,0,0,0,0,0,0,0,0,0,0,0,0,0,0,0,0,0,1,0,0,0,0,0,0,0,0,1,0,0,0,0,0,0,0,0,0,0,0,0,0,0,0,0,0,0,0,0,1,0,0,1,1,0,0,1,0,0,1,1,0,0,0,0,0,0,1,0,0,0,0,0,0,0,0,0,0,0,0,0,0,0,0,0,0,0,0,0,0,0,0,0,0,0,0,0,0,0,0,0,0,1,1,0,0,1,1,0,0,0,0,0,0,0,0,0,0,0,0,0,0,1,0,0,0,0,0,0,0,0,1,0,0,0,1,0,0,0,0,1,0,0,0,0,0,0,0,0,0,0,0,0,0,0,0
Evaluation,3,(ROOT (S (S (NP (PRP I)) (VP (VBP hope) (SBAR (S (VP (VBD got) (NP (NP (JJS most)) (PP (IN of) (NP (PRP it))))))))) (CC and) (S (NP (DT the)) (VP (VBP stink) (SBAR (S (VP (VBZ clears) (PRT (RP out))))))) (. .))),0,0,0,0,0,0,0,1,0,0,0,0,0,0,0,0,1,0,0,1,0,0,0,0,0,0,0,0,0,0,0,1,0,1,0,0,1,1,0,0,0,0,0,0,0,0,0,0,0,0,0,0,1,0,1,0,0,1,1,1,0,0,1,0,0,1,1,0,1,0,0,0,0,0,0,1,0,0,0,0,0,0,1,0,0,0,0,0,0,0,0,0,0,0,1,0,0,0,0,0,0,1,0,1,0,0,1,0,1,0,1,0,0,0,0,0,0,0,1,0,1,0,0,0,0,0,0,0,0,0,0,0,0,0,0,1,1,0,0,0,0,0,0,0,0,0,0,0,0,0,0,0,0,0,0,1,0,0,1,0,0,0,0,0,0,0,0,0,0,0,0,0
Action,3,(ROOT (S (NP (PRP I)) (VP (VBD did) (VP (VB put) (PP (IN on) (NP (DT the) (NN fan))))) (. .))),0,0,0,0,0,0,0,0,1,0,0,0,0,0,0,0,0,0,0,0,0,0,0,0,0,0,0,0,0,0,0,0,0,1,0,0,0,0,1,0,0,0,0,0,0,0,0,0,0,0,0,1,1,0,0,1,0,0,0,0,0,0,0,0,0,1,0,0,0,0,0,0,0,0,0,1,0,0,1,1,0,0,0,0,0,0,0,0,0,0,0,0,0,0,0,0,0,0,1,0,0,0,0,0,0,0,0,0,0,1,0,0,0,1,0,0,0,0,1,0,0,0,0,0,0,0,0,0,0,1,0,0,0,0,0,0,1,0,0,0,0,0,0,0,0,0,0,0,0,1,0,0,0,0,0,0,0,0,0,0,0,0,0,0,0,0,0,0,0,0,0,0
Evaluation,3,(PP (IN in) (NP (DT a) (NN trap))),0,1,0,0,0,0,0,0,1,0,0,0,0,0,0,0,0,0,0,0,0,0,0,0,0,0,0,0,0,0,0,0,0,1,0,1,1,1,1,0,1,0,0,0,0,0,0,0,0,0,0,0,0,0,0,0,0,0,0,0,0,0,0,0,1,0,0,0,1,1,0,0,1,0,0,1,1,0,1,1,1,1,1,0,0,0,0,0,0,0,0,0,0,0,0,0,0,0,0,0,0,0,0,0,0,0,0,0,0,0,0,0,0,0,0,0,0,1,0,1,0,0,0,0,0,1,0,0,1,1,0,0,1,0,0,1,1,1,0,1,0,1,0,0,0,1,0,0,0,0,0,0,0,1,0,0,0,0,0,0,0,0,0,1,0,0,0,0,1,0,0,0
Evaluation,3,(SBAR (IN since) (S (NP (PRP I)) (VP (MD 'd) (ADVP (RB never)) (VP (VB find) (NP (PRP it)) (PP (IN in) (NP (DT the) (NN basement) (NN mess))))))),1,0,0,0,0,0,0,0,0,1,0,0,0,0,0,0,0,0,0,0,0,0,0,0,0,0,0,0,0,0,0,0,0,1,0,0,0,1,0,1,1,0,0,0,0,0,0,0,0,0,0,1,1,0,0,1,0,0,0,0,0,0,0,0,0,1,0,0,0,1,0,1,0,0,0,1,1,0,1,0,0,0,0,0,0,0,0,0,0,0,1,0,0,0,0,0,0,0,0,0,0,0,1,0,1,0,0,0,0,0,0,0,0,1,0,0,0,0,1,0,0,0,0,0,0,0,0,0,0,0,0,1,0,0,0,0,1,0,1,0,0,0,1,0,0,0,0,0,0,0,0,1,0,0,0,0,0,0,0,0,0,0,0,0,0,0,0,0,0,0,1,0
Stative- Local Context,3,(ROOT (S (NP (DT The) (NN smell)) (VP (VBZ is) (ADJP (RB too) (JJ non-local))) (. .))),0,0,0,0,0,0,0,0,0,0,1,0,0,0,0,0,0,0,0,0,0,0,0,0,0,0,0,0,0,0,0,0,1,0,0,0,0,0,0,0,0,0,0,0,0,0,0,0,0,0,0,0,0,0,0,0,0,0,0,0,0,0,0,0,0,1,0,0,1,0,1,0,1,0,0,0,1,0,0,0,0,0,0,1,0,0,0,0,0,0,0,0,0,0,0,0,0,0,0,0,0,0,0,0,0,0,0,0,0,0,0,0,0,0,0,0,0,0,1,0,0,0,0,1,0,0,0,0,0,0,0,0,0,0,0,0,0,0,0,0,0,0,0,0,1,0,0,0,0,0,0,0,1,0,0,0,0,0,1,0,0,0,1,0,0,0,0,0,0,0,0,0
Stative - Consequence,2,(ROOT (S (NP (NP (NNP Update)) (SBAR (S (NP (NP (# #) (CD 1)) (: :) (NP (DT the) (JJ big))) (VP (VBP stink))))) (VP (VBZ is) (VP (VBN gone) (NP-TMP (DT the) (JJ next) (NN morning)))) (. .))),0,0,0,0,0,0,0,0,0,0,0,1,0,0,0,0,0,0,1,0,0,0,0,0,0,0,0,0,0,0,0,1,0,0,1,0,0,0,1,0,0,0,0,0,1,0,1,0,1,1,1,1,0,1,0,0,0,0,0,0,0,1,0,0,0,1,0,0,1,0,1,0,1,1,0,0,0,0,0,0,0,1,0,1,0,0,1,1,1,0,0,0,1,0,0,0,0,0,0,0,0,0,0,0,0,0,0,0,0,0,0,1,0,1,0,0,0,0,1,0,0,0,0,1,0,0,0,0,0,0,0,0,0,1,0,0,0,0,0,0,1,0,0,1,0,0,0,0,0,0,0,0,0,0,0,0,0,0,1,0,0,0,0,0,0,1,0,0,0,0,0,0
Evaluation,3,(ROOT (INTJ (NN Success) (. .))),0,0,0,0,0,0,0,0,0,0,0,1,0,0,0,0,0,0,0,0,0,0,0,0,0,0,0,0,0,0,0,0,0,0,0,0,0,0,0,0,0,0,0,0,0,0,0,1,0,0,0,0,0,0,0,0,0,0,0,0,0,0,0,0,0,1,0,0,0,0,0,0,1,0,0,0,0,0,0,0,0,0,0,0,0,0,0,0,0,0,0,0,0,0,0,0,0,0,0,0,0,0,0,0,0,0,0,0,0,0,0,0,0,0,0,0,0,0,1,0,0,0,0,0,0,0,0,0,0,0,0,0,0,0,0,0,0,0,0,0,0,0,0,0,0,0,0,0,0,0,0,0,0,0,0,0,0,1,0,0,0,0,0,0,0,0,0,0,0,0,0,0
