Label,Agreement,Tree,BoundBegin,BoundEnd,BinPosition0,BinPosition1,BinPosition3,BinPosition5,BinPosition7,BinPosition9,DEP-Conditional,DEP-Connective,DEP-Copula,DEP-FirstPerson,DEP-Imperative,DEP-IndefArticle,DEP-LIWC_Affect,DEP-LIWC_Cogmech,DEP-LIWC_Motion,DEP-Modal,DEP-Negate,DEP-PossHave,DEP-SecondPerson,DEP-StativeVerb,DEP-ThirdPersonProg,DEP-ThirdPersonStat,DEP-Time,FirstClause,INDEP-Conditional,INDEP-Connective,INDEP-Copula,INDEP-FirstPerson,INDEP-Imperative,INDEP-IndefArticle,INDEP-LIWC_Affect,INDEP-LIWC_Cogmech,INDEP-LIWC_Motion,INDEP-Modal,INDEP-Negate,INDEP-PossHave,INDEP-SecondPerson,INDEP-StativeVerb,INDEP-ThirdPersonProg,INDEP-ThirdPersonStat,INDEP-Time,LastClause,"POS:DEP-,",POS:DEP-:,POS:DEP-CC,POS:DEP-CD,POS:DEP-DT,POS:DEP-IN,POS:DEP-JJ,POS:DEP-MD,POS:DEP-NN,POS:DEP-NNS,POS:DEP-PRP,POS:DEP-RB,POS:DEP-RP,POS:DEP-TO,POS:DEP-VB,POS:DEP-VBD,POS:DEP-VBG,POS:DEP-VBN,POS:DEP-VBP,POS:DEP-VBZ,POS:DEP-WDT,POS:DEP-WP,POS:DEP-WRB,"POS:INDEP-,",POS:INDEP-.,POS:INDEP-CC,POS:INDEP-CD,POS:INDEP-DT,POS:INDEP-JJ,POS:INDEP-NN,POS:INDEP-NNS,POS:INDEP-PRP,POS:INDEP-PRP$,POS:INDEP-RB,POS:INDEP-VBD,POS:INDEP-VBZ,Question,Quote,"STEM:DEP-,",STEM:DEP-...,STEM:DEP-a,STEM:DEP-about,STEM:DEP-after,STEM:DEP-also,STEM:DEP-and,STEM:DEP-ani,STEM:DEP-appoint,STEM:DEP-be,STEM:DEP-breast,STEM:DEP-bunch,STEM:DEP-by,STEM:DEP-cancer,STEM:DEP-diagnos,STEM:DEP-els,STEM:DEP-end,STEM:DEP-feel,STEM:DEP-follow,STEM:DEP-good,STEM:DEP-have,STEM:DEP-i,STEM:DEP-idea,STEM:DEP-it,STEM:DEP-know,STEM:DEP-life,STEM:DEP-like,STEM:DEP-mark,STEM:DEP-no,STEM:DEP-of,STEM:DEP-one,STEM:DEP-post,STEM:DEP-put,STEM:DEP-radiat,STEM:DEP-realiz,STEM:DEP-realli,STEM:DEP-result,STEM:DEP-sinc,STEM:DEP-slew,STEM:DEP-test,STEM:DEP-that,STEM:DEP-the,STEM:DEP-to,STEM:DEP-up,STEM:DEP-want,STEM:DEP-way,STEM:DEP-week,STEM:DEP-what,STEM:DEP-when,STEM:DEP-which,STEM:DEP-who,STEM:DEP-with,STEM:DEP-would,STEM:DEP-you,"STEM:INDEP-,",STEM:INDEP-.,STEM:INDEP-and,STEM:INDEP-arghh,STEM:INDEP-be,STEM:INDEP-he,STEM:INDEP-interest,STEM:INDEP-it,STEM:INDEP-lackadais,STEM:INDEP-last,STEM:INDEP-mark,STEM:INDEP-month,STEM:INDEP-my,STEM:INDEP-nice,STEM:INDEP-oncologist,STEM:INDEP-seven,STEM:INDEP-that,STEM:INDEP-think,STEM:INDEP-veri,STEM:INDEP-week
Orientation,3,(ROOT (S (NP (NP (JJ Last) (NN week)) (PP (IN after) (S (VP (VBG posting) (SBAR (S (NP (PRP I)) (VP (VBD realized) (NP-TMP (DT the) (NN week))))))))) (VP (VBD marked) (NP-TMP (CD seven) (NNS months)) (SBAR (IN since) (S (NP (PRP I)) (VP (VBD was) (VP (VBN diagnosed) (PP (IN with) (NP (NN breast) (NN cancer)))))))) (. .))),0,0,1,0,0,0,0,0,0,1,0,1,0,0,0,1,0,0,0,0,0,0,0,0,1,1,0,0,0,0,1,0,0,0,0,0,0,0,0,0,0,0,1,0,0,0,0,0,1,1,0,0,1,0,1,0,0,0,0,1,1,1,0,0,0,0,0,0,1,0,1,0,1,1,1,0,0,0,1,0,0,0,0,0,0,0,1,0,0,0,0,1,1,0,0,1,1,0,0,0,0,0,0,1,0,0,0,0,0,0,0,0,0,1,0,0,1,0,0,1,0,0,0,1,0,0,0,0,1,0,0,0,0,1,0,0,0,1,0,0,0,0,0,0,0,1,1,1,0,0,0,1,0,0,0,1
Orientation,3,"(ROOT (S (S (NP (PRP It)) (VP (VBZ 's) (ADJP (JJ interesting)) (SBAR (IN that) (S (NP (PRP it)) (ADVP (RB also)) (VP (VBD marked) (NP (NP (DT the) (NN end)) (PP (IN of) (NP (NP (NN radiation)) (, ,) (NP (NP (DT the) (NN slew)) (PP (IN of) (S (VP (VB follow) (PRT (RP up)) (NP (NNS appointments)))))) (CC and) (NP (NP (DT a) (NN bunch)) (PP (IN of) (NP (NP (NNS tests)) (, ,) (SBAR (WHNP (WDT which)) (S (PP (IN by) (NP (DT the) (NN way))) (NP (PRP I)) (VP (VBP have) (NP (NP (DT no) (NN idea)) (SBAR (WHNP (WP what)) (S (NP (DT the) (NNS results)) (VP (VBP are))))))))))))))))))) (, ,) (CC and) (S (NP (PRP$ my) (NN oncologist)) (VP (VBD was) (ADJP (RB very) (JJ lackadaisical) (PP (IN about) (SBAR (WHADVP (WRB when)) (S (NP (PRP I)) (VP (MD would) (VP (VB know))))))))) (. .)))",0,0,0,1,0,0,0,0,0,1,0,1,0,1,0,1,1,1,1,1,0,1,0,0,0,0,0,0,1,1,0,0,0,0,0,0,0,0,0,0,0,0,0,0,1,0,1,0,1,1,0,1,1,1,1,1,1,0,1,1,0,0,1,0,1,1,1,1,1,1,0,0,1,1,0,1,1,1,1,1,0,0,1,0,1,1,0,1,1,0,1,1,0,1,1,0,0,0,1,0,1,0,1,1,1,1,1,0,0,1,1,1,0,0,0,1,0,0,1,0,1,1,1,1,0,1,0,1,0,1,1,1,0,0,1,0,1,1,1,0,1,0,1,1,1,0,0,0,1,0,1,0,0,0,1,0
Evaluation,2,(ROOT (S (NP (PRP He)) (VP (VBD thought) (SBAR (IN that) (IN since) (S (NP (PRP I)) (VP (VBD felt) (SBAR (S (NP (JJ good) (NNS results)) (VP (MD would) (VP (VB be) (ADJP (JJ good)))))))))) (. .))),0,0,0,0,1,0,0,0,0,0,1,1,0,0,0,1,0,1,0,0,0,1,0,0,0,0,0,0,0,0,0,0,0,1,0,0,0,0,0,0,0,0,0,0,0,0,0,0,0,1,1,1,0,1,1,0,0,0,1,1,0,0,0,0,0,0,0,0,1,0,0,0,0,0,0,1,0,0,1,0,0,0,0,0,0,0,0,0,0,0,0,1,0,0,0,0,0,0,0,1,0,1,0,1,0,0,0,0,0,0,0,0,0,0,0,0,0,0,1,1,0,0,1,0,0,0,0,0,0,0,0,0,0,0,1,0,0,1,0,0,0,1,0,0,0,0,0,0,0,0,0,0,0,1,0,0
Evaluation,3,(ROOT (S (NP (DT That)) (VP (VBZ 's) (ADJP (JJ nice))) (. .))),0,0,0,0,0,1,0,0,0,0,0,0,0,0,0,0,0,0,0,0,0,0,0,0,0,0,0,0,1,0,0,0,0,0,0,0,0,0,0,0,0,0,0,0,0,0,0,0,0,0,0,0,0,0,0,0,0,0,0,0,0,0,0,0,0,0,0,0,1,0,0,1,1,0,0,0,0,0,0,1,0,0,0,0,0,0,0,0,0,0,0,0,0,0,0,0,0,0,0,0,0,0,0,0,0,0,0,0,0,0,0,0,0,0,0,0,0,0,0,0,0,0,0,0,0,0,0,0,0,0,0,0,0,0,0,0,0,1,0,0,1,0,0,0,0,0,0,0,0,1,0,0,1,0,0,0
Evaluation,3,(ROOT (NP (NN arghh) (. .))),0,0,0,0,0,0,1,0,0,0,0,0,0,0,0,0,0,0,0,0,0,0,0,0,0,0,0,0,0,0,0,0,0,0,0,0,0,0,0,0,0,0,0,0,0,0,0,0,0,0,0,0,0,0,0,0,0,0,0,0,0,0,0,0,0,0,0,0,1,0,0,0,0,1,0,0,0,0,0,0,0,0,0,0,0,0,0,0,0,0,0,0,0,0,0,0,0,0,0,0,0,0,0,0,0,0,0,0,0,0,0,0,0,0,0,0,0,0,0,0,0,0,0,0,0,0,0,0,0,0,0,0,0,0,0,0,0,1,0,1,0,0,0,0,0,0,0,0,0,0,0,0,0,0,0,0
Evaluation,3,(ROOT (FRAG (CC And) (PP (IN like) (NP (NP (DT any) (CD one)) (SBAR (WHNP (RB else) (WP who)) (S (VP (VBZ 's) (NP (NP (NN life)) (SBAR (S (VP (VBZ is) (VP (VBN marked) (PP (IN with) (NP (NP (NN cancer)) (SBAR (S (NP (PRP you)) (ADVP (RB really)) (VP (VBP want) (S (VP (TO to) (VP (VB put)))))))))))))))))) (: ...)))),0,0,0,0,0,0,0,1,0,0,1,0,0,0,0,1,1,0,0,0,1,1,0,0,0,0,0,1,0,0,0,0,0,0,0,0,0,0,0,0,0,0,0,1,0,1,0,1,1,1,0,0,1,0,1,1,0,1,1,0,0,1,1,1,0,1,0,0,0,1,0,0,0,0,0,0,0,0,0,0,0,0,0,1,0,0,0,0,0,1,0,1,0,0,0,1,0,1,0,0,0,0,0,0,0,0,0,1,1,1,0,0,1,0,1,0,0,1,0,0,0,0,0,0,1,0,1,0,0,0,0,0,1,1,0,1,0,0,1,0,0,0,0,0,0,0,0,0,0,0,0,0,0,0,0,0
