Label,Agreement,Tree,BoundBegin,BoundEnd,BinPosition0,BinPosition1,BinPosition2,BinPosition3,BinPosition4,BinPosition5,BinPosition6,BinPosition7,BinPosition8,BinPosition9,DEP-Conditional,DEP-Connective,DEP-Copula,DEP-FirstPerson,DEP-Imperative,DEP-IndefArticle,DEP-LIWC_Affect,DEP-LIWC_Cogmech,DEP-LIWC_Motion,DEP-Modal,DEP-Negate,DEP-PossHave,DEP-SecondPerson,DEP-StativeVerb,DEP-ThirdPersonProg,DEP-ThirdPersonStat,DEP-Time,FirstClause,INDEP-Conditional,INDEP-Connective,INDEP-Copula,INDEP-FirstPerson,INDEP-Imperative,INDEP-IndefArticle,INDEP-LIWC_Affect,INDEP-LIWC_Cogmech,INDEP-LIWC_Motion,INDEP-Modal,INDEP-Negate,INDEP-PossHave,INDEP-SecondPerson,INDEP-StativeVerb,INDEP-ThirdPersonProg,INDEP-ThirdPersonStat,INDEP-Time,LastClause,"POS:DEP-,",POS:DEP--LRB-,POS:DEP--RRB-,POS:DEP-.,POS:DEP-CC,POS:DEP-DT,POS:DEP-IN,POS:DEP-JJ,POS:DEP-JJR,POS:DEP-LS,POS:DEP-NN,POS:DEP-NNS,POS:DEP-PRP,POS:DEP-PRP$,POS:DEP-VBD,POS:DEP-VBG,"POS:INDEP-,",POS:INDEP--LRB-,POS:INDEP--RRB-,POS:INDEP-.,POS:INDEP-:,POS:INDEP-CC,POS:INDEP-DT,POS:INDEP-IN,POS:INDEP-JJ,POS:INDEP-LS,POS:INDEP-MD,POS:INDEP-NN,POS:INDEP-NNS,POS:INDEP-POS,POS:INDEP-PRP,POS:INDEP-PRP$,POS:INDEP-RB,POS:INDEP-RP,POS:INDEP-TO,POS:INDEP-VB,POS:INDEP-VBD,POS:INDEP-VBG,POS:INDEP-VBN,POS:INDEP-VBP,POS:INDEP-VBZ,POS:INDEP-WDT,POS:INDEP-WRB,Question,Quote,"STEM:DEP-,",STEM:DEP--lrb-,STEM:DEP--rrb-,STEM:DEP-.,STEM:DEP-a,STEM:DEP-about,STEM:DEP-against,STEM:DEP-and,STEM:DEP-as,STEM:DEP-b,STEM:DEP-bag,STEM:DEP-bang,STEM:DEP-be,STEM:DEP-bruise\/abras,STEM:DEP-camera,STEM:DEP-cloth,STEM:DEP-crock,STEM:DEP-door,STEM:DEP-earlier,STEM:DEP-enorm,STEM:DEP-for,STEM:DEP-freight,STEM:DEP-from,STEM:DEP-front,STEM:DEP-full,STEM:DEP-garbag,STEM:DEP-hanger,STEM:DEP-he,STEM:DEP-head,STEM:DEP-hear,STEM:DEP-i,STEM:DEP-in,STEM:DEP-item,STEM:DEP-laptop,STEM:DEP-my,STEM:DEP-of,STEM:DEP-on,STEM:DEP-outsid,STEM:DEP-person,STEM:DEP-pot,STEM:DEP-she,STEM:DEP-sundri,STEM:DEP-sure,STEM:DEP-that,STEM:DEP-the,STEM:DEP-tonight,STEM:DEP-wall,STEM:DEP-with,STEM:INDEP-'s,"STEM:INDEP-,",STEM:INDEP--,STEM:INDEP--lrb-,STEM:INDEP--rrb-,STEM:INDEP-.,STEM:INDEP-...,STEM:INDEP-a,STEM:INDEP-abus,STEM:INDEP-and,STEM:INDEP-as,STEM:INDEP-ass,STEM:INDEP-away,STEM:INDEP-b,STEM:INDEP-be,STEM:INDEP-beat,STEM:INDEP-becaus,STEM:INDEP-break,STEM:INDEP-bruise\/abras,STEM:INDEP-but,STEM:INDEP-certainli,STEM:INDEP-come,STEM:INDEP-cooker,STEM:INDEP-coupl,STEM:INDEP-day,STEM:INDEP-decid,STEM:INDEP-door,STEM:INDEP-drive,STEM:INDEP-dude,STEM:INDEP-enorm,STEM:INDEP-fill,STEM:INDEP-final,STEM:INDEP-frighten,STEM:INDEP-get,STEM:INDEP-go,STEM:INDEP-guess,STEM:INDEP-hallway,STEM:INDEP-have,STEM:INDEP-he,STEM:INDEP-head,STEM:INDEP-help,STEM:INDEP-hope,STEM:INDEP-i,STEM:INDEP-idea,STEM:INDEP-in,STEM:INDEP-issu,STEM:INDEP-know,STEM:INDEP-leav,STEM:INDEP-must,STEM:INDEP-my,STEM:INDEP-neighbor,STEM:INDEP-next,STEM:INDEP-no,STEM:INDEP-nosi,STEM:INDEP-not,STEM:INDEP-out,STEM:INDEP-over,STEM:INDEP-own,STEM:INDEP-pack,STEM:INDEP-rage,STEM:INDEP-realli,STEM:INDEP-sad,STEM:INDEP-see,STEM:INDEP-she,STEM:INDEP-slow,STEM:INDEP-so,STEM:INDEP-take,STEM:INDEP-that,STEM:INDEP-the,STEM:INDEP-thi,STEM:INDEP-to,STEM:INDEP-type,STEM:INDEP-up,STEM:INDEP-vehicl,STEM:INDEP-whatev,STEM:INDEP-where
Orientation,3,"(S (SBAR (IN As) (S (NP (PRP I)) (ADJP (NN type)))) (, ,) (NP (DT the) (JJ frightening) (NN couple)) (ADVP (JJ next) (NN door)) (VP (VBZ is) (VP (VBG breaking) (PRT (RP up)))))",0,1,1,0,0,0,0,0,0,0,0,0,0,0,0,0,0,0,0,0,0,0,0,0,0,0,0,0,0,1,0,1,0,1,0,0,0,0,0,0,0,0,0,0,0,0,0,0,0,0,0,0,0,0,0,0,0,0,0,0,0,0,0,0,1,0,0,0,1,0,1,1,1,0,0,1,0,0,1,0,0,1,0,0,0,1,0,0,1,0,0,0,0,0,0,0,0,0,0,0,0,0,0,0,0,0,0,0,0,0,0,0,0,0,0,0,0,0,0,0,0,0,0,0,0,0,0,0,0,0,0,0,0,0,0,0,0,0,0,0,0,0,1,1,0,0,0,0,0,0,0,1,0,0,0,1,0,0,1,0,0,0,0,0,1,0,0,1,0,0,0,0,0,1,0,0,0,0,0,0,0,0,0,1,0,0,0,0,0,0,0,0,1,0,0,0,0,0,0,0,0,0,0,0,0,0,0,0,0,1,0,0,1,1,0,0,0
Orientation,3,"(S (NP (PRP I)) (VP (VBP know) (NP (DT this)) (SBAR (IN because) (S (NP (NP (DT the) (NN hallway)) (PP (IN outside) (NP (PRP$ my) (JJ front) (NN door)))) (VP (VBZ is) (VP (VBN filled) (PP (IN with) (NP (NN clothing))) (PP (IN on) (NP (NP (NNS hangers)) (, ,) (NP (NP (NN garbage) (NNS bags)) (PP (JJ full) (IN of) (NP (NP (JJ personal) (JJ sundry) (NNS items)) (, ,) (NP (DT a) (NN laptop) (NN bag)) (, ,) (NP (DT a) (NN camera) (NN bag)) (, ,) (CC and) (NP (DT a) (NN crock) (NN pot)))))))))))))",1,0,0,1,0,0,0,0,0,0,0,0,0,0,0,1,0,1,0,0,0,0,0,0,0,0,0,0,0,0,0,0,0,1,0,0,0,1,1,0,0,0,0,1,0,0,0,0,1,0,0,0,1,1,1,1,0,0,1,1,0,1,0,0,0,0,0,1,0,0,1,1,0,0,0,1,0,0,1,0,0,0,0,0,0,0,1,1,1,0,0,0,0,1,0,0,0,1,0,0,1,0,0,1,0,0,0,1,1,1,1,0,0,0,0,0,1,1,1,1,0,0,0,0,0,1,1,1,1,1,1,1,1,0,1,0,0,0,0,0,1,0,0,0,0,0,1,0,0,0,0,0,0,0,0,1,0,1,0,0,0,0,0,0,0,0,0,0,0,0,0,1,0,0,0,0,0,1,0,0,0,0,0,1,0,0,0,1,0,0,0,0,0,0,0,0,0,0,0,0,0,0,0,0,0,0,0,0,0,1,1,0,0,0,0,0,0
Evaluation,2,(ROOT (S (NP (PRP She)) (VP (MD must) (VP (VB have) (ADVP (RB finally)) (VP (VBN decided) (S (VP (TO to) (VP (VP (VB leave) (NP (PRP$ his) (JJ abusive) (NN ass))) (: -) (CC and) (VP (VB take) (NP (DT the) (JJ slow) (NN cooker)) (PP (IN with) (NP (PRP her)))))))))) (. .))),0,0,0,0,1,0,0,0,0,0,0,0,0,0,0,0,0,0,0,0,0,0,0,0,0,0,0,0,0,0,0,0,0,0,0,0,0,1,1,1,0,0,0,0,1,0,0,0,0,0,0,0,0,0,1,0,0,0,0,0,1,0,0,0,0,0,0,1,1,1,1,0,1,0,1,1,0,0,1,1,1,0,1,1,0,0,1,0,0,0,0,0,0,0,0,0,0,0,0,0,0,0,0,0,0,0,0,0,0,0,0,0,0,0,0,0,0,0,0,0,0,0,0,0,0,0,0,0,0,0,0,0,0,1,0,0,0,0,0,0,1,0,0,1,0,0,1,0,0,1,1,0,1,0,0,0,0,0,0,0,0,0,0,1,0,0,1,0,0,0,0,0,1,0,0,0,0,0,1,1,0,0,0,0,0,0,0,0,1,1,0,0,0,0,0,0,0,0,0,0,0,0,0,0,1,1,0,1,0,1,0,1,0,0,0,0,0
Evaluation,2,(S (NP (PRP I)) (VP (VBP have) (NP (NP (DT no) (NN idea)) (SBAR (WHADVP (WRB where)) (S (NP (PRP she)) (VP (VBD went))))))),0,1,0,0,0,1,0,0,0,0,0,0,0,0,0,0,0,0,0,0,0,0,0,0,0,0,0,0,0,0,0,0,0,1,0,0,0,1,1,0,1,1,0,0,0,0,0,0,0,0,0,0,0,0,0,0,0,0,0,0,0,0,0,0,1,0,0,0,0,0,1,0,0,0,0,1,0,0,1,0,0,0,0,0,1,0,0,1,0,0,1,0,0,0,0,0,0,0,0,0,0,0,0,0,0,0,0,0,0,0,0,0,0,0,0,0,0,0,0,0,0,0,0,0,0,0,0,0,0,0,0,0,0,0,0,0,0,0,0,0,0,0,1,0,0,0,0,0,0,0,0,0,0,0,0,0,0,0,0,0,0,0,0,0,0,0,0,0,0,0,0,0,0,0,0,1,0,0,1,0,0,0,0,1,1,0,0,0,0,0,0,0,0,1,0,0,0,0,0,0,0,0,0,0,1,0,0,0,0,0,0,0,0,0,0,0,1
Action,3,(S (NP (PRP I)) (VP (VBD saw) (S (NP (PRP him)) (VP (VBG coming) (PRT (RB out)) (PP (IN of) (NP (DT the) (NN freight) (NN elevator))))))),1,1,0,0,0,0,1,0,0,0,0,0,0,0,0,0,0,0,0,0,0,0,0,0,0,0,0,0,0,0,0,1,0,1,0,0,0,1,1,0,0,0,0,0,0,0,0,0,0,0,0,0,0,1,1,0,0,0,1,0,0,0,0,0,0,0,0,0,0,1,0,0,0,0,0,0,0,0,1,0,1,0,0,0,1,1,0,0,0,0,0,0,0,0,0,0,0,0,0,0,0,0,0,0,0,0,0,0,0,0,0,0,0,0,1,0,0,0,0,0,0,0,0,0,0,0,0,0,1,0,0,0,0,0,0,0,0,1,0,0,0,0,0,0,0,0,0,0,0,0,0,0,0,0,0,0,0,0,0,0,1,0,1,0,0,0,0,0,0,0,0,0,0,0,0,0,0,0,0,1,0,0,0,1,0,0,0,0,0,0,0,0,0,0,0,0,1,0,0,0,0,0,0,1,0,0,0,0,0,0,0,0,0,0,0,0,0
Evaluation,3,"(S (NP (PRP I)) (ADVP (RB certainly)) (VP (VBP hope) (SBAR (SBAR (IN that) (S (S (LST (-LRB- -LRB-) (DT a) (-RRB- -RRB-)) (NP (PRP he)) (VP (VBD helped) (NP (NP (PRP$ her) (NN pack)) (SBAR (WHNP (WDT whatever)) (S (ADJP (NN vehicle))))))) (PRN (S (NP (PRP she)) (VP (VBD drove) (ADVP (RB away)) (PP (IN in)))) (, ,)))) (CC and) (SBAR (LST (-LRB- -LRB-) (LS b) (-RRB- -RRB-)) (IN that) (S (NP (NP (DT the) (JJ enormous) (NN bruise\/abrasion)) (PP (IN on) (NP (PRP$ his) (NN head)))) (VP (VBD was) (PP (IN from) (S (NP (DT that)) (VP (VBG banging) (SBAR (S (NP (PRP I)) (VP (VBD heard) (NP (JJR earlier) (NN tonight)))))))))) (. .)))))",1,0,0,0,0,0,0,1,0,0,0,0,0,0,0,1,0,0,0,0,0,0,0,0,0,1,0,0,1,0,0,1,0,1,0,1,1,1,1,0,0,0,0,0,0,0,0,0,1,1,1,1,1,1,1,1,1,1,1,0,1,1,1,1,1,1,1,1,0,1,1,1,1,1,0,1,0,0,1,1,1,0,0,0,1,0,0,1,0,1,0,0,0,1,1,1,1,0,0,0,1,0,1,0,1,1,1,0,0,0,0,1,1,0,0,1,0,0,0,0,1,1,1,1,1,0,0,0,0,1,0,0,0,0,0,0,1,1,1,0,0,0,1,0,1,1,1,0,1,0,1,0,0,1,1,1,0,0,0,1,0,1,0,0,0,0,0,0,1,0,1,0,0,0,0,0,0,0,0,1,0,1,1,1,0,1,0,0,0,0,0,0,0,0,0,0,0,0,0,1,0,0,0,0,1,0,0,0,1,1,0,0,0,0,1,1,0
Evaluation,3,"(ROOT (S (PP (IN As) (PP (IN in))) (, ,) (S (NP (PRP him)) (VP (VBG beating) (NP (PRP$ his) (JJ own) (NN head)) (PP (IN against) (NP (DT the) (NN wall))))) (. .)))",0,0,0,0,0,0,0,0,1,0,0,0,0,1,0,0,0,0,0,0,0,0,0,0,0,0,0,0,0,0,0,0,0,0,0,0,0,0,0,0,0,0,0,1,0,0,0,0,0,0,0,0,0,1,1,0,0,0,1,0,0,0,0,0,1,0,0,1,0,0,0,0,1,0,0,1,0,0,1,1,0,0,0,0,0,1,0,0,0,0,0,0,0,0,0,0,0,0,0,1,0,1,0,0,0,0,0,0,0,0,0,0,0,0,0,0,0,0,0,0,0,0,0,0,1,0,0,0,0,0,0,0,0,0,0,0,0,1,0,1,0,0,1,0,0,0,1,0,0,0,0,0,0,0,0,0,1,0,0,0,0,0,0,0,0,0,0,0,0,0,0,0,0,0,0,0,0,0,0,1,1,0,0,0,0,0,0,0,0,0,0,0,0,0,0,0,0,0,1,0,0,0,0,0,0,0,0,0,0,0,0,0,0,0,0,0,0
Evaluation,2,(ROOT (S (NP (DT The) (NN dude) (POS 's)) (VP (VBD got) (NP (NN rage) (NNS issues)) (PP (IN for) (ADJP (JJ sure)))) (. .))),0,0,0,0,0,0,0,0,0,1,0,0,0,0,0,0,0,0,0,0,0,0,0,0,0,0,0,0,0,0,0,0,0,0,0,0,0,0,0,0,0,0,0,0,0,0,0,0,0,0,0,0,0,0,1,1,0,0,0,0,0,0,0,0,0,0,0,1,0,0,1,0,0,0,0,1,1,1,0,0,0,0,0,0,1,0,0,0,0,0,0,0,0,0,0,0,0,0,0,0,0,0,0,0,0,0,0,0,0,0,0,0,0,1,0,0,0,0,0,0,0,0,0,0,0,0,0,0,0,0,0,0,0,0,0,1,0,0,0,0,0,1,0,0,0,0,1,0,0,0,0,0,0,0,0,0,0,0,0,0,0,0,0,0,0,0,0,0,0,1,0,0,0,0,1,0,0,0,0,0,0,0,0,0,0,0,1,0,0,0,0,0,0,0,0,0,0,0,0,0,1,0,0,0,0,0,0,0,0,1,0,0,0,0,0,0,0
Evaluation,2,(S (NP (PRP$ my) (JJ nosy) (NN neighbor) (NNS days)) (VP (VBP are) (ADJP (IN over)))),0,1,0,0,0,0,0,0,0,0,1,0,0,0,0,0,0,0,0,0,0,0,0,0,0,0,0,0,0,0,0,1,1,1,0,0,0,1,0,0,0,0,0,0,0,0,1,0,0,0,0,0,0,0,0,0,0,0,0,0,0,0,0,0,0,0,0,0,1,0,0,1,1,0,0,1,1,0,1,1,0,0,0,0,0,0,0,1,0,0,0,0,0,0,0,0,0,0,0,0,0,0,0,0,0,0,0,0,0,0,0,0,0,0,0,0,0,0,0,0,0,0,0,0,0,0,0,0,0,0,0,0,0,0,0,0,0,0,0,0,0,0,0,0,0,0,0,1,0,0,0,0,0,0,0,1,0,0,0,0,0,0,0,0,0,1,0,0,0,0,0,0,0,0,0,0,1,0,0,0,0,0,0,1,0,0,0,0,0,0,1,1,0,0,1,0,0,1,0,0,0,0,0,0,0,0,1,0,0,0,0,0,0,0,0,0,0
Evaluation,3,(S (NP (PRP I)) (VP (VBP 'm) (RB not) (ADJP (RB really) (JJ sad) (PP (IN about) (NP (DT that)))))),1,0,0,0,0,0,0,0,0,0,0,1,0,0,0,0,0,0,0,0,0,0,0,0,0,0,0,0,0,0,0,1,0,1,0,0,0,0,0,0,1,0,0,0,0,0,0,1,0,0,0,0,0,1,1,0,0,0,0,0,0,0,0,0,0,0,0,1,0,1,0,0,1,0,0,0,0,0,1,0,1,0,0,0,0,0,0,1,0,0,0,0,0,0,0,0,0,0,1,0,0,0,0,0,0,0,0,0,0,0,0,0,0,0,0,0,0,0,0,0,0,0,0,0,0,0,0,0,0,0,0,0,0,0,0,0,1,0,0,0,0,0,0,0,0,0,1,0,0,0,1,0,0,0,0,1,0,0,0,0,0,0,0,0,0,0,0,0,0,0,0,0,0,0,0,0,0,0,0,0,0,0,0,1,0,0,0,0,0,0,0,0,0,0,0,1,0,0,0,0,0,1,1,0,0,0,0,0,0,0,0,0,0,0,0,0,0
