Label,Agreement,Tree,BoundBegin,BoundEnd,",",.,...,:,BinPosition0,BinPosition1,BinPosition2,BinPosition3,BinPosition4,BinPosition5,BinPosition6,BinPosition7,BinPosition8,BinPosition9,CC,CD,Connective,Copula,DT,EX,FirstClause,FirstPerson,IN,Impreative,IndefArticle,JJ,LIWC_Affect,LIWC_Cogmech,LIWC_Motion,LastClause,MD,Modal,NN,NNP,NNS,Negate,PRP,Question,Quote,RB,SecondPerson,StativeVerb,ThirdPersonProg,ThirdPersonStat,Time,VB,VBD,VBG,VBN,WRB,a,about,alan,as,be,build,citi,could,cover,exhibit,far,footbal,forget,georg,i,in,jacki,juli,legendari,list,michael,middl,milburn,name,nearli,newcastl,not,of,one,onli,or,outsid,owen,past,place,player,present,robledo,see,shearer,some,supermac,take,the,there,thi,vienna,when,with
Evaluation,3,(ROOT (S (NP (PRP I)) (ADVP (RB nearly)) (VP (VBD forgot) (PP (IN about) (NP (DT this)))) (: ...))),0,0,0,0,1,1,1,0,0,0,0,0,0,0,0,0,0,0,0,0,1,0,1,1,1,0,0,0,0,1,0,0,0,0,0,0,0,0,1,0,0,1,0,0,0,0,0,0,1,0,0,0,0,1,0,0,0,0,0,0,0,0,0,0,1,0,1,0,0,0,0,0,0,0,0,0,1,0,0,0,0,0,0,0,0,0,0,0,0,0,0,0,0,0,0,0,0,1,0,0,0
Orientation,3,"(ROOT (S (SBAR (WHADVP (WRB When)) (S (NP (PRP I)) (VP (VBD was) (PP (IN in) (NP (NP (NNP Vienna)) (PP (IN in) (NP (NP (DT the) (NN middle)) (PP (IN of) (NP (NNP July)))))))))) (, ,) (NP (PRP I)) (VP (VBD saw) (SBAR (S (NP (EX there)) (VP (VBD was) (NP (NP (DT a) (NN football) (NN exhibition)) (VP (VBG taking) (NP (NP (NN place)) (PP (IN in) (NP (DT the) (NN city)))))))))) (. .)))",0,0,1,1,0,0,0,1,0,0,0,0,0,0,0,0,0,0,1,0,1,1,0,1,1,0,1,0,0,0,0,0,0,0,1,1,0,0,1,0,0,0,0,0,0,0,1,0,1,1,0,1,1,0,0,0,1,0,1,0,0,1,0,1,0,0,1,1,0,1,0,0,0,1,0,0,0,0,0,1,0,0,0,0,0,0,1,0,0,0,1,0,0,0,1,1,1,0,1,1,0
Orientation,3,(ROOT (S (NP (NP (DT The) (NN outside)) (PP (IN of) (NP (DT the) (NN building)))) (VP (VBD was) (VP (VBN covered) (PP (IN with) (NP (NP (DT the) (NNS names)) (PP (IN of) (NP (NP (DT some)) (PP (IN of) (NP (DT the) (JJ legendary) (NNS players))))))))) (. .))),0,0,0,1,0,0,0,0,0,1,0,0,0,0,0,0,0,0,0,0,1,0,0,0,1,0,1,1,0,0,0,0,0,0,1,0,1,0,0,0,0,0,0,0,1,0,0,0,1,0,1,0,0,0,0,0,1,1,0,0,1,0,0,0,0,0,0,0,0,0,1,0,0,0,0,1,0,0,0,1,0,0,0,1,0,0,0,1,0,0,0,0,1,0,0,1,0,0,0,0,1
Orientation,3,"(ROOT (S (SBAR (IN As) (S (ADVP (RB far) (PP (IN as) (NP (PRP I)))) (VP (MD could) (VP (VB see))))) (, ,) (NP (EX there)) (VP (VBD was) (ADJP (ADJP (QP (RB only) (CD one)) (NNP Newcastle) (NN past)) (CC or) (ADJP (JJ present) (SBAR (S (VP (VBN listed))))))) (. .)))",0,0,1,1,0,0,0,0,0,0,0,1,0,0,0,0,1,1,1,0,0,1,0,1,1,0,0,1,0,0,0,0,1,1,1,1,0,0,1,0,0,1,0,0,0,0,1,1,1,0,1,0,0,0,0,1,1,0,0,1,0,0,1,0,0,0,1,0,0,0,0,1,0,0,0,0,0,1,0,0,1,1,1,0,0,1,0,0,1,0,1,0,0,0,0,0,1,0,0,0,0
Evaluation,2,"(ROOT (FRAG (RB Not) (NP (NNP Alan) (NNP Shearer)) (, ,) (RB not) (NP (NNP Jackie) (NNP Milburn)) (, ,) (RB not) (NP (NNP Supermac)) (, ,) (RB not) (NP (NNP George) (NNP Robledo)) (, ,) (RB not) (NP (NNP Michael) (NNP Owen)) (. .)))",0,0,1,1,0,0,0,0,0,0,0,0,0,1,0,0,0,0,0,0,0,0,0,0,0,0,0,0,0,0,0,0,0,0,0,1,0,1,0,0,0,1,0,0,0,0,0,0,0,0,0,0,0,0,1,0,0,0,0,0,0,0,0,0,0,1,0,0,1,0,0,0,1,0,1,0,0,0,1,0,0,0,0,0,1,0,0,0,0,1,0,1,0,1,0,0,0,0,0,0,0
Orientation,1,(ROOT (S (VP (VB See)))),0,0,0,0,0,0,0,0,0,0,0,0,0,0,0,1,0,0,0,0,0,0,0,0,0,1,0,0,0,0,0,1,0,0,0,0,0,0,0,0,0,0,0,0,0,0,0,1,0,0,0,0,0,0,0,0,0,0,0,0,0,0,0,0,0,0,0,0,0,0,0,0,0,0,0,0,0,0,0,0,0,0,0,0,0,0,0,0,0,0,1,0,0,0,0,0,0,0,0,0,0
