Label,Agreement,Tree,BoundBegin,BoundEnd,','','ll,'s,",",.,BinPosition0,BinPosition1,BinPosition2,BinPosition4,BinPosition5,BinPosition7,BinPosition8,BinPosition9,CC,DEP-Conditional,DEP-Connective,DEP-Copula,DEP-FirstPerson,DEP-Imperative,DEP-IndefArticle,DEP-LIWC_Affect,DEP-LIWC_Cogmech,DEP-LIWC_Motion,DEP-Modal,DEP-Negate,DEP-Question,DEP-Quote,DEP-SecondPerson,DEP-StativeVerb,DEP-ThirdPersonProg,DEP-ThirdPersonStat,DEP-Time,DT,FirstClause,IN,INDEP-Conditional,INDEP-Connective,INDEP-Copula,INDEP-FirstPerson,INDEP-Imperative,INDEP-IndefArticle,INDEP-LIWC_Affect,INDEP-LIWC_Cogmech,INDEP-LIWC_Motion,INDEP-Modal,INDEP-Negate,INDEP-Question,INDEP-Quote,INDEP-SecondPerson,INDEP-StativeVerb,INDEP-ThirdPersonProg,INDEP-ThirdPersonStat,INDEP-Time,JJ,LastClause,MD,NN,NNP,NNPS,POS,PRP,PRP$,RB,RP,TO,VB,VBD,VBG,VBN,VBP,WP,WRB,a,along,and,anyhow,as,at,be,blog,bu,bum,but,by,cake,call,catch,commut,day,daylast,decid,dure,earli,email,even,everyon,express,final,find,for,friend,from,have,i,individu,it,leav,leg,make,mom,morn,muscl,my,necessari,night,o,of,off,okay,on,pass,pretti,proud,pull,quiet,recommend,rest,rich,saturday,silli,site,so,stiffen,take,that,the,thi,through,to,tomorrow,trip,twist,up,veri,watson,well,where,whom,with,wonder,word,work,wreck
Orientation,3,"(S (NP (NP (DT the-4) (NNP DayLast-5) (NN evening-6) (POS 's-7)) (NN muscle-8) (NN pull-9)) (VP (VBD had-10) (VP (VBN stiffened-11) (PRT (RP up-12)) (PP (IN during-13) (NP (DT the-14) (NN night-15))) (, ,-16) (S (VP (VBG making-17) (S (NP (PRP it-18)) (ADJP (JJ necessary-19))) (PP (TO to-20) (NP (NN commute-21))) (PP (IN by-22) (NP (JJ express-23) (NN bus-24))) (NP-TMP (DT this-25) (NN morning-26)))))))",0,1,1,1,0,1,1,0,1,0,0,0,0,0,0,0,0,0,0,0,0,1,0,0,1,0,0,0,0,0,0,0,0,0,1,1,1,1,0,1,0,0,0,0,0,1,0,0,0,0,0,0,0,1,0,1,1,0,0,1,1,0,1,1,0,0,1,1,0,1,1,1,0,0,0,0,0,0,0,0,0,0,0,1,0,0,1,0,0,0,1,0,1,0,1,0,0,1,0,1,0,0,0,0,0,1,0,0,1,0,0,1,0,1,1,0,1,1,1,0,0,0,0,0,0,0,1,0,0,0,0,0,1,1,0,1,0,0,1,1,0,1,0,0,0,1,0,0,0,0,0,0,0,0,0,0
Orientation,2,(NP (NP (NN everyone-1)) (PP (IN at-2) (NP (NN work-3)))),1,1,0,0,0,0,0,0,0,1,0,0,0,0,0,0,1,0,0,0,0,0,0,0,0,0,0,0,0,0,0,0,0,0,0,0,0,1,0,1,0,0,0,0,0,0,0,0,0,0,0,0,0,1,0,0,0,0,0,1,0,0,0,0,0,1,0,0,0,1,0,0,0,0,0,0,0,0,0,0,1,1,0,0,0,1,0,0,0,0,0,0,0,0,0,0,0,0,1,0,0,0,0,0,0,0,0,0,0,0,0,0,0,0,0,0,0,0,0,0,0,0,0,0,0,0,0,0,0,0,0,0,0,0,0,0,0,0,0,0,0,0,0,0,0,0,1,0,0,0,0,0,0,0,1,0
Orientation,2,(S (CC and-0) (NP (PRP it-1)) (VP (VBD was-2) (NP (DT a-3) (ADJP (RB pretty-4) (JJ quiet-5)) (NN day-6)) (ADVP (RB anyhow-7)))),1,1,0,0,0,0,0,0,0,0,1,0,0,0,0,0,1,0,0,0,0,0,0,0,0,0,0,0,0,0,0,0,0,0,0,1,0,0,0,1,0,0,0,1,0,0,0,0,0,0,0,0,0,1,0,1,1,0,0,1,0,0,0,1,0,1,0,0,0,1,0,0,0,0,0,1,0,1,1,0,0,1,0,0,0,0,0,0,0,0,0,1,0,0,0,0,0,0,0,0,0,0,0,0,0,0,0,0,1,0,0,0,0,0,0,0,0,0,0,0,0,0,0,0,1,0,0,1,0,0,0,0,0,0,0,0,0,0,0,0,0,0,0,0,0,0,0,0,0,0,0,0,0,0,0,0
Action,3,(VP (VBD worked-2) (PP (IN through-3) (NP (NN lunch-4)))),1,1,0,0,0,0,0,0,0,0,0,1,0,0,0,0,0,0,0,0,0,0,0,0,0,0,0,0,0,0,0,0,0,0,0,0,0,1,0,1,0,1,0,0,0,0,0,0,0,0,0,0,0,0,0,0,0,0,0,0,0,0,0,1,0,0,0,0,0,1,0,0,0,0,0,0,0,0,0,0,0,0,0,0,0,0,0,0,0,0,0,0,0,0,0,0,0,0,0,0,0,0,0,0,0,0,1,0,0,0,0,0,0,0,0,0,0,0,0,0,0,0,0,0,0,0,0,0,0,0,0,0,0,0,1,0,0,0,0,0,1,0,0,0,0,0,0,0,0,0,0,0,0,0,1,0
Action,3,(VP (VBD left-1) (ADVP (RB early-2))),1,1,0,0,0,0,0,0,0,0,0,0,1,0,0,0,1,0,0,0,0,0,0,0,0,0,0,0,0,0,0,0,0,0,0,0,0,0,0,1,0,0,0,0,0,0,1,0,0,0,0,0,0,0,0,0,0,0,0,0,0,0,0,0,0,1,0,0,0,1,0,0,0,0,0,0,0,1,0,0,0,0,0,0,0,0,0,0,0,0,0,0,0,0,0,1,0,0,0,0,0,0,0,0,0,0,0,0,0,1,0,0,0,0,0,0,0,0,0,0,0,0,0,0,0,0,0,0,0,0,0,0,0,0,0,0,0,0,0,0,0,0,0,0,0,0,0,0,0,0,0,0,0,0,0,0
Evaluation,2,(VP (VBG deciding-3) (S (VP (TO to-4) (VP (VB take-5) (NP (NN tomorrow-6)) (PRT (IN off-7)) (S (VP (TO to-8) (VP (VB rest-9) (NP (DT the-10) (NN leg-11) (CC and-12) (NN bum-13)) (SBAR (IN so-14) (S (NP (PRP I-15)) (VP (MD 'll-16) (VP (VB be-17) (ADJP (JJ okay-18) (PP (IN for-19) (NP (DT the-20) (NN trip-21)))) (PP (TO to-22) (CC and-23) (IN from-24) (NP (NP (NN Mom-25) (POS 's-26)) (PP (IN on-27) (NP (NNP Saturday-28)))))))))))))))),1,0,0,0,1,1,0,1,0,0,0,0,0,1,0,0,1,0,1,0,1,0,0,0,0,0,1,0,0,0,0,0,0,0,1,1,0,1,0,1,0,0,0,0,0,1,0,0,0,0,0,0,0,0,0,1,1,0,1,1,1,0,1,1,0,1,0,1,1,0,1,0,0,0,0,0,0,1,0,1,0,1,0,0,1,0,0,0,0,0,0,0,0,1,0,0,0,0,0,0,0,0,1,0,1,0,1,0,0,0,1,0,1,0,0,0,0,0,0,0,1,1,1,0,0,0,0,0,0,1,0,1,0,0,1,0,1,0,1,0,0,1,1,1,0,0,0,0,1,0,0,0,0,0,0,0
Action,3,"(ROOT (S (VP (VP (ADVP (RB Finally-0)) (VBN caught-1) (PRT (RP up-2)) (PP (IN with-3) (NP (NN email-4)))) (, ,-5) (SBAR (WHADVP (WRB where-6)) (S (NP (PRP I-7)) (VP (VBD found-8) (NP (NP (NNP Rich-9) (NNP Watson-10)) (, ,-11) (NP (DT a-12) (ADJP (RB wonderfully-13) (JJ twisted-14)) (JJ individual-15)) (SBAR (WHNP (WP whom-16)) (S (NP (PRP I-17)) (VP (VBP 'm-18) (ADJP (JJ proud-19) (S (VP (TO to-20) (VP (VB call-21) (NP (PRP$ my-22) (NN friend-23)))))))))) (, ,-24) (S (VP (VBG recommending-25) (SBAR (IN that-26) (S (NP (PRP I-27)) (VP (VBP pass-28) (PRT (RB along-29)) (NP (NP (NN word-30)) (PP (IN of-31) (NP (NP (DT a-32) (NN blog-33)) (VP (VBN called-34) (NP (NNP Cake-35) (NNPS Wrecks-36))))))))))))))) (. .-37)))",0,0,0,0,0,0,1,1,0,0,0,0,0,0,1,0,0,0,0,1,1,0,1,1,1,1,0,0,0,0,0,0,0,0,0,1,0,1,0,0,0,0,0,0,0,0,1,0,0,0,0,0,0,0,0,0,1,0,0,1,1,1,0,1,1,1,1,1,1,1,1,1,1,1,1,1,1,0,0,0,0,1,1,0,0,0,0,1,1,1,0,0,0,0,0,0,1,0,0,0,1,1,0,1,0,0,1,1,0,0,0,0,0,0,0,1,0,0,0,1,0,0,0,1,0,1,0,0,1,0,1,0,0,0,0,0,0,1,0,0,0,1,0,0,1,1,0,1,0,1,1,1,1,1,0,1
Action,2,(ROOT (S (CC And-0) (ADVP (RB so-1)) (NP (PRP I-2)) (VP (VBP have-3)) (. .-4))),0,0,0,0,0,0,0,1,0,0,0,0,0,0,0,1,1,0,0,0,0,0,0,0,0,0,0,0,0,0,0,0,0,0,0,0,0,0,0,1,0,1,0,0,0,1,0,0,0,0,0,0,0,0,0,0,0,1,0,0,0,0,0,1,0,1,0,0,0,0,0,0,1,0,0,0,0,1,0,0,0,0,0,0,0,0,0,0,0,0,0,0,0,0,0,0,0,0,0,0,0,0,0,0,0,1,1,0,0,0,0,0,0,0,0,0,0,0,0,0,0,0,0,0,0,0,0,0,0,0,0,0,0,0,1,0,0,0,0,0,0,0,0,0,0,0,0,0,0,0,0,0,0,0,0,0
