Label,Agreement,Tree,BoundBegin,BoundEnd,",",.,...,:,BinPosition0,BinPosition1,BinPosition3,BinPosition5,BinPosition7,BinPosition9,CC,CD,DEP-Conditional,DEP-Connective,DEP-Copula,DEP-FirstPerson,DEP-Imperative,DEP-IndefArticle,DEP-LIWC_Affect,DEP-LIWC_Cogmech,DEP-LIWC_Motion,DEP-Modal,DEP-Negate,DEP-Question,DEP-Quote,DEP-SecondPerson,DEP-StativeVerb,DEP-ThirdPersonProg,DEP-ThirdPersonStat,DEP-Time,DT,EX,FirstClause,IN,INDEP-Conditional,INDEP-Connective,INDEP-Copula,INDEP-FirstPerson,INDEP-Imperative,INDEP-IndefArticle,INDEP-LIWC_Affect,INDEP-LIWC_Cogmech,INDEP-LIWC_Motion,INDEP-Modal,INDEP-Negate,INDEP-Question,INDEP-Quote,INDEP-SecondPerson,INDEP-StativeVerb,INDEP-ThirdPersonProg,INDEP-ThirdPersonStat,INDEP-Time,JJ,LastClause,MD,NN,NNP,NNS,PRP,RB,VB,VBD,VBG,VBN,WRB,a,about,alan,as,be,build,citi,could,cover,exhibit,far,footbal,forget,georg,i,in,jacki,juli,legendari,list,michael,middl,milburn,name,nearli,newcastl,not,of,one,onli,or,outsid,owen,past,place,player,present,robledo,see,shearer,some,supermac,take,the,there,thi,vienna,when,with
Evaluation,3,(ROOT (S (NP (PRP I-0)) (ADVP (RB nearly-1)) (VP (VBD forgot-2) (PP (IN about-3) (NP (DT this-4)))) (: ...-5))),0,0,0,0,1,1,1,0,0,0,0,0,0,0,0,0,0,0,0,0,0,0,0,0,0,0,0,0,0,0,0,0,1,0,1,1,0,0,0,1,0,0,0,1,0,0,0,0,0,0,0,0,0,0,0,0,0,0,0,0,1,1,0,1,0,0,0,0,1,0,0,0,0,0,0,0,0,0,0,1,0,1,0,0,0,0,0,0,0,0,0,1,0,0,0,0,0,0,0,0,0,0,0,0,0,0,0,0,0,0,0,0,1,0,0,0
Orientation,3,"(ROOT (S (SBAR (WHADVP (WRB When-0)) (S (NP (PRP I-1)) (VP (VBD was-2) (PP (IN in-3) (NP (NP (NNP Vienna-4)) (PP (IN in-5) (NP (NP (DT the-6) (NN middle-7)) (PP (IN of-8) (NP (NNP July-9)))))))))) (, ,-10) (NP (PRP I-11)) (VP (VBD saw-12) (SBAR (S (NP (EX there-13)) (VP (VBD was-14) (NP (NP (DT a-15) (NN football-16) (NN exhibition-17)) (VP (VBG taking-18) (NP (NP (NN place-19)) (PP (IN in-20) (NP (DT the-21) (NN city-22)))))))))) (. .-23)))",0,0,1,1,0,0,0,1,0,0,0,0,0,0,0,0,0,1,0,1,0,0,0,0,0,0,0,0,0,1,1,1,1,1,0,1,0,1,0,1,0,0,0,0,0,0,0,0,0,0,0,0,0,0,0,0,0,1,1,0,1,0,0,1,1,0,1,1,0,0,0,1,0,1,0,0,1,0,1,0,0,1,1,0,1,0,0,0,1,0,0,0,0,0,1,0,0,0,0,0,0,1,0,0,0,1,0,0,0,1,1,1,0,1,1,0
Orientation,3,(ROOT (S (NP (NP (DT The-0) (NN outside-1)) (PP (IN of-2) (NP (DT the-3) (NN building-4)))) (VP (VBD was-5) (VP (VBN covered-6) (PP (IN with-7) (NP (NP (DT the-8) (NNS names-9)) (PP (IN of-10) (NP (NP (DT some-11)) (PP (IN of-12) (NP (DT the-13) (JJ legendary-14) (NNS players-15))))))))) (. .-16))),0,0,0,1,0,0,0,0,1,0,0,0,0,0,0,0,0,0,0,0,0,0,0,0,0,0,0,0,0,0,0,0,1,0,0,1,0,0,0,0,0,1,0,0,0,0,0,0,0,0,0,1,0,0,1,0,0,1,0,1,0,0,0,1,0,1,0,0,0,0,0,1,1,0,0,1,0,0,0,0,0,0,0,0,0,1,0,0,0,0,1,0,0,0,1,0,0,0,1,0,0,0,1,0,0,0,0,1,0,0,1,0,0,0,0,1
Orientation,3,"(ROOT (S (SBAR (IN As-0) (S (ADVP (RB far-1) (PP (IN as-2) (NP (PRP I-3)))) (VP (MD could-4) (VP (VB see-5))))) (, ,-6) (NP (EX there-7)) (VP (VBD was-8) (ADJP (ADJP (QP (RB only-9) (CD one-10)) (NNP Newcastle-11) (NN past-12)) (CC or-13) (ADJP (JJ present-14) (SBAR (S (VP (VBN listed-15))))))) (. .-16)))",0,0,1,1,0,0,0,0,0,1,0,0,1,1,0,1,0,1,1,0,0,0,0,1,0,0,0,0,0,0,0,0,0,1,0,1,0,1,0,1,0,0,0,0,0,1,0,0,0,0,0,1,1,1,1,0,1,1,1,0,1,1,1,1,0,1,0,0,0,0,1,1,0,0,1,0,0,1,0,0,0,1,0,0,0,0,1,0,0,0,0,0,1,0,0,1,1,1,0,0,1,0,0,1,0,1,0,0,0,0,0,1,0,0,0,0
Evaluation,2,"(ROOT (FRAG (RB Not-0) (NP (NNP Alan-1) (NNP Shearer-2)) (, ,-3) (RB not-4) (NP (NNP Jackie-5) (NNP Milburn-6)) (, ,-7) (RB not-8) (NP (NNP Supermac-9)) (, ,-10) (RB not-11) (NP (NNP George-12) (NNP Robledo-13)) (, ,-14) (RB not-15) (NP (NNP Michael-16) (NNP Owen-17)) (. .-18)))",0,0,1,1,0,0,0,0,0,0,1,0,0,0,0,0,0,0,0,0,0,0,0,0,0,0,0,0,0,0,0,0,0,0,0,0,0,0,0,0,0,0,0,0,0,0,1,0,0,0,0,0,0,0,0,0,0,0,1,0,0,1,0,0,0,0,0,0,0,1,0,0,0,0,0,0,0,0,0,0,1,0,0,1,0,0,0,1,0,1,0,0,0,1,0,0,0,0,0,1,0,0,0,0,1,0,1,0,1,0,0,0,0,0,0,0
Evaluation,1,(ROOT (S (VP (VB See-0)))),0,0,0,0,0,0,0,0,0,0,0,1,0,0,0,0,0,0,0,0,0,0,0,0,0,0,0,0,0,0,0,0,0,0,0,0,0,0,0,0,1,0,0,0,0,0,0,0,0,0,0,0,0,0,0,1,0,0,0,0,0,0,1,0,0,0,0,0,0,0,0,0,0,0,0,0,0,0,0,0,0,0,0,0,0,0,0,0,0,0,0,0,0,0,0,0,0,0,0,0,0,0,0,0,0,1,0,0,0,0,0,0,0,0,0,0
