Label,Agreement,Tree,BoundBegin,BoundEnd,BinPosition0,BinPosition1,BinPosition2,BinPosition3,BinPosition4,BinPosition5,BinPosition6,BinPosition7,BinPosition8,BinPosition9,DEP-Conditional,DEP-Connective,DEP-Copula,DEP-FirstPerson,DEP-Imperative,DEP-IndefArticle,DEP-LIWC_Affect,DEP-LIWC_Cogmech,DEP-LIWC_Motion,DEP-Modal,DEP-Negate,DEP-Question,DEP-Quote,DEP-SecondPerson,DEP-StativeVerb,DEP-ThirdPersonProg,DEP-ThirdPersonStat,DEP-Time,FirstClause,INDEP-Conditional,INDEP-Connective,INDEP-Copula,INDEP-FirstPerson,INDEP-Imperative,INDEP-IndefArticle,INDEP-LIWC_Affect,INDEP-LIWC_Cogmech,INDEP-LIWC_Motion,INDEP-Modal,INDEP-Negate,INDEP-Question,INDEP-Quote,INDEP-SecondPerson,INDEP-StativeVerb,INDEP-ThirdPersonProg,INDEP-ThirdPersonStat,INDEP-Time,LastClause,Quote
Orientation,3,(S (NP (PRP I-2)) (VP (VBP do-3) (RB n't-4) (VP (VB check-5) (NP (DT the-6) (NN mouse-7) (NNS traps-8)) (PP (IN in-9) (NP (NP (DT the-10) (NN basement-11)) (PP (IN for-12) (NP (DT a-13) (NN couple-14) (NNS months-15)))))))),0,1,1,0,0,0,0,0,0,0,0,0,0,0,0,0,0,0,0,0,0,0,0,0,0,0,0,0,0,0,1,0,0,0,1,0,1,0,0,0,0,1,0,0,0,0,0,0,1,0,0
Orientation,3,(S (NP (PRP I-1)) (VP (VBP 'm-2) (VP (VBN stuck-3) (PP (IN with-4) (NP (CD three-5) (VBG stinking-6) (JJ dead-7) (NNS mice-8)))))),1,0,1,0,0,0,0,0,0,0,0,0,0,0,0,0,0,0,0,0,0,0,0,0,0,0,0,0,0,0,0,0,1,0,1,0,0,1,0,0,0,0,0,0,0,0,0,0,0,0,0
Evaluation,3,"(ROOT (S (CC And-0) (NP-TMP (RB yes-1)) (, ,-2) (NP (PRP I-3)) (VP (VBD was-4) (VP (VBG wondering-5) (SBAR (WHADVP (WRB where-6)) (S (NP (DT that-7)) (VP (VBP stink-8) (SBAR (S (VP (VBD was-9) (VP (VBG coming-10) (PP (IN from-11))))))))))) (. .-12)))",0,0,0,1,0,0,0,0,0,0,0,0,0,0,0,0,0,0,1,1,1,0,0,0,0,0,0,1,0,0,0,0,1,0,1,0,0,0,1,0,0,0,0,0,0,0,0,0,0,0,0
Action,3,(NP (NNP Pretty-0) (JJ gross-1)),0,1,0,0,1,0,0,0,0,0,0,0,0,0,0,0,0,0,0,0,0,0,0,0,0,0,0,0,0,0,0,0,0,0,0,0,0,0,0,0,0,0,0,0,0,0,0,0,0,0,0
Action,1,(PP (IN since-0) (NP (NP (CD one-1) (NN mouse-2)) (VP (VP (VBN rotted-3)) (CC and-4) (VP (VBD fell-5) (ADVP (RB apart-6)))))),1,0,0,0,0,1,0,0,0,0,0,0,0,0,0,0,0,0,0,0,0,0,0,0,0,0,0,0,0,0,0,0,1,0,0,0,0,0,0,1,0,0,0,0,0,0,0,0,0,0,0
Evaluation,2,(NP (NP (DT some-2)) (PP (IN of-3) (NP (DT the-4) (NN cleaning-5)))),0,1,0,0,0,1,0,0,0,0,0,0,0,0,0,0,0,0,0,0,0,0,0,0,0,0,0,0,0,0,0,0,0,0,1,0,1,0,1,0,1,0,0,0,0,0,0,0,0,0,0
Orientation,3,(SBAR (IN since-0) (S (NP (PRP it-1)) (VP (VBZ is-2) (NP (DT a-3) (NN storage-4) (NN area-5)) (ADVP (RB only-6))))),1,0,0,0,0,0,1,0,0,0,0,0,0,0,0,0,0,0,0,0,0,0,0,0,0,0,0,0,0,0,0,0,0,0,0,0,1,0,0,0,0,0,0,0,0,0,1,0,0,0,0
Evaluation,3,(ROOT (S (S (NP (PRP I-0)) (VP (VBP hope-1) (SBAR (S (VP (VBD got-2) (NP (NP (JJS most-3)) (PP (IN of-4) (NP (PRP it-5))))))))) (CC and-6) (S (NP (DT the-7)) (VP (VBP stink-8) (SBAR (S (VP (VBZ clears-9) (PRT (RP out-10))))))) (. .-11))),0,0,0,0,0,0,0,1,0,0,0,0,0,0,0,0,1,0,0,1,0,0,0,0,0,0,0,0,0,0,0,0,1,0,1,0,0,1,1,0,0,0,0,0,0,0,0,0,0,0,0
Action,3,(ROOT (S (NP (PRP I-0)) (VP (VBD did-1) (VP (VB put-2) (PP (IN on-3) (NP (DT the-4) (NN fan-5))))) (. .-6))),0,0,0,0,0,0,0,0,1,0,0,0,0,0,0,0,0,0,0,0,0,0,0,0,0,0,0,0,0,0,0,0,0,0,1,0,0,0,0,1,0,0,0,0,0,0,0,0,0,0,0
Evaluation,3,(PP (IN in-11) (NP (DT a-12) (NN trap-13))),0,1,0,0,0,0,0,0,1,0,0,0,0,0,0,0,0,0,0,0,0,0,0,0,0,0,0,0,0,0,0,0,0,0,1,0,1,1,1,1,0,1,0,0,0,0,0,0,0,0,0
Evaluation,3,(SBAR (IN since-0) (S (NP (PRP I-1)) (VP (MD 'd-2) (ADVP (RB never-3)) (VP (VB find-4) (NP (PRP it-5)) (PP (IN in-6) (NP (DT the-7) (NN basement-8) (NN mess-9))))))),1,0,0,0,0,0,0,0,0,1,0,0,0,0,0,0,0,0,0,0,0,0,0,0,0,0,0,0,0,0,0,0,0,0,1,0,0,0,1,0,1,1,0,0,0,0,0,0,0,0,0
Stative- Local Context,3,(ROOT (S (NP (DT The-0) (NN smell-1)) (VP (VBZ is-2) (ADJP (RB too-3) (JJ non-local-4))) (. .-5))),0,0,0,0,0,0,0,0,0,0,1,0,0,0,0,0,0,0,0,0,0,0,0,0,0,0,0,0,0,0,0,0,0,1,0,0,0,0,0,0,0,0,0,0,0,0,0,0,0,0,0
Stative - Consequence,2,(ROOT (S (NP (NP (NNP Update-0)) (SBAR (S (NP (NP (# #-1) (CD 1-2)) (: :-3) (NP (DT the-4) (JJ big-5))) (VP (VBP stink-6))))) (VP (VBZ is-7) (VP (VBN gone-8) (NP-TMP (DT the-9) (JJ next-10) (NN morning-11)))) (. .-12))),0,0,0,0,0,0,0,0,0,0,0,1,0,0,0,0,0,0,1,0,0,0,0,0,0,0,0,0,0,0,0,0,1,0,0,1,0,0,0,1,0,0,0,0,0,0,1,0,1,0,0
Evaluation,3,(ROOT (INTJ (NN Success-0) (. .-1))),0,0,0,0,0,0,0,0,0,0,0,1,0,0,0,0,0,0,0,0,0,0,0,0,0,0,0,0,0,0,0,0,0,0,0,0,0,0,0,0,0,0,0,0,0,0,0,0,0,1,0
