Label,Agreement,Tree,BoundBegin,BoundEnd,BinPosition0,BinPosition1,BinPosition2,BinPosition3,BinPosition4,BinPosition5,BinPosition6,BinPosition7,BinPosition8,BinPosition9,DEP-Conditional,DEP-Connective,DEP-Copula,DEP-FirstPerson,DEP-Imperative,DEP-IndefArticle,DEP-LIWC_Affect,DEP-LIWC_Cogmech,DEP-LIWC_Motion,DEP-Modal,DEP-Negate,DEP-Question,DEP-Quote,DEP-SecondPerson,DEP-StativeVerb,DEP-ThirdPersonProg,DEP-ThirdPersonStat,DEP-Time,FirstClause,INDEP-Conditional,INDEP-Connective,INDEP-Copula,INDEP-FirstPerson,INDEP-Imperative,INDEP-IndefArticle,INDEP-LIWC_Affect,INDEP-LIWC_Cogmech,INDEP-LIWC_Motion,INDEP-Modal,INDEP-Negate,INDEP-Question,INDEP-Quote,INDEP-SecondPerson,INDEP-StativeVerb,INDEP-ThirdPersonProg,INDEP-ThirdPersonStat,INDEP-Time,LastClause,Quote
Orientation,3,(S (NP (PRP I-0)) (VP (VBD took-1) (NP (NNP MARTA-2) (NN home-3)) (PP (IN from-4) (NP (NN work-5))) (NP-TMP (NN tonight-6)) (SBAR (IN because-7) (S (NP (PRP$ my-8) (NN carpool-9) (NN partner-10)) (VP (VBZ is-11) (PP (IN at-12) (NP (DT the-13) (NN store-14)))))))),0,1,1,0,0,0,0,0,0,0,0,0,0,0,0,1,0,0,0,0,0,0,0,0,0,0,0,0,0,0,1,0,0,0,1,0,0,0,0,0,0,0,0,0,0,0,0,0,1,0,0
Orientation,3,(S (NP (PRP I-1)) (VP (VBP have-2) (NP (NN Morning-3) (NNS Lights-4) (NN practice-5)))),1,0,1,0,0,0,0,0,0,0,0,0,0,0,0,0,0,0,0,0,0,0,0,0,0,0,0,0,0,0,0,0,1,0,1,0,0,0,0,0,0,0,0,0,0,0,0,0,1,0,0
Action,2,(ROOT (S (NP (DT The-0) (CD 139-1)) (VP (VBD was-2) (ADJP (NP (QP (RB about-3) (CD 8-4)) (NNS minutes-5)) (JJ late-6)) (S (VP (VBG picking-7) (NP (PRP me-8)) (PRT (RP up-9))))) (. .-10))),0,0,1,0,0,0,0,0,0,0,0,0,0,0,0,1,1,0,0,1,0,0,0,0,0,0,0,0,0,0,0,0,0,1,0,0,0,0,0,0,0,0,0,0,0,0,0,0,1,0,0
Evaluation,1,(ROOT (S (NP (PRP We-0)) (VP (VBD seemed-1) (S (VP (TO to-2) (VP (VB have-3) (NP (NP (DT a-4) (NN lot-5)) (PP (IN of-6) (NP (NP (NNS stops-7)) (SBAR (WHNP (WDT which-8)) (S (VP (VBD slowed-9) (NP (PRP us-10)) (PRT (RP down-11)))))))))))) (. .-12))),0,0,1,0,0,0,0,0,0,0,0,0,0,0,0,1,0,1,0,1,0,0,0,0,0,0,0,0,0,0,0,0,0,0,1,0,0,0,1,0,0,0,0,0,0,1,0,0,0,0,0
Orientation,2,(ROOT (S (NP (PRP$ My-0) (NN goal-1)) (VP (VBD was-2) (S (VP (TO to-3) (VP (VB catch-4) (NP (NP (DT the-5) (CD 9-6)) (PP (IN at-7) (NP (CD 5-8) (NNS Points-9)))) (PP (IN by-10) (NP (CD 6:50-11))))))) (. .-12))),0,0,0,1,0,0,0,0,0,0,0,0,0,0,0,0,0,0,0,0,1,0,0,0,0,0,0,0,0,1,0,0,0,0,1,0,0,0,0,0,0,0,0,0,0,0,0,0,0,0,0
Action,2,(VP (VBD got-1) (S (VP (TO to-2) (VP (VB Lenox-3) (PP (IN by-4) (NP (CD 6:30-5))))))),0,1,0,1,0,0,0,0,0,0,0,0,0,0,0,0,0,0,0,0,0,0,0,0,0,0,0,0,0,0,0,0,0,0,1,0,0,0,0,0,0,0,0,0,0,0,0,0,1,0,0
Evaluation,2,(VP (VBD knew-1) (SBAR (S (NP (PRP it-2)) (VP (MD 'd-3) (VP (VB be-4) (ADJP (RB very-5) (JJ tight-6)) (S (VP (VBG catching-7) (PP (IN that-8) (NP (NN bus-9)))))))))),1,0,0,1,0,0,0,0,0,0,0,0,0,0,1,0,0,0,0,0,1,1,0,0,0,0,0,0,0,0,0,0,1,1,0,0,0,0,1,0,0,0,0,0,0,1,0,0,0,0,0
Action,2,(ROOT (S (S (ADVP (RB Thankfully-0)) (NP (PRP I-1)) (VP (VBD took-2) (NP (NP (NNP James-3) (POS '-4)) (NN suggestion-5) (S (VP (TO to-6) (VP (VB write-7) (PRT (RP down-8)) (NP (NP (PDT all-9) (DT the-10) (NNS times-11)) (PP (IN of-12) (NP (DT the-13) (NNS buses-14)))))))))) (NP (PRP I-15)) (VP (MD could-16) (ADVP (RB potentially-17)) (VP (VB catch-18))) (. .-19))),0,0,0,1,0,0,0,0,0,0,0,0,0,0,0,0,0,0,0,1,0,0,0,0,0,0,0,0,0,0,0,0,0,0,1,0,0,0,0,1,1,0,0,0,0,0,0,0,0,0,0
Action,2,(VP (VBD got-1) (PP (TO to-2) (NP (CD 5-3) (NNS Points-4))) (PP (IN at-5) (NP (CD 6:53-6)))),0,1,0,0,1,0,0,0,0,0,0,0,0,0,0,0,0,0,0,0,0,0,0,0,0,0,0,0,0,0,0,0,0,0,1,0,0,0,0,0,0,0,0,0,0,0,0,0,1,0,0
Evaluation,2,(VP (VBD figured-1) (SBAR (S (NP (PRP I-2)) (VP (VBD was-3) (ADVP (IN out-4) (PP (IN of-5) (NP (NN luck-6)))) (PP (IN on-7) (NP (DT the-8) (CD 9-9))))))),1,0,0,0,1,0,0,0,0,0,0,0,0,0,0,1,0,0,0,0,0,0,0,0,0,0,0,0,0,0,0,0,1,0,0,0,0,0,1,0,0,0,0,0,0,0,0,0,0,0,0
Action,3,(ROOT (S (IN So-0) (NP (PRP I-1)) (VP (VBD took-2) (NP (DT the-3) (JJ eastbound-4) (NN train-5)) (PP (TO to-6) (NP (NNP Inman-7) (NNP Park\/Reynoldstown-8)))) (. .-9))),0,0,0,0,1,0,0,0,0,0,0,0,0,0,0,0,0,0,0,0,0,0,0,0,0,0,0,0,0,0,0,0,1,0,1,0,0,0,0,0,0,0,0,0,0,0,0,0,0,0,0
Evaluation,2,"(ROOT (S (NP (NP (DT The-0) (JJ cool-1) (NN thing-2)) (PP (IN about-3) (NP (DT that-4) (NN station-5)))) (VP (VBZ is-6) (SBAR (S (NP (PRP I-7)) (VP (VBP have-8) (NP (NP (CD 3-9) (NNS buses-10)) (SBAR (S (NP (PRP I-11)) (VP (MD can-12) (VP (VB take-13))))) (, ,-14) (NP (DT the-15) (CD 7-16)) (, ,-17) (NP (CD 107-18) (CC and-19) (CD 34-20)) (, ,-21) (SBAR (WHNP (DT all-22) (WHPP (IN of-23) (WHNP (WDT which-24)))) (S (VP (VBP take-25) (S (NP (PRP me-26)) (VP (VB close-27) (PP (TO to-28) (NP (NN home-29))))))))))))) (. .-30)))",0,0,0,0,1,0,0,0,0,0,0,0,0,1,0,1,0,0,0,1,0,1,0,0,0,0,0,0,0,0,0,0,0,0,0,0,0,0,0,0,0,0,0,0,0,0,1,0,0,0,0
Action,2,(VP (VBD got-1) (PP (TO to-2) (NP (DT the-3) (NN station-4))) (PP (IN at-5) (NP (CD 7:02-6)))),0,1,0,0,0,1,0,0,0,0,0,0,0,0,0,0,0,0,0,0,0,0,0,0,0,0,0,0,0,0,0,0,0,0,1,0,0,0,0,0,0,0,0,0,0,0,0,0,1,0,0
Evaluation,3,(VP (VBD hoped-1) (SBAR (S (NP (EX there-2)) (VP (MD 'd-3) (VP (VB be-4) (NP (NP (DT a-5) (NN bus-6)) (VP (VBG waiting-7)))))))),1,1,0,0,0,1,0,0,0,0,0,0,0,0,0,0,0,1,0,1,0,1,0,0,0,0,0,1,1,0,0,0,1,0,0,0,0,1,1,0,0,0,0,0,0,0,0,0,0,0,0
Stative- Local Context,3,(NP (DT the-0) (CD 7-1)),1,0,0,0,0,1,0,0,0,0,0,0,0,0,0,0,0,0,0,0,0,0,0,0,0,0,0,0,0,0,0,0,0,0,0,0,0,0,0,0,0,0,0,0,0,0,1,0,0,0,0
Action,3,(NP (NP (NN right-2)) (PP (IN on-3))),0,1,0,0,0,1,0,0,0,0,0,0,0,0,0,0,0,0,0,0,0,0,0,0,0,0,0,0,0,0,0,0,0,0,1,0,0,0,0,0,0,0,0,0,0,0,0,0,0,0,0
Action,3,(VBD waited-1),1,1,0,0,0,0,1,0,0,0,0,0,0,0,0,0,0,0,0,0,0,0,0,0,0,0,0,0,0,0,0,0,1,0,0,0,0,0,0,0,0,0,0,0,0,0,0,0,0,0,0
Action,3,(VBD waited-1),1,1,0,0,0,0,1,0,0,0,0,0,0,0,0,0,0,0,0,0,0,0,0,0,0,0,0,0,0,0,0,0,1,0,0,0,0,0,0,0,0,0,0,0,0,0,0,0,0,0,0
Action,3,(. .-2),1,0,0,0,0,0,1,0,0,0,0,0,0,0,0,0,0,0,0,0,0,0,0,0,0,0,0,0,0,0,0,0,1,0,0,0,0,0,1,0,0,0,0,0,0,0,0,0,0,0,0
Stative- Local Context,3,(ROOT (S (NP (EX There-0)) (VP (VBD was-1) (NP (DT no-2) (NN bus-3) (NN driver-4)) (ADVP (IN around-5))) (. .-6))),0,0,0,0,0,0,1,0,0,0,0,0,0,0,0,0,0,0,0,0,0,0,0,0,0,0,0,0,0,0,0,0,0,0,0,0,0,0,0,0,0,1,0,0,0,0,1,1,0,0,0
Action,3,(SBAR (IN While-0) (S (NP (PRP I-1)) (VP (VBD sat-2)))),0,1,0,0,0,0,0,1,0,0,0,0,0,0,0,0,0,0,0,0,0,0,0,0,0,0,0,0,0,0,0,0,1,0,1,0,0,0,0,1,0,0,0,0,0,0,0,0,0,0,0
Action,3,(VP (ADVP (RB then-0)) (VBN left-1)),1,0,0,0,0,0,0,1,0,0,0,0,0,0,0,0,0,0,0,0,0,0,0,0,0,0,0,0,0,0,0,0,1,0,0,0,0,0,0,1,0,0,0,0,0,0,0,0,0,0,0
Action,3,(VP (VBD pulled-3) (PRT (RP up-4))),0,1,0,0,0,0,0,1,0,0,0,0,0,0,0,0,0,0,0,0,0,0,0,0,0,0,0,0,0,0,0,0,1,0,0,0,0,0,0,1,0,0,0,0,0,0,0,0,0,0,0
Action,3,(. .-3),1,0,0,0,0,0,0,0,1,0,0,0,0,0,0,0,0,0,0,0,0,0,0,0,0,0,0,0,0,0,0,0,1,0,0,0,0,0,0,1,0,0,0,0,0,0,0,0,0,0,0
Evaluation,3,(ROOT (S (NP (PRP I-0)) (VP (VBD was-1) (ADVP (RB pretty-2) (RB much-3)) (VP (VBG freaking-4) (PRT (RP out-5)) (ADVP (RB silently-6)))) (. .-7))),0,0,0,0,0,0,0,0,1,0,0,0,0,0,0,0,0,0,0,0,0,0,0,0,0,0,0,0,0,0,0,0,0,0,1,0,0,1,0,0,0,0,0,0,0,0,0,0,0,0,0
Stative- Local Context,3,(ROOT (SINV (ADVP (RB Nowhere-0)) (VP (VBD was-1)) (NP (DT a-2) (NN driver-3) (S (VP (TO to-4) (VP (VB be-5) (VP (VBN found-6)))))) (. .-7))),0,0,0,0,0,0,0,0,1,0,0,0,0,0,0,0,0,0,0,1,0,0,0,0,0,0,0,1,0,0,0,0,0,0,0,0,1,0,0,0,0,1,0,0,0,0,1,0,0,0,0
Action,2,"(ROOT (S (NP (DT Some-0) (NNS people-1)) (ADVP (RB even-2)) (VP (VP (VBD got-3) (PRT (RP off-4)) (NP (NP (DT the-5) (NN bus-6)) (, ,-7) (SBAR (WHNP (WDT which-8)) (S (NP (PRP I-9)) (ADVP (RB so-10)) (VP (VBP wish-11) (SBAR (S (NP (PRP I-12)) (VP (MD would-13) (VP (VB 've-14) (VP (VBN done-15))))))))))) (, ,-16) (CC and-17) (VP (VBD got-18) (PP (IN on-19) (NP (DT the-20) (JJ other-21) (NNS buses-22))))) (. .-23)))",0,0,0,0,0,0,0,0,1,0,0,0,0,1,0,1,0,0,0,1,0,1,0,0,0,0,1,0,0,0,0,0,1,0,0,0,1,0,0,0,0,0,0,0,0,0,0,0,0,0,0
Action,3,(ADVP (NP (QP (RB About-0) (CD 20-1)) (NNS minutes-2)) (RB later-3)),0,1,0,0,0,0,0,0,0,1,0,0,0,0,0,0,0,0,0,0,0,0,0,0,0,0,0,0,0,0,0,0,0,0,0,0,1,0,0,0,0,0,0,0,0,0,0,0,1,0,0
Action,3,(S (NP (PRP we-5)) (VP (VBD were-6) (ADVP (RB off-7)))),1,0,0,0,0,0,0,0,0,1,0,0,0,0,0,0,0,0,0,0,0,0,0,0,0,0,0,0,0,0,0,0,1,0,1,0,0,0,0,0,0,0,0,0,0,0,0,0,0,0,0
Evaluation,3,(ROOT (S (NP (DT The-0) (NN waiting-1)) (VP (VBD was-2) (ADJP (JJ painful-3))) (. .-4))),0,0,0,0,0,0,0,0,0,1,0,0,0,0,0,0,0,0,0,0,0,0,0,0,0,0,0,0,0,0,0,0,0,1,0,0,0,0,0,0,0,0,0,0,0,0,0,0,0,0,0
Evaluation,1,(ROOT (S (ADVP (RB However-0)) (NP (PRP I-1)) (VP (VBP 'm-2) (VP (VBG learning-3))) (. .-4))),0,0,0,0,0,0,0,0,0,1,0,0,0,0,0,0,0,0,0,0,0,0,0,0,0,0,0,0,0,0,0,0,0,0,1,0,0,0,1,0,0,0,0,0,0,0,0,0,0,0,0
Evaluation,1,(S (NP (PRP I-0)) (VP (VBP 'm-1) (VP (VBG learning-2) (PP (IN about-3) (NP (NN patience-4)))))),0,1,0,0,0,0,0,0,0,0,1,0,0,0,0,0,0,0,0,0,0,0,0,0,0,0,0,0,0,0,0,0,0,0,1,0,0,0,1,0,0,0,0,0,0,0,0,0,0,0,0
Evaluation,2,(S (NP (PRP I-1)) (VP (VBP 'm-2) (VP (VBG learning-3) (PP (IN about-4) (NP (NNP MARTA-5)))))),1,0,0,0,0,0,0,0,0,0,1,0,0,0,0,0,0,0,0,0,0,0,0,0,0,0,0,0,0,0,0,0,1,0,1,0,0,0,1,0,0,0,0,0,0,0,0,0,0,0,0
Evaluation,3,(ROOT (S (S (INTJ (UH Oh-0)) (NP (PRP I-1)) (VP (VBP think-2))) (NP (PRP I-3)) (VP (MD may-4) (VP (VB have-5) (VP (VBN gotten-6) (NP (NP (JJ double-7)) (VP (VBN charged-8) (PP (IN on-9) (NP (DT this-10) (NN trip-11))) (ADVP (RB too-12))))))) (. .-13))),0,0,0,0,0,0,0,0,0,0,1,0,0,0,0,0,0,0,0,0,0,0,0,0,0,0,0,0,0,0,0,0,0,0,1,0,0,0,1,0,1,0,0,0,0,0,0,0,0,0,0
Evaluation,3,(ROOT (S (NP (PRP I-0)) (VP (VBP 'm-1) (RB not-2) (ADJP (JJ sure-3)) (ADVP (RB exactly-4))) (. .-5))),0,0,0,0,0,0,0,0,0,0,1,0,0,0,0,0,0,0,0,0,0,0,0,0,0,0,0,0,0,0,0,0,0,1,1,0,0,0,0,0,0,1,0,0,0,0,0,0,0,0,0
Evaluation,3,(ROOT (S (SBAR (IN If-0) (S (NP (PRP I-1)) (VP (VBD was-2) (NP (PRP I-3))))) (VP (VBP suppose-4) (SBAR (S (NP (NP ($ $-5) (CD 1.75-6)) (PP (IN in-7) (NP (NP (DT the-8) (JJ grand-9) (NN scheme-10)) (PP (IN of-11) (NP (NNS things-12)))))) (VP (VBZ is-13) (RB n't-14) (NP (DT a-15) (NN deal-16) (NN breaker-17)))))) (. .-18))),0,0,0,0,0,0,0,0,0,0,0,1,0,0,1,1,0,1,0,0,0,0,1,0,0,0,0,0,0,0,0,1,0,0,0,1,0,0,1,0,0,0,0,0,0,1,0,0,0,0,0
Evaluation,3,(ROOT (S (NP (PRP I-0)) (VP (VBP 'm-1) (ADVP (RB still-2)) (ADJP (JJ glad-3) (SBAR (S (NP (PRP I-4)) (VP (VBD did-5) (NP (PRP it-6))))))) (. .-7))),0,0,0,0,0,0,0,0,0,0,0,1,0,0,0,1,0,0,0,0,0,0,0,0,0,0,0,0,0,0,0,0,0,1,1,0,0,0,0,0,0,0,0,0,0,0,0,0,0,0,0
Evaluation,2,(ROOT (S (NP (PRP I-0)) (VP (VBD learned-1) (NP (JJ other-2) (NNS ways-3)) (S (VP (TO to-4) (VP (VB get-5) (NP (NN home-6)) (PP (VBN based-7) (PP (IN upon-8) (SBAR (WHNP (WP what-9) (NN time-10)) (S (NP (PRP it-11)) (VP (VBZ is-12)))))))))) (. .-13))),0,0,0,0,0,0,0,0,0,0,0,1,0,0,0,0,0,0,0,0,0,0,0,0,0,0,0,1,0,0,0,0,0,0,1,0,0,0,1,0,0,0,0,0,0,0,0,0,0,0,0
Evaluation,3,(ROOT (S (NP (PRP I-0)) (VP (MD 'll-1) (VP (VB keep-2) (S (VP (VBG trying-3))))) (. .-4))),0,0,0,0,0,0,0,0,0,0,0,1,0,0,0,0,1,0,0,0,0,0,0,0,0,0,0,0,0,0,0,0,0,0,1,0,0,0,1,0,1,0,0,0,0,0,0,0,0,1,0
