Label,Agreement,Tree,BoundBegin,BoundEnd,BinPosition0,BinPosition1,BinPosition2,BinPosition3,BinPosition4,BinPosition5,BinPosition6,BinPosition7,BinPosition8,BinPosition9,DEP-Conditional,DEP-Connective,DEP-Copula,DEP-FirstPerson,DEP-Imperative,DEP-IndefArticle,DEP-LIWC_Affect,DEP-LIWC_Cogmech,DEP-LIWC_Motion,DEP-Modal,DEP-Negate,DEP-Question,DEP-Quote,DEP-SecondPerson,DEP-StativeVerb,DEP-ThirdPersonProg,DEP-ThirdPersonStat,DEP-Time,FirstClause,INDEP-Conditional,INDEP-Connective,INDEP-Copula,INDEP-FirstPerson,INDEP-Imperative,INDEP-IndefArticle,INDEP-LIWC_Affect,INDEP-LIWC_Cogmech,INDEP-LIWC_Motion,INDEP-Modal,INDEP-Negate,INDEP-Question,INDEP-Quote,INDEP-SecondPerson,INDEP-StativeVerb,INDEP-ThirdPersonProg,INDEP-ThirdPersonStat,INDEP-Time,LastClause,Quote
Orientation,3,"(PP (IN in-22) (NP (NNP Kellogg-23) (, ,-24) (NNP Idaho-25)))",0,1,1,0,0,0,0,0,0,0,0,0,0,0,0,0,0,0,0,0,0,0,0,0,0,0,0,0,0,0,1,0,0,1,1,0,0,0,0,1,0,0,0,0,0,0,0,0,1,0,0
Orientation,3,"(NP (NP (DT no-0) (NN doubt-1)) (VP (VBG boasting-2) (PP (IN about-3) (NP (NP (DT the-4) (JJ rotten-5) (NN egg-6) (NN stench-7)) (PP (IN of-8) (NP (NP (DT the-9) (NN air-10)) (, ,-11) (NP (NP (DT the-12) (JJ gray-13) (NN river-14)) (VP (VBG running-15) (PP (IN through-16) (NP (NN town-17)))))))))))",1,1,1,0,0,0,0,0,0,0,0,0,0,0,0,0,0,0,0,0,0,0,0,0,0,0,0,0,0,0,0,0,1,0,0,0,0,0,1,1,0,1,0,0,0,1,1,0,0,0,0
Action,3,(SBAR (WHADVP (WRB when-0)) (S (NP (NP (CD one-1)) (PP (IN of-2) (NP (PRP$ my-3) (NNS students-4)))) (VP (VBD said-5)))),1,1,1,0,0,0,0,0,0,0,0,0,0,0,0,0,0,0,0,0,0,0,0,0,0,0,0,0,0,0,0,0,1,0,1,0,0,0,0,0,0,0,0,0,0,0,0,0,0,0,0
Orientation,3,(VP (VBP live-2) (PP (IN in-3) (NP (NNP Kellogg-4)))),1,0,1,0,0,0,0,0,0,0,0,0,0,0,0,0,0,0,0,0,0,0,0,0,0,0,0,0,0,0,0,0,0,0,1,0,0,0,0,0,0,0,0,1,0,0,0,0,0,0,1
Evaluation,3,(ROOT (S (NP (PRP I-0)) (VP (VBP 've-1) (ADVP (RB never-2)) (VP (VBN seen-3) (NP (PRP you-4)))) (. .-5) ('' ''-6))),0,0,1,0,0,0,0,0,0,0,0,0,0,0,0,0,0,0,0,0,0,0,0,0,0,0,0,0,0,0,0,0,0,0,1,0,0,0,0,0,0,1,0,1,1,0,0,0,0,0,1
Evaluation,3,"(UCP (S (NP (PRP You-1)) (VP (VBP live-2) (PP (IN in-3) (NP (NNP Kellogg-4))))) (, ,-5) (NP (RB now-6)) (. ?-7))",0,1,1,0,0,0,0,0,0,0,0,0,0,0,0,0,0,0,0,0,0,0,0,0,0,0,0,0,0,0,0,0,0,0,0,0,0,0,0,0,0,0,1,1,1,0,0,0,1,0,1
Evaluation,2,(VP (VBD looked-1) (SBAR (IN like-2) (S (NP (PRP I-3)) (VP (MD 'd-4) (S (ADVP (RB just-5)) (VP (VBN been-6) (VP (VBN told-7) (SBAR (S (NP (PRP I-8)) (VP (VBD was-9) (ADJP (JJ pregnant-10)))))))))))),1,0,0,1,0,0,0,0,0,0,0,0,0,0,0,1,0,0,0,0,0,1,0,0,0,0,0,0,0,0,0,0,0,0,1,0,0,0,0,0,0,0,0,0,0,1,0,0,0,0,0
Evaluation,2,(INTJ (`` ``-0) (UH Yeah-1)),0,1,0,1,0,0,0,0,0,0,0,0,0,0,0,0,0,0,0,0,0,0,0,0,0,0,0,0,0,0,0,0,0,0,0,0,0,0,0,0,0,0,0,1,0,0,0,0,0,0,1
Action,3,(VP (VBD recoiled-1) (NP (DT a-2) (NN bit-3)) (PP (IN at-4) (NP (PRP$ my-5) (JJ bitter-6) (NN beer-7) (NN face-8)))),1,0,0,1,0,0,0,0,0,0,0,0,0,0,0,0,0,0,0,0,0,0,0,0,0,0,0,0,0,0,0,0,0,0,1,0,1,0,0,0,0,0,0,0,0,0,0,0,0,0,0
Evaluation,3,(FRAG (NP (PRP You-1)) (NP (NN commute-2)) (. ?-3)),0,1,0,1,0,0,0,0,0,0,0,0,0,0,0,0,0,0,0,0,0,0,0,0,0,0,0,0,0,0,0,0,0,0,0,0,0,0,0,0,0,0,1,1,1,0,0,0,0,0,1
Evaluation,2,(VP (ADVP (PRP I-0)) (VBD looked-1) (SBAR (IN like-2) (S (NP (PRP I-3)) (VP (MD 'd-4) (VP (VBN been-5) (VP (VBN told-6) (SBAR (S (NP (PRP I-7)) (VP (MD 'd-8) (VP (VB be-9) (VP (VBG having-10) (NP (NNS twins-11))))))))))))),1,0,0,1,0,0,0,0,0,0,0,0,0,0,0,1,0,0,0,0,0,1,0,0,0,0,0,0,0,0,0,0,0,0,1,0,0,0,0,0,0,0,0,0,0,1,0,0,0,0,0
Orientation,3,(ROOT (S (`` ``-0) (NP (PRP I-1)) (VP (VBP live-2) (PP (IN in-3) (NP (NNP Eugene-4))) (NP (NP (NP (CD four-5) (NNS days-6)) (NP (DT a-7) (NN week-8))) (CC and-9) (NP (NP (DT the-10) (NN rest-11)) (SBAR (S (NP (PRP I-12)) (VP (VBP 'm-13) (PP (IN in-14) (NP (NNP Kellogg-15))))))))) (. .-16) ('' ''-17))),0,0,0,0,1,0,0,0,0,0,0,0,0,0,0,1,0,0,0,0,0,0,0,0,0,0,0,0,0,0,0,0,1,0,1,0,1,0,0,0,0,0,0,1,0,0,0,0,1,0,1
Evaluation,3,(S (`` ``-0) (NP (PRP You-1)) (VP (VBP drive-2) (PP (IN over-3) (NP (CD 500-4) (NNS miles-5))) (NP-TMP (DT a-6) (NN week-7)) (S (VP (TO to-8) (VP (VB come-9) (PP (TO to-10) (NP (NNP LCC-11))))))) (. ?-12) ('' ''-13)),0,1,0,0,1,0,0,0,0,0,0,0,0,0,0,0,0,0,0,1,1,0,0,0,0,0,0,0,0,0,0,0,0,0,0,0,1,0,0,1,0,0,1,1,1,0,0,0,1,0,1
Evaluation,3,(VP (VBD was-1) (VP (VBG starting-2) (S (VP (TO to-3) (VP (VB feel-4) (ADJP (JJ flattered-5))))))),1,0,0,0,1,0,0,0,0,0,0,0,0,0,0,0,0,0,0,1,0,0,0,0,0,0,1,0,0,0,0,0,0,0,1,0,0,0,0,0,0,0,0,0,0,0,0,0,0,0,0
Evaluation,3,(. ?-2),0,1,0,0,1,0,0,0,0,0,0,0,0,0,0,0,0,0,0,0,0,0,0,0,0,0,0,0,0,0,0,0,0,0,0,0,0,0,0,0,0,0,1,1,0,0,0,0,0,0,1
Evaluation,2,(. .-3),1,0,0,0,1,0,0,0,0,0,0,0,0,0,0,0,0,0,0,0,0,0,0,0,0,0,0,0,0,0,0,0,0,0,0,0,0,0,0,0,0,1,0,0,0,0,0,0,0,0,0
Orientation,3,(ROOT (S (NP (PRP It-0)) (VP (VBZ 's-1) (ADVP (RB only-2)) (NP (NP (DT an-3) (NN hour-4)) (PP (TO to-5) (NP (NNP Kellogg-6))))) (. .-7))),0,0,0,0,0,1,0,0,0,0,0,0,0,0,0,0,0,0,0,0,0,0,0,0,0,0,0,0,0,0,0,0,0,1,0,0,1,0,0,0,0,0,0,0,0,0,0,0,1,0,0
Orientation,2,"(ROOT (S (NP (PRP I-0)) (VP (VBP live-1) (PP (IN in-2) (NP (NNP Kellogg-3) (, ,-4) (NNP Oregon-5)))) (. .-6) ('' ''-7)))",0,0,0,0,0,1,0,0,0,0,0,0,0,0,0,0,0,0,0,0,0,0,0,0,0,0,0,0,0,0,0,0,0,0,1,0,0,0,0,0,0,0,0,1,0,0,0,0,0,0,1
Evaluation,3,"(ROOT (S (`` ``-0) (NP (EX There-1)) (VP (VBZ 's-2) (NP (NP (DT a-3) (NNP Kellogg-4)) (, ,-5) (NP (NNP Oregon-6)))) (. ?-7) ('' ''-8)))",0,0,0,0,0,1,0,0,0,0,0,0,0,0,0,0,0,0,0,0,0,0,0,0,0,0,0,0,0,0,0,0,0,0,0,0,1,0,0,0,0,0,1,1,0,0,1,1,0,0,1
Evaluation,2,(ROOT (NP (NP (`` ``-0) (NNP Hell-1)) (NP (NN yeah-2)) (. .-3))),0,0,0,0,0,1,0,0,0,0,0,0,0,0,0,0,0,0,0,0,0,0,0,0,0,0,0,0,0,0,0,0,0,0,0,0,0,0,0,0,0,0,0,1,0,0,0,0,0,0,1
Orientation,3,"(ROOT (S (NP (PRP It-0)) (VP (VBZ 's-1) (ADVP (RP down-2)) (PP (IN by-3) (NP (NNP Elkton-4))) (, ,-5) (PP (IN on-6) (NP (DT the-7) (NN way-8))) (PP (TO to-9) (NP (NNP Sutherlin-10)))) (. .-11)))",0,0,0,0,0,1,0,0,0,0,0,0,0,0,0,0,0,0,0,0,0,0,0,0,0,0,0,0,0,0,0,0,0,0,0,0,0,0,0,0,0,0,0,0,0,0,1,0,0,0,0
Orientation,3,(ROOT (S (NP (PRP I-0)) (VP (VBP 'm-1) (NP (NP (DT a-2) (NN volunteer-3) (NN fireman-4)) (PP (IN in-5) (NP (NNP Kellogg-6))))) (. .-7))),0,0,0,0,0,0,1,0,0,0,0,0,0,0,0,0,0,0,0,0,0,0,0,0,0,0,0,0,0,0,0,0,0,1,1,0,1,0,0,0,0,0,0,0,0,0,0,0,0,0,0
Orientation,3,(ROOT (S (NP (PRP I-0)) (VP (VBP live-1) (ADVP (RB there-2)) (PP (IN on-3) (NP (NP (DT the-4) (NNS weekends-5)) (PP (IN with-6) (NP (PRP$ my-7) (NNS folks-8)))))) (. .-9) ('' ''-10))),0,0,0,0,0,0,1,0,0,0,0,0,0,0,0,0,0,0,0,0,0,0,0,0,0,0,0,0,0,0,0,0,0,0,1,0,0,0,0,0,0,0,0,1,0,0,0,0,0,0,1
Orientation,3,"(ROOT (SINV (S (S (NP (PRP I-0)) (VP (VBD moved-1) (PP (TO to-2) (NP (NNP Eugene-3))) (PP (IN in-4) (NP (CD 1979-5))))) (CC and-6) (S (NP (PRP I-7)) (VP (VBD had-8) (ADVP (RB never-9)) (VP (VBN heard-10) (PP (IN of-11) (NP (NNP Kellogg-12) (, ,-13) (NNP Oregon-14))))))) (, ,-15) (VP (VBD let-16)) (NP (RB alone-17)) (VP (VBN been-18) (ADVP (RB there-19))) (. .-20)))",0,0,0,0,0,0,1,0,0,0,0,0,0,0,0,1,0,0,0,0,1,0,1,0,0,0,1,0,0,1,0,0,1,0,0,0,0,0,0,0,0,0,0,0,0,0,1,0,0,0,0
Evaluation,3,"(ROOT (S (NP (PRP I-0)) (VP (VBD decided-1) (PP (IN on-2) (NP (NNP July-3) (CD 30-4) (, ,-5) (CD 2008-6))) (SBAR (IN that-7) (S (NP (PRP I-8)) (VP (MD 'd-9) (VP (VB rectify-10) (NP (DT this-11) (NN situation-12))))))) (. .-13)))",0,0,0,0,0,0,1,0,0,0,0,0,0,0,0,1,0,0,0,0,0,1,0,0,0,0,0,0,0,0,0,0,0,0,1,0,0,0,1,0,0,0,0,0,0,0,0,0,1,0,0
Action,3,"(ROOT (S (NP (PRP I-0)) (VP (VBD drove-1) (PP (TO to-2) (NP (NP (NNP Kellogg-3)) (, ,-4) (NP (NN OR-5))))) (. .-6)))",0,0,0,0,0,0,1,0,0,0,0,0,0,0,0,0,0,0,0,0,0,0,0,0,0,0,0,0,0,0,0,0,0,0,1,0,0,0,0,1,0,0,0,0,0,0,0,0,0,0,0
Action,3,(VP (VBD took-1) (NP (NNP Hwy-2) (CD 38-3)) (PP (TO to-4) (NP (NNP Elkton-5)))),0,1,0,0,0,0,1,0,0,0,0,0,0,0,0,0,0,0,0,0,0,0,0,0,0,0,0,0,0,0,0,0,0,0,1,0,0,0,0,0,0,0,0,0,0,0,0,0,0,0,0
Action,3,(VP (VBD saw-1) (NP (DT the-2) (NN sign-3)) (SBAR (S (NP (PRP I-4)) (VP (VBD expected-5) (S (VP (TO to-6) (VP (VB turn-7) (ADVP (RB south-8) (PP (IN on-9) (NP (NN Hwy-10) (CD 138-11))))))))))),1,0,0,0,0,0,0,1,0,0,0,0,0,0,0,1,0,0,0,1,0,0,0,0,0,0,0,0,0,0,0,0,1,0,0,0,0,0,0,0,0,0,0,0,0,0,0,0,0,0,0
Stative- Local Context,2,(VP (VBD pointed-3) (PP (TO to-4) (NP (NNP Sutherlin-5) (CC and-6) (NNP Roseburg-7)))),0,1,0,0,0,0,0,1,0,0,0,0,0,0,0,0,0,0,0,0,0,0,0,0,0,0,0,0,0,0,0,0,1,0,0,0,0,0,0,0,0,0,0,0,0,0,0,0,0,0,0
Stative- Local Context,2,(VP (VBD did-1) (RB n't-2) (VP (VB mention-3) (NP (NNP Kellogg-4)))),1,0,0,0,0,0,0,1,0,0,0,0,0,0,0,0,0,0,0,0,0,0,0,0,0,0,0,0,0,0,0,0,1,0,0,0,0,0,0,0,0,1,0,0,0,0,0,0,0,0,0
Evaluation,3,"(ROOT (S (NP (NNP Odd-0)) (, ,-1) (NP (PRP I-2)) (VP (VBD thought-3)) (. .-4)))",0,0,0,0,0,0,0,1,0,0,0,0,0,0,0,0,0,0,0,0,0,0,0,0,0,0,0,0,0,0,0,0,0,0,1,0,0,0,1,0,0,0,0,0,0,0,0,0,0,0,0
Action,3,(ROOT (S (NP (PRP I-0)) (VP (VBD headed-1) (ADVP (RB south-2))) (. .-3))),0,0,0,0,0,0,0,1,0,0,0,0,0,0,0,0,0,0,0,0,0,0,0,0,0,0,0,0,0,0,0,0,0,0,1,0,0,0,0,0,0,0,0,0,0,0,0,0,0,0,0
Action,3,(ROOT (SINV (ADVP (RB Then-0)) (VP (ADVP (PRP I-1)) (VBD saw-2)) (NP (PRP it-3)) (: :-4))),0,0,0,0,0,0,0,0,1,0,0,0,0,0,0,0,0,0,0,0,0,0,0,0,0,0,0,0,0,0,0,0,1,0,1,0,0,0,0,0,0,0,0,0,0,0,0,0,0,0,0
Evaluation,3,(ROOT (FRAG (NP (PRP$ My-0) (JJ first-1) (NN thought-2)) (: :-3) (FRAG (WHADVP (WRB where-4)) (PP (POS 's-5) (NP (DT the-6) (NN population-7) (NN figure-8)))) (. ?-9))),0,0,0,0,0,0,0,0,1,0,0,0,0,0,0,0,0,0,0,0,0,0,0,0,0,0,0,0,0,0,0,0,0,0,1,0,0,0,0,0,0,0,1,0,0,0,0,0,0,0,0
Action,3,(ROOT (S (NP (PRP I-0)) (VP (VBD looked-1) (PP (TO to-2) (NP (PRP$ my-3) (NN left-4)))) (: :-5))),0,0,0,0,0,0,0,0,1,0,0,0,0,0,0,0,0,0,0,0,0,0,0,0,0,0,0,0,0,0,0,0,0,0,1,0,0,0,0,0,0,0,0,0,0,0,0,0,0,0,0
Action,3,(ROOT (NP (NP (PRP$ My-0) (NN right-1)) (: :-2))),0,0,0,0,0,0,0,0,1,0,0,0,0,0,0,0,0,0,0,0,0,0,0,0,0,0,0,0,0,0,0,0,0,0,1,0,0,0,0,0,0,0,0,0,0,0,0,0,0,0,0
Action,3,(ROOT (S (RB Then-0) (NP (PRP I-1)) (VP (VBD saw-2) (NP (DT a-3) (NN sign-4))) (. .-5))),0,0,0,0,0,0,0,0,1,0,0,0,0,0,0,0,0,0,0,0,0,0,0,0,0,0,0,0,0,0,0,0,1,0,1,0,1,0,1,0,0,0,0,0,0,0,0,0,0,0,0
Evaluation,3,"(ROOT (S (SBAR (ADVP (RB Maybe-0)) (IN if-1) (S (NP (PRP I-2)) (VP (VBP follow-3) (NP (PRP it-4))))) (, ,-5) (NP (PRP I-6)) (VP (MD 'll-7) (VP (VB find-8) (NP (NNP Kellogg-9)))) (. .-10)))",0,0,0,0,0,0,0,0,0,1,0,0,0,0,0,1,0,0,0,0,1,0,0,0,0,0,0,0,0,0,0,1,0,0,1,0,0,0,1,0,1,0,0,0,0,0,0,0,0,0,0
Evaluation,3,(ROOT (S (ADVP (RB Maybe-0)) (NP (PRP I-1)) (VP (MD 'll-2) (VP (VB see-3) (NP (DT the-4) (NN volunteer-5) (NN fire-6) (NN house-7)))) (. !-8))),0,0,0,0,0,0,0,0,0,1,0,0,0,0,0,0,0,0,0,0,0,0,0,0,0,0,0,0,0,0,0,0,0,0,1,0,0,0,0,0,1,0,0,0,0,0,0,0,0,0,0
Stative- Local Context,2,"(ROOT (FRAG (CC But-0) (, ,-1) (PP (IN about-2) (PP (NP (CD fifteen-3) (NNS yards-4)) (IN up-5) (NP (NNP Kellogg-6) (NNP Drive-7)))) (, ,-8) (NP (DT this-9)) (: :-10)))",0,0,0,0,0,0,0,0,0,1,0,0,0,0,0,0,0,0,0,0,0,0,0,0,0,0,0,0,0,0,0,0,1,0,0,0,0,0,0,0,0,0,0,0,0,0,0,0,0,0,0
Stative- Local Context,2,"(ROOT (S (SBAR (ADVP (RB Often-0)) (WHADVP (WRB when-1)) (S (NP (PRP I-2)) (VP (VBD was-3) (NP (NN kid-4))))) (, ,-5) (NP (NNS adults-6)) (VP (MD would-7) (VP (VB tell-8) (S (NP (PRP me-9)) (VP (TO to-10) (VP (VB leave-11) (NP (NNP Kellogg-12)) (PP (IN after-13) (NP (JJ high-14) (NN school-15)))))))) (. .-16)))",0,0,0,0,0,0,0,0,0,1,0,0,0,1,1,1,0,0,0,0,1,0,0,0,0,0,0,0,0,0,0,0,1,0,0,0,0,0,0,0,1,0,0,0,0,0,0,0,0,0,0
Evaluation,2,(ROOT (S (`` ``-0) (NP (PRP It-1)) (VP (VBZ 's-2) (NP (DT a-3) (JJ dead-4) (NN end-5) (NN town-6))) (. .-7) ('' ''-8))),0,0,0,0,0,0,0,0,0,1,0,0,0,0,0,0,0,0,0,0,0,0,0,0,0,0,0,0,0,0,0,0,0,1,0,0,1,0,0,0,0,0,0,1,0,0,0,0,0,0,1
Evaluation,3,(ROOT (S (ADVP (IN At-0) (JJS least-1)) (NP (PRP we-2)) (VP (VBD had-3) (NP (NP (NNS houses-4) (CC and-5) (NNS churches-6)) (CC and-7) (NP (DT a-8) (NN firehouse-9)))) (. .-10))),0,0,0,0,0,0,0,0,0,0,1,0,0,0,0,0,0,0,0,0,0,0,0,0,0,0,0,0,0,0,0,0,1,0,1,0,1,0,1,0,0,0,0,0,0,0,0,0,0,0,0
Action,3,(FRAG (ADVP (RB just-2)) (PP (ADVP (NN west-3)) (IN of-4) (NP (DT the-5) (NNP Dead-6) (NNP End-7) (NN sign-8)))),0,1,0,0,0,0,0,0,0,0,1,0,0,0,0,0,0,0,0,0,0,0,0,0,0,0,0,0,0,0,0,0,1,0,1,0,0,0,0,0,0,0,0,0,0,0,0,0,0,0,0
Evaluation,3,"(VP (VBD knew-2) (SBAR (IN that-3) (S (NP (NNP Kellogg-4) (, ,-5) (NNP Oregon-6)) (VP (VBD had-7) (NP (DT a-8) (NN past-9))))))",1,0,0,0,0,0,0,0,0,0,1,0,0,0,0,0,0,1,0,0,0,0,0,0,0,0,0,0,0,1,0,0,1,0,1,0,0,0,1,0,0,0,0,0,0,1,0,0,0,0,0
Evaluation,3,(ROOT (S (NP (PRP It-0)) (VP (MD must-1) (VP (VB have-2) (VP (VBN been-3) (NP (DT a-4) (JJ lovely-5) (NN town-6))))) (. .-7))),0,0,0,0,0,0,0,0,0,0,1,0,0,0,0,0,0,0,0,0,0,0,0,0,0,0,0,0,0,0,0,0,0,1,0,0,1,0,0,0,1,0,0,0,0,0,1,0,0,0,0
Orientation,2,"(ROOT (SINV (ADVP (RB Right-0) (PP (IN after-1) (NP (NP (DT the-2) (`` ``-3) (NNP Kellogg-4) ('' ''-5) (NN sign-6)) (, ,-7) (NP (DT a-8) (NN bridge-9))))) (VP (VBZ spans-10)) (NP (NP (DT the-11) (NNP Umpqua-12) (NNP River-13)) (, ,-14) (NP (NP (JJ shimmering-15)) (PP (IN on-16) (NP (DT this-17) (JJ late-18) (NN afternoon-19) (NN day-20))))) (: :-21)))",0,0,0,0,0,0,0,0,0,0,1,0,0,0,0,0,0,0,0,0,0,0,0,0,0,0,0,0,0,0,0,0,1,0,0,0,1,0,0,0,0,0,0,0,0,0,0,0,1,0,0
Orientation,2,(ROOT (S (CC And-0) (NP (DT the-1) (JJ wild-2) (NN plant-3) (NN life-4) (CC and-5) (NNS blackberries-6)) (VP (VBD thrived-7) (PP (IN along-8) (NP (NNP Hwy-9) (CD 138-10)))) (: :-11))),0,0,0,0,0,0,0,0,0,0,0,1,0,0,0,0,0,0,0,0,0,0,0,0,0,0,0,0,0,0,0,0,1,0,0,0,0,0,0,0,0,0,0,0,0,0,0,0,0,0,0
Action,3,(ROOT (S (NP (PRP I-0)) (VP (VBD drove-1) (ADVP (RB back-2)) (PP (TO to-3) (NP (NNP Elkton-4)))) (. .-5))),0,0,0,0,0,0,0,0,0,0,0,1,0,0,0,0,0,0,0,0,0,0,0,0,0,0,0,0,0,0,0,0,0,0,1,0,0,0,0,1,0,0,0,0,0,0,0,0,0,0,0
Action,3,(ROOT (S (NP (PRP I-0)) (VP (VBD saw-1) (NP (DT a-2) (NN volunteer-3) (NN firehouse-4))) (. .-5))),0,0,0,0,0,0,0,0,0,0,0,1,0,0,0,0,0,0,0,0,0,0,0,0,0,0,0,0,0,0,0,0,0,0,1,0,1,0,0,0,0,0,0,0,0,0,0,0,0,0,0
Evaluation,3,(ROOT (S (NP (PRP It-0)) (VP (MD might-1) (VP (VB be-2) (SBAR (WHADVP (WRB where-3)) (S (NP (PRP$ my-4) (NN student-5)) (VP (VBZ is-6) (VP (VBN headquartered-7))))))) (. .-8))),0,0,0,0,0,0,0,0,0,0,0,1,0,0,0,1,0,0,0,0,0,0,0,0,0,0,0,0,0,0,0,0,0,0,0,0,0,0,0,0,1,0,0,0,0,0,1,0,0,0,0
Evaluation,3,(ROOT (S (ADVP (RB Maybe-0)) (NP (PRP she-1)) (VP (VBZ works-2) (PRT (IN out-3)) (PP (IN of-4) (NP (NNP Sutherlin-5)))) (. .-6))),0,0,0,0,0,0,0,0,0,0,0,1,0,0,0,0,0,0,0,0,0,0,0,0,0,0,0,0,0,0,0,0,0,0,0,0,0,0,0,0,0,0,0,0,0,0,0,0,0,0,0
Evaluation,2,(ROOT (S (NP (EX There-0)) (VP (VBZ has-1) (RB n't-2) (VP (VBN been-3) (NP (NP (DT a-4) (NN firehouse-5)) (PP (IN in-6) (NP (NNP Kellogg-7)))) (PP (IN for-8) (NP (DT a-9) (JJ long-10) (NN time-11))))) (. .-12))),0,0,0,0,0,0,0,0,0,0,0,1,0,0,0,0,0,0,0,0,0,0,0,0,0,0,0,0,0,0,0,0,0,1,0,0,1,0,0,0,0,1,0,0,0,0,0,1,0,1,0
