Label,Agreement,Tree,BoundBegin,BoundEnd,BinPosition0,BinPosition1,BinPosition2,BinPosition3,BinPosition4,BinPosition5,BinPosition6,BinPosition7,BinPosition8,BinPosition9,DEP-Conditional,DEP-Connective,DEP-Copula,DEP-FirstPerson,DEP-Imperative,DEP-IndefArticle,DEP-LIWC_Affect,DEP-LIWC_Cogmech,DEP-LIWC_Motion,DEP-Modal,DEP-Negate,DEP-Question,DEP-Quote,DEP-SecondPerson,DEP-StativeVerb,DEP-ThirdPersonProg,DEP-ThirdPersonStat,DEP-Time,FirstClause,INDEP-Conditional,INDEP-Connective,INDEP-Copula,INDEP-FirstPerson,INDEP-Imperative,INDEP-IndefArticle,INDEP-LIWC_Affect,INDEP-LIWC_Cogmech,INDEP-LIWC_Motion,INDEP-Modal,INDEP-Negate,INDEP-Question,INDEP-Quote,INDEP-SecondPerson,INDEP-StativeVerb,INDEP-ThirdPersonProg,INDEP-ThirdPersonStat,INDEP-Time,LastClause,Quote
Orientation,3,"(ROOT (S (PP (RB Just-0) (IN for-1) (NP (DT the-2) (NN record-3))) (, ,-4) (NP (PRP$ my-5) (NN marriage-6)) (VP (VBZ is-7) (RB n't-8) (PP (IN in-9) (NP (NN trouble-10)))) (. .-11)))",0,0,1,0,0,0,0,0,0,0,0,0,0,0,0,0,0,0,0,0,0,0,0,0,0,0,0,0,0,0,1,0,0,0,1,0,0,0,0,0,0,1,0,0,0,0,0,0,0,0,0
Orientation,3,"(ROOT (S (S (NP (NNP Mark-0) (CC and-1) (PRP I-2)) (VP (VBP have-3) (ADVP (RB always-4)) (VP (VBN had-5) (NP (NP (NN communication-6) (NNS issues-7)) (, ,-8) (SBAR (WHNP (WDT which-9)) (S (NP (PRP you-10)) (VP (MD would-11) (VP (VB figure-12) (PP (IN after-13) (NP (NP (CD 12-14) (NNS years-15)) (PP (IN of-16) (S (VP (VBG living-17) (ADVP (RB together-18))))))))))))))) (, ,-19) (NP (PRP we-20)) (VP (MD 'd-21) (ADVP (RB finally-22)) (VP (VB figure-23) (PRT (RP out-24)))) (. .-25)))",0,0,1,0,0,0,0,0,0,0,0,0,0,1,0,0,0,0,0,1,0,1,0,0,0,1,0,0,0,1,0,0,1,0,1,0,0,0,1,0,1,0,0,0,0,0,0,0,0,0,0
Evaluation,3,(ROOT (FRAG (RB Not-0) (ADJP (RB so-1) (JJ much-2)) (. .-3))),0,0,1,0,0,0,0,0,0,0,0,0,0,0,0,0,0,0,0,0,0,0,0,0,0,0,0,0,0,0,0,0,1,0,0,0,0,0,0,0,0,1,0,0,0,0,0,0,0,0,0
Orientation,2,(S (NP (PRP I-0)) (VP (VBP know-1) (SBAR (WHNP (WP who-2)) (S (S (NP (PRP he-3)) (VP (VBZ is-4))) (CC and-5) (S (NP (PRP him-6)) (NP (PRP me-7))))))),0,1,1,0,0,0,0,0,0,0,0,0,0,1,0,1,0,0,0,0,0,0,0,0,0,0,0,0,0,0,0,0,0,0,1,0,0,0,1,0,0,0,0,0,0,1,0,0,0,0,0
Orientation,2,"(S (ADVP (RB sometimes-1)) (NP (NP (DT those-2) (NNS issues-3)) (SBAR (WHNP (WDT that-4)) (S (VP (VBD were-5) (NP (NP (ADJP (JJ cute-6) (JJ little-7)) (NNS nothings-8)) (PP (IN in-9) (NP (NP (DT the-10) (VBG beginning-11)) (VP (VBN become-12) (PP (ADVP (NP (RB so-13) (RB much-14)) (RBR more-15)) (IN after-16) (NP (NP (DT the-17) (NN stress-18)) (PP (IN of-19) (NP (NP (NNS mortgages-20) (, ,-21) (NNS children-22) (, ,-23) (NN money-24) (CC and-25) (NN family-26)) (NNS problems-27))))))))))))) (VP (VBP come-28) (S (VP (TO to-29) (VP (VB pile-30) (PP (IN on-31) (NP (NP (NN top-32)) (PP (IN of-33) (NP (PRP you-34))))) (SBAR (IN while-35) (S (NP (PRP you-36)) (VP (VBD lay-37) (S (NP (EX there-38)) (ADJP (RB awake-39))) (PP (IN at-40) (NP (NN night-41)))))))))))",1,0,0,1,0,0,0,0,0,0,0,0,0,1,1,0,0,0,0,1,0,0,1,0,0,1,0,0,0,1,0,0,1,0,0,0,0,0,1,1,0,0,0,0,0,0,0,0,0,0,0
Orientation,2,"(ROOT (S (SBAR (WHADVP (WRB When-0)) (S (NP (PRP I-1)) (VP (VBP am-2) (VP (VP (VBG feeling-3) (NP (NN tender-4))) (CC and-5) (VP (VBN broken-6)))))) (, ,-7) (NP (PRP I-8)) (VP (VBP write-9) (PP (IN about-10) (NP (PRP it-11)))) (. .-12)))",0,0,0,1,0,0,0,0,0,0,0,0,0,1,0,1,0,0,1,1,0,0,0,0,0,0,1,0,0,0,0,0,1,0,1,0,0,0,1,0,0,0,0,0,0,0,0,0,0,0,0
Evaluation,3,(ROOT (S (S (VP (ADVP (RB Somehow-0)) (VBG writing-1) (PP (IN about-2) (NP (NN something-3))))) (VP (VBZ takes-4) (PRT (RP away-5)) (SBAR (S (NP (PRP it-6)) (VP (VBZ 's-7) (NP (NN power-8) (S (VP (TO to-9) (VP (VB cut-10) (ADJP (RB so-11) (JJ deep-12)))))))))) (. .-13))),0,0,0,1,0,0,0,0,0,0,0,0,0,1,1,0,0,0,1,0,0,0,0,0,0,0,0,0,0,0,0,0,0,0,0,0,0,0,1,0,0,0,0,0,0,0,0,0,0,0,0
Evaluation,3,(VP (VB see-5) (NP (DT that-6) (NN emotion-7))),0,1,0,1,0,0,0,0,0,0,0,0,0,0,0,0,0,0,0,0,0,0,0,0,0,0,0,0,0,0,0,0,1,0,1,0,0,1,0,0,1,0,0,0,0,0,0,0,0,0,0
Evaluation,3,(VP (MD could-8) (VP (VB feel-9) (NP (NP (DT each-10)) (PP (IN of-11) (NP (NP (DT those-12)) (SBAR (S (VP (VBZ hurts-13) (SBAR (IN like-14) (S (NP (NP (JJ tiny-15) (NNS shards-16)) (PP (IN of-17) (NP (NN glass-18)))) (VP (VBD dug-19) (PP (IN into-20) (NP (PRP$ my-21) (NN skin-22))))))))) (: ...-23) (ADJP (RB much-24) (PP (IN like-25) (SBAR (WHADVP (WRB how-26)) (S (NP (PRP I-27)) (VP (VBP imagine-28) (SBAR (S (NP (PRP it-29)) (VP (VBZ feels-30) (SBAR (WHADVP (WRB when-31)) (S (NP (PRP you-32)) (VP (VBD lay-33) (ADVP (NP (DT a-34) (NN motorcycle-35)) (RB down-36)) (PP (IN in-37) (NP (NN gravel-38))))))))))))))))))),1,0,0,0,1,0,0,0,0,0,0,0,0,1,0,1,0,1,1,1,0,0,0,0,0,1,1,0,0,0,0,0,1,0,1,0,0,0,1,0,1,0,0,0,0,1,0,0,0,0,0
Evaluation,3,(ROOT (S (CC And-0) (ADVP (RB then-1)) (NP (PRP I-2)) (VP (MD can-3) (VP (VB examine-4) (SBAR (WHNP (WP what-5)) (S (VP (VP (VBZ 's-6) (VP (VBG happening-7) (PP (IN with-8) (NP (NP (PRP$ my-9) (NNS emotions-10)) (PP (IN at-11) (NP (DT that-12))))) (NP-TMP (RB very-13) (NN moment-14)))) (CC and-15) (VP (VBP realize-16) (SBAR (IN that-17) (S (NP (PRP it-18)) (VP (VBZ 's-19) (ADJP (DT all-20) (JJ survivable-21))))))))))) (. .-22))),0,0,0,0,1,0,0,0,0,0,0,0,0,1,1,1,0,0,0,1,0,0,0,0,0,0,0,0,0,0,0,0,1,0,1,0,0,0,1,0,1,0,0,0,0,0,0,0,0,0,0
Evaluation,3,"(ROOT (S (NP (PRP I-0)) (VP (MD can-1) (VP (VB realize-2) (SBAR (IN that-3) (S (NP (PRP it-4)) (VP (VBD did-5) (RB not-6) (VP (NN fracture-7) (NP (NP (PRP$ my-8) (NN soul-9)) (SBAR (WHADVP (WRB when-10)) (S (NP (PRP he-11)) (VP (VBD hurt-12) (NP (PRP$ my-13) (NNS feelings-14)) (, ,-15) (SBAR (RB even-16) (IN if-17) (S (NP (DT that-18)) (VP (VBZ 's-19) (SBAR (WHNP (WP what-20)) (S (NP (PRP it-21)) (VP (VBD felt-22) (PP (IN like-23) (PP (IN in-24) (NP (DT the-25) (NN moment-26)))))))))))))))))))) (. .-27)))",0,0,0,0,1,0,0,0,0,0,0,0,1,1,0,1,0,0,1,1,0,0,1,0,0,0,1,0,0,0,0,0,0,0,1,0,0,0,1,0,1,0,0,0,0,0,0,0,0,0,0
Action,2,"(PP (IN On-0) (S (S (NP-TMP (NNP Monday-1)) (, ,-2) (NP (NP (DT the-3) (NNS girls-4)) (CC and-5) (NP (PRP I-6))) (VP (VBD were-7) (VP (VBG throwing-8) (NP (JJ imaginary-9) (NNS pennies-10)) (PP (IN into-11) (NP (NP (DT the-12) (NN fountain-13)) (PP (IN at-14) (NP (DT the-15) (NN market-16)))))))) (CC and-17) (S (NP (NNP Lily-18)) (VP (VBD announced-19) (NP (PRP$ her-20) (NN wish-21))))))",0,1,0,0,1,0,0,0,0,0,0,0,0,1,0,1,0,0,0,1,1,0,0,0,0,0,1,0,0,1,0,0,1,0,0,0,0,0,0,0,0,0,0,0,0,0,0,0,0,0,0
Evaluation,3,"(VP (VBP 'm-2) (VP (VBG wishing-3) (PP (IN for-4) (NP (NP (DT a-5) (NN mommy-6)) (SBAR (WHNP (WP who-7)) (S (VP (VP (VBZ is-8) (ADJP (JJ nice-9))) (CC and-10) (VP (VBZ has-11) (NP (ADJP (RB long-12)) (, ,-13) (JJ straight-14) (NN hair-15))))))))))",1,0,0,0,0,1,0,0,0,0,0,0,0,1,0,0,0,0,0,0,0,0,0,0,0,0,0,1,0,0,0,0,0,0,1,0,1,0,1,0,0,0,0,1,0,1,0,0,0,0,1
Evaluation,2,"(ROOT (S (S (NP (PRP I-0)) (VP (VBD felt-1) (S (NP (PRP$ my-2) (NN stomach-3)) (VP (VB drop-4) (PRT (RP out-5)))))) (CC and-6) (S (NP (NP (DT the-7) (JJ familiar-8) (NN emotion-9)) (PP (IN of-10) (S (VP (VBG being-11) (NP (DT the-12) (JJ last-13) (NN kid-14)))))) (VP (VBD picked-15) (SBAR (IN for-16) (S (VP (VBP dodge-17) (SBAR (S (NP (NN ball-18)) (VP (VBD flooded-19) (PP (IN over-20) (NP (PRP me-21))) (, ,-22) (S (VP (VBG pushing-23) (NP (PRP me-24)) (ADVP (RB back-25)) (PP (TO to-26) (NP (DT those-27) (NNS days-28))))))))))))) (SBAR (WHADVP (WRB when-29)) (S (NP (PRP$ my-30) (NN hair-31)) (VP (VBD was-32) (ADJP (JJ short-33) (CC and-34) (JJ frizzy-35))))) (CC and-36) (S (NP (PRP$ my-37) (NNS knees-38)) (VP (ADVP (RB always-39)) (VBN skinned-40))) (. .-41)))",0,0,0,0,0,1,0,0,0,0,0,0,0,1,1,1,1,0,0,0,1,0,0,0,0,0,0,0,0,1,0,0,1,0,1,1,0,0,1,0,0,0,0,0,0,1,0,0,0,0,0
Evaluation,3,"(ROOT (S (S (NP (PRP I-0)) (VP (VBD wanted-1) (S (VP (TO to-2) (VP (VP (VB lash-3) (ADVP (RB back-4)) (PP (IN at-5) (NP (PRP her-6)))) (CC and-7) (VP (VB tell-8) (NP (PRP$ her-9)))))))) (NP (PRP I-10)) (VP (VBD was-11) (VP (VBG wishing-12) (PP (IN for-13) (NP (NP (DT a-14) (JJ different-15) (NN kid-16)) (, ,-17) (NP (NP (CD one-18)) (SBAR (WHNP (WP who-19)) (S (VP (MD would-20) (VP (VB like-21) (NP (PRP me-22)) (, ,-23) (ADVP (RB dammit-24))))))))))) (. .-25)))",0,0,0,0,0,1,0,0,0,0,0,0,0,1,0,1,0,0,0,0,0,1,0,0,0,0,1,0,0,0,0,0,0,0,1,0,1,0,1,0,0,0,0,0,0,1,0,0,0,0,0
Action,3,"(ROOT (S (ADVP (RB Instead-0)) (, ,-1) (NP (PRP I-2)) (VP (VBD told-3) (NP (PRP her-4)) (PP (IN in-5) (NP (DT a-6) (ADJP (RB very-7) (JJ quiet-8)) (NN voice-9))) (SBAR (IN that-10) (S (NP (PRP she-11)) (VP (VBD had-12) (VP (VBN hurt-13) (NP (PRP$ my-14) (NNS feelings-15))))))) (. .-16)))",0,0,0,0,0,0,1,0,0,0,0,0,0,0,0,1,0,0,1,1,0,0,0,0,0,0,0,0,0,0,0,0,0,0,1,0,1,0,0,0,0,0,0,0,0,0,0,0,0,0,0
Action,3,"(ROOT (S (CC And-0) (ADVP (RB then-1)) (NP (PRP I-2)) (VP (VP (VBD took-3) (NP (PRP$ her-4) (NN hand-5))) (CC and-6) (VP (VBD walked-7) (PP (IN across-8) (NP (DT the-9) (NN parking-10) (NN lot-11))) (PP (TO to-12) (NP (DT the-13) (NN car-14))) (, ,-15) (VP (VBG feeling-16) (NP (NP (DT the-17) (NN emptiness-18)) (SBAR (WHNP (WDT that-19)) (S (VP (VBZ comes-20) (PP (IN with-21) (NP (NN hurt-22)))))))))) (. .-23)))",0,0,0,0,0,0,1,0,0,0,0,0,0,0,0,0,0,0,0,1,1,0,0,0,0,0,0,0,0,0,0,0,1,0,1,0,0,1,1,1,0,0,0,0,0,1,0,0,0,0,0
Evaluation,2,"(ROOT (S (NP (NNS Kids-0)) (VP (VBP say-1) (SBAR (WHNP (WP what-2)) (S (NP (PRP they-3)) (VP (VBP feel-4) (PP (IN in-5) (NP (DT the-6) (NN moment-7))) (, ,-8) (SBAR (RB even-9) (IN if-10) (S (NP (PRP it-11)) (VP (VP (VBZ 's-12) (RB not-13) (ADJP (RB always-14) (JJ true-15))) (CC or-16) (VP (VBN articulated-17) (S (VP (TO to-18) (VP (ADVP (RB truly-19)) (VB reflect-20) (SBAR (WHNP (WP what-21)) (S (NP (PRP they-22)) (VP (VBP mean-23))))))))))))))) (. .-24)))",0,0,0,0,0,0,1,0,0,0,0,0,1,0,1,0,0,0,0,1,0,0,1,0,0,0,1,0,0,0,0,0,0,0,0,0,0,0,0,0,0,0,0,0,0,0,0,0,0,0,0
Evaluation,3,"(ROOT (S (PP (IN For-0) (NP (NP (DT all-1)) (SBAR (S (NP (PRP I-2)) (VP (VBP know-3)))))) (, ,-4) (NP (PRP she-5)) (VP (VBD did-6) (RB n't-7) (VP (VB mean-8) (SBAR (S (NP (PRP she-9)) (VP (VP (VBD wanted-10) (S (NP (PRP me-11)) (VP (TO to-12) (VP (VB go-13) (ADVP (RB away-14)))))) (CC and-15) (VP (VBD was-16) (VP (ADVP (RB simply-17)) (VBG trying-18) (S (VP (TO to-19) (VP (VB add-20) (PP (TO to-21) (NP (DT the-22) (NN mommy-23) (NN count-24))))))))))))) (. .-25)))",0,0,0,0,0,0,1,0,0,0,0,0,0,1,0,1,0,0,0,1,1,0,0,0,0,0,1,0,0,0,0,0,0,0,0,0,0,0,1,0,0,1,0,0,0,0,0,0,0,0,0
Orientation,2,(ROOT (S (CC But-0) (NP (DT this-1)) (VP (VBZ is-2) (SBAR (WHADVP (WRB where-3)) (S (NP (PRP$ my-4) (NNS emotions-5)) (VP (VBD were-6) (ADVP (RB still-7)) (VP (VBG hovering-8) (SBAR (WHADVP (WRB when-9)) (S (NP (NNP Mark-10) (CC and-11) (PRP I-12)) (VP (VBD had-13) (NP (NP (DT the-14) (JJ stupid-15) (NN discussion-16)) (SBAR (WHNP (WDT that-17)) (S (VP (VBD prompted-18) (NP (PRP$ my-19) (JJ last-20) (NN post-21)))))))))))))) (. .-22))),0,0,0,0,0,0,0,1,0,0,0,0,0,1,0,1,0,0,0,0,0,0,0,0,0,0,0,0,0,0,0,0,1,0,0,0,0,0,0,0,0,0,0,0,0,0,1,0,0,0,0
Orientation,2,(S (PP (IN with-2) (NP (DT the-3) (JJ extended-family-4) (NNS issues-5))) (NP (PRP we-6)) (VP (VBP 've-7) (VP (VBN been-8) (VP (VBG dealing-9) (PP (IN with-10)))))),0,1,0,0,0,0,0,1,0,0,0,0,0,0,0,0,0,0,0,0,0,0,0,0,0,0,0,0,0,0,0,0,0,0,1,0,0,0,0,0,0,0,0,0,0,0,0,0,0,0,0
Evaluation,3,(VP (VBP 'm-5) (VP (VBG walking-6) (PP (IN around-7) (NP (JJ raw-8))))),1,0,0,0,0,0,0,1,0,0,0,0,0,0,0,0,0,0,0,0,0,0,0,0,0,0,0,0,0,0,0,0,1,0,1,0,0,0,1,1,0,0,0,0,0,1,0,0,0,0,0
Evaluation,3,(ROOT (FRAG (NP (NNP Open-0)) (. .-1))),0,0,0,0,0,0,0,1,0,0,0,0,0,0,0,0,0,0,0,0,0,0,0,0,0,0,0,0,0,0,0,0,0,0,0,0,0,0,0,0,0,0,0,0,0,0,0,0,0,0,0
Evaluation,3,(ROOT (S (VP (VBN Shredded-0)) (. .-1))),0,0,0,0,0,0,0,0,1,0,0,0,0,0,0,0,0,0,0,0,0,0,0,0,0,0,0,0,0,0,0,0,0,0,0,1,0,0,0,0,0,0,0,0,0,0,0,0,0,0,0
Evaluation,3,(ROOT (S (NP (PRP I-0)) (VP (VBP want-1) (S (VP (TO to-2) (VP (VB be-3) (PP (IN in-4) (NP (DT the-5) (NN moment-6))) (PP (IN with-7) (NP (NP (NN everything-8)) (SBAR (WHNP (WDT that-9)) (S (VP (VBZ 's-10) (VP (VBG happening-11) (ADVP (RB right-12) (RB now-13)))))))))))) (. .-14))),0,0,0,0,0,0,0,0,1,0,0,0,0,0,0,0,0,0,0,0,0,0,0,0,0,0,0,1,0,1,0,0,0,0,1,0,0,0,1,0,0,0,0,0,0,1,0,0,0,0,0
Evaluation,3,(VP (VB write-7) (NP (PRP it-8)) (PRT (RP out-9))),0,1,0,0,0,0,0,0,1,0,0,0,0,0,0,0,0,0,0,0,0,0,0,0,0,0,0,0,0,0,0,0,1,0,1,0,0,0,1,0,0,0,0,0,0,1,0,0,0,0,0
Evaluation,3,(VP (VB know-2) (SBAR (S (NP (PRP I-3)) (VP (MD can-4) (VP (VB get-5) (PP (IN through-6) (NP (PRP it-7))) (PP (IN with-8) (NP (NP (PRP$ my-9) (NN psyche-10)) (ADJP (JJ intact-11))))))))),1,0,0,0,0,0,0,0,0,1,0,0,0,0,0,1,0,0,0,0,0,1,0,0,0,0,0,0,0,0,0,0,1,0,0,0,0,0,1,0,0,0,0,0,0,1,0,0,0,0,0
Evaluation,3,(ROOT (S (NP (PRP I-0)) (VP (VBP need-1) (S (VP (TO to-2) (VP (VB know-3) (SBAR (IN that-4) (S (NP (DT this-5)) (ADVP (RB too-6)) (VP (MD shall-7) (VP (VB pass-8))))))))) (. .-9))),0,0,0,0,0,0,0,0,0,1,0,0,0,0,0,0,0,0,0,1,1,1,0,0,0,0,1,0,0,0,0,0,0,0,1,0,0,0,1,0,0,0,0,0,0,1,0,0,0,0,0
Evaluation,3,(ROOT (S (NP (PRP I-0)) (VP (VBP need-1) (S (VP (TO to-2) (VP (VP (VB shut-3) (PRT (RP up-4))) (CC and-5) (VP (VB listen-6) (CC and-7) (VB trust-8) (SBAR (IN that-9) (S (NP (PRP it-10)) (VP (MD 'll-11) (ADVP (DT all-12)) (VP (VB work-13) (PRT (RP out-14)) (SBAR (IN as-15) (S (VP (VBN intended-16))))))))))))) (. .-17))),0,0,0,0,0,0,0,0,0,1,0,0,0,1,0,0,0,0,1,1,0,1,0,0,0,0,0,0,0,0,0,0,0,0,1,0,0,0,1,0,0,0,0,0,0,1,0,0,0,0,0
Evaluation,3,"(ROOT (S (S (NP (PRP I-0)) (VP (VBP need-1) (S (VP (TO to-2) (VP (VB remember-3) (SBAR (IN that-4) (S (NP (RB not-5) (DT every-6) (NN moment-7)) (VP (VBZ is-8) (ADJP (JJ fraught-9) (PP (IN with-10) (NP (NN emotion-11)))) (, ,-12) (SBAR (RB even-13) (IN if-14) (FRAG (ADVP (RB right-15)) (ADVP (RB now-16)))) (, ,-17) (PP (IN at-18) (NP (DT this-19) (NN moment-20))))))))))) (, ,-21) (NP (PRP I-22)) (VP (MD ca-23) (RB n't-24) (VP (VB help-25) (CC but-26) (VB take-27) (NP (PRP it-28)) (PP (DT all-29) (IN into-30) (NP (PRP$ my-31) (JJ tired-32) (JJ little-33) (NN heart-34))))) (. .-35)))",0,0,0,0,0,0,0,0,0,1,0,0,1,0,1,0,0,0,0,1,0,0,1,0,0,0,1,0,0,1,0,0,1,0,1,0,0,0,1,0,1,1,0,0,0,1,0,0,0,0,0
Evaluation,3,"(ROOT (S (PP (IN In-0) (ADJP (JJ short-1))) (, ,-2) (NP (PRP I-3)) (VP (VBP need-4) (S (VP (TO to-5) (VP (VB stop-6) (S (VP (VBG trying-7) (S (VP (TO to-8) (VP (VB push-9) (NP (DT the-10) (NN river-11))))))))))) (. .-12)))",0,0,0,0,0,0,0,0,0,0,1,0,0,0,0,0,0,0,0,1,1,0,0,0,0,0,0,0,0,0,0,0,0,0,1,0,0,0,1,0,0,0,0,0,0,1,0,0,0,0,0
Evaluation,3,(ROOT (FRAG (NP (DT No-0)) (. .-1))),0,0,0,0,0,0,0,0,0,0,1,0,0,0,0,0,0,0,0,0,0,0,0,0,0,0,0,0,0,0,0,0,0,0,0,0,0,0,0,0,0,1,0,0,0,0,0,0,0,0,0
Evaluation,3,"(ROOT (S (S (ADVP (RB Instead-0)) (, ,-1) (NP (PRP I-2)) (VP (VBP think-3) (SBAR (S (NP (PRP I-4)) (VP (VBP 'm-5) (VP (VBG going-6) (S (VP (TO to-7) (ADVP (RB just-8)) (VP (VP (VB strip-9) (ADJP (JJ naked-10))) (CC and-11) (VP (NP (NN jump-12)) (PP (IN in-13)))))))))))) (: ;-14) (S (S (VP (VBG hoping-15) (NP (DT the-16) (NNS rapids-17)))) (VP (VP (VBP are-18) (RB n't-19) (ADJP (RB too-20) (JJ cold-21))) (CC and-22) (VP (MD wo-23) (RB n't-24) (VP (VB leave-25) (S (NP (PRP me-26)) (VP (VBN smashed-27) (PP (IN against-28) (NP (DT the-29) (NNS rocks-30))))))))) (. .-31)))",0,0,0,0,0,0,0,0,0,0,1,0,0,1,1,1,1,0,1,1,1,0,0,0,0,0,0,0,0,0,0,0,1,1,1,1,0,0,1,1,1,1,0,0,0,0,0,0,0,0,0
Evaluation,3,"(ROOT (FRAG (PP (IN Because-0) (ADVP (RB really-1))) (, ,-2) (NP (DT the-3) (NN ride-4)) (. ?-5)))",0,0,0,0,0,0,0,0,0,0,1,0,0,0,0,0,0,0,0,0,0,0,0,0,0,0,0,0,0,0,0,0,0,0,0,0,0,0,0,0,0,0,1,0,0,0,0,0,0,0,0
Evaluation,3,(ROOT (S (VP (ADVP (RB So-0)) (VBG freaking-1) (NP (NN fun-2))) (. .-3))),0,0,0,0,0,0,0,0,0,0,0,1,0,0,0,0,0,0,0,0,0,0,0,0,0,0,0,0,0,0,0,0,1,0,0,0,0,1,0,0,0,0,0,0,0,0,0,0,0,0,0
Evaluation,3,(ROOT (S (CC And-0) (NP (PRP I-1)) (VP (MD could-2) (VP (VB use-3) (NP (NP (DT some-4)) (VP (VBG reminding-5) (PP (IN about-6) (NP (DT that-7))) (ADVP (RB now-8) (CC and-9) (RB again-10)))))) (. .-11))),0,0,0,0,0,0,0,0,0,0,0,1,0,0,0,0,0,0,0,0,0,0,0,0,0,0,0,0,0,0,0,0,1,0,1,0,1,0,1,0,1,0,0,0,0,0,0,0,1,0,0
Evaluation,3,(ROOT (S (NP (NN Anyone-0)) (VP (VBP want-1) (S (VP (TO to-2) (VP (VB jump-3) (PP (IN in-4)))))) (. ?-5))),0,0,0,0,0,0,0,0,0,0,0,1,0,0,0,0,0,0,0,0,1,0,0,0,0,0,0,0,0,0,0,0,0,0,0,0,0,0,1,0,0,0,1,0,0,1,0,0,0,0,0
Evaluation,3,(ROOT (NP (NP (NNS Swimsuits-0)) (NP (JJ optional-1)) (. .-2))),0,0,0,0,0,0,0,0,0,0,0,1,0,0,0,0,0,0,0,0,0,0,0,0,0,0,0,0,0,0,0,0,0,0,0,0,0,0,0,0,0,0,0,0,0,0,0,0,0,1,0
